<svg xmlns="http://www.w3.org/2000/svg" width="22" height="22" viewBox="0 0 22 22">
  <g id="btn_plus" transform="translate(-308 -627)">
    <circle id="타원_226" data-name="타원 226" cx="11" cy="11" r="11" transform="translate(308 627)" fill="#6e8ca0"/>
    <path id="합치기_1" data-name="합치기 1" d="M5.25,12V6.75H0V5.25H5.25V0h1.5V5.25H12v1.5H6.75V12Z" transform="translate(313 632)" fill="#fff"/>
  </g>
</svg>
