<svg xmlns="http://www.w3.org/2000/svg" width="160" height="45.142" viewBox="0 0 160 45.142">
  <path id="tooltip_bg" d="M741.858-529H620.7a3.786,3.786,0,0,1-3.7-3.864v-26.273A3.786,3.786,0,0,1,620.7-563H773.3a3.786,3.786,0,0,1,3.7,3.864v26.273A3.786,3.786,0,0,1,773.3-529h-9.154L753-517.858Z" transform="translate(-617 563)" fill="#324755"/>
</svg>
