<svg xmlns="http://www.w3.org/2000/svg" width="10.734" height="6.769" viewBox="0 0 10.734 6.769">
  <g id="ic_arrow_down" transform="translate(0.367 0.383)">
    <g id="ic_arrow_down-2" data-name="ic_arrow_down" transform="translate(10 6) rotate(180)">
      <rect id="사각형_2607" data-name="사각형 2607" width="10" height="6" fill="rgba(255,255,255,0)"/>
      <path id="패스_2457" data-name="패스 2457" d="M3.856,3.941,0,0" transform="translate(5.097 1.028)" fill="none" stroke="#7d8184" stroke-linecap="round" stroke-width="2"/>
      <path id="패스_2458" data-name="패스 2458" d="M4.01,0,0,3.9" transform="translate(1.047 1.067)" fill="none" stroke="#7d8184" stroke-linecap="round" stroke-width="2"/>
    </g>
  </g>
</svg>
