<svg xmlns="http://www.w3.org/2000/svg" width="14" height="14" viewBox="0 0 14 14">
  <g id="ic_info" transform="translate(-389 -433.661)">
    <g id="타원_770" data-name="타원 770" transform="translate(389 433.661)" fill="#fff" stroke="#6e8ca0" stroke-width="1">
      <circle cx="7" cy="7" r="7" stroke="none"/>
      <circle cx="7" cy="7" r="6.5" fill="none"/>
    </g>
    <text id="_" data-name="?" transform="translate(394 444.661)" fill="#6e8ca0" font-size="10" font-family="OpenSans-Bold, Open Sans" font-weight="700"><tspan x="0" y="0">?</tspan></text>
  </g>
</svg>
