<svg xmlns="http://www.w3.org/2000/svg" width="30" height="30.301" viewBox="0 0 30 30.301">
  <g id="ic_korean_sm" transform="translate(0 0.301)">
    <rect id="사각형_2411" data-name="사각형 2411" width="30" height="30" fill="rgba(255,255,255,0)"/>
    <g id="그룹_4657" data-name="그룹 4657" transform="translate(1.038)">
      <g id="빼기_1" data-name="빼기 1" transform="translate(0.459 7.751)" fill="#fff" stroke-linecap="round">
        <path d="M 16.50868988037109 15.75353717803955 C 16.10357093811035 15.75353717803955 15.69874000549316 15.71764755249023 15.30545997619629 15.64686679840088 L 15.2493200302124 15.63676738739014 L 15.19435977935791 15.65201759338379 C 14.95149040222168 15.7193775177002 14.69847965240479 15.75353717803955 14.44233989715576 15.75353717803955 C 13.25430011749268 15.75353717803955 12.20584964752197 15.00272750854492 11.89268016815186 13.92770671844482 L 11.87516021728516 13.86753749847412 L 11.83131980895996 13.82274723052979 C 10.74460983276367 12.71253681182861 10.14614009857178 11.26902675628662 10.14614009857178 9.758127212524414 C 10.14614009857178 9.726946830749512 10.14647960662842 9.695727348327637 10.14715957641602 9.664546966552734 L 10.15834045410156 9.15253734588623 L 9.747770309448242 9.458686828613281 C 9.019289970397949 10.00190734863281 8.141650199890137 10.28903675079346 7.209740161895752 10.28903675079346 C 6.629179954528809 10.28903675079346 6.068449974060059 10.17699718475342 5.54311990737915 9.956037521362305 C 5.03626012802124 9.742877006530762 4.5871901512146 9.439547538757324 4.20835018157959 9.05445671081543 L 4.052360057830811 8.89588737487793 L 3.876729965209961 9.032377243041992 C 3.481950044631958 9.339167594909668 2.98173999786377 9.508127212524414 2.468260049819946 9.508127212524414 C 1.245110034942627 9.508127212524414 0.2500000596046448 8.569766998291016 0.2500000596046448 7.416367053985596 C 0.2500000596046448 6.919997215270996 0.4376200437545776 6.438756942749023 0.7783000469207764 6.061316967010498 C 1.1181401014328 5.68477725982666 1.588299989700317 5.43317699432373 2.102169990539551 5.352867126464844 L 2.354150056838989 5.31348705291748 L 2.309750080108643 5.062346935272217 C 2.299000024795532 5.001527309417725 2.29355001449585 4.940047264099121 2.29355001449585 4.879617214202881 C 2.29355001449585 4.263926982879639 2.830199956893921 3.763027191162109 3.489840030670166 3.763027191162109 C 3.654380083084106 3.763027191162109 3.814340114593506 3.793827056884766 3.965250015258789 3.85457706451416 L 4.118130207061768 3.916117191314697 L 4.234950065612793 3.799867153167725 C 4.358254432678223 3.67716383934021 4.490315914154053 3.561652660369873 4.628152370452881 3.455906867980957 C 4.963685989379883 3.597420692443848 5.321773052215576 3.685482025146484 5.695680141448975 3.718197107315063 C 5.800640106201172 3.727397203445435 5.907189846038818 3.732057094573975 6.012340068817139 3.732057094573975 C 6.568500518798828 3.732057094573975 7.104575634002686 3.604136943817139 7.575379371643066 3.360540390014648 C 8.116103172302246 3.917128562927246 8.869033813476563 4.27169942855835 9.672360420227051 4.342117309570313 C 9.774820327758789 4.350897312164307 9.876449584960938 4.355337142944336 9.974880218505859 4.355337142944336 C 10.90233421325684 4.355337142944336 11.78915309906006 3.969263076782227 12.38214206695557 3.314798831939697 C 12.54182529449463 3.359334945678711 12.7062931060791 3.389165163040161 12.87306022644043 3.403757095336914 C 12.95188045501709 3.410657167434692 13.03176975250244 3.414157152175903 13.11048984527588 3.414157152175903 C 14.39468765258789 3.414157152175903 15.44270420074463 2.525396108627319 15.55696678161621 1.34355103969574 C 16.0508918762207 0.6578682661056519 16.86637878417969 0.249997153878212 17.74876976013184 0.249997153878212 C 19.09193992614746 0.249997153878212 20.22068023681641 1.193487167358398 20.37430000305176 2.444647073745728 L 20.40810012817383 2.719877243041992 L 20.67836952209473 2.657837152481079 C 20.86920928955078 2.614037275314331 21.06550979614258 2.591827154159546 21.26180076599121 2.591827154159546 C 21.69288063049316 2.591827154159546 22.11647987365723 2.698987245559692 22.48682022094727 2.901727199554443 C 22.84461975097656 3.097647190093994 23.1457405090332 3.377907276153564 23.35759925842285 3.712217092514038 L 23.41464996337891 3.802227258682251 L 23.51909065246582 3.823397159576416 C 23.99373054504395 3.919637203216553 24.43770980834961 4.131166934967041 24.80302047729492 4.435137271881104 C 25.16411972045898 4.735456943511963 25.43988037109375 5.118597030639648 25.60054016113281 5.543167114257813 L 25.63278961181641 5.628376960754395 L 25.71229934692383 5.672867298126221 C 26.0998706817627 5.889697074890137 26.42421913146973 6.198187351226807 26.65030097961426 6.564967155456543 C 26.88187980651855 6.940567016601563 27.00428009033203 7.369926929473877 27.00428009033203 7.806647300720215 C 27.00428009033203 8.288726806640625 26.85724067687988 8.755937576293945 26.57906913757324 9.157767295837402 L 26.46833992004395 9.317717552185059 L 26.5961799621582 9.464346885681152 C 26.85935020446777 9.766226768493652 27.00428009033203 10.14788722991943 27.00428009033203 10.53903675079346 C 27.00428009033203 11.47722721099854 26.18948936462402 12.24050712585449 25.18796920776367 12.24050712585449 C 24.18641090393066 12.24050712585449 23.37158966064453 11.47722721099854 23.37158966064453 10.53903675079346 C 23.37158966064453 10.46794700622559 23.37675094604492 10.39330673217773 23.38693046569824 10.31717681884766 L 23.41193962097168 10.13022708892822 L 23.2390308380127 10.05485725402832 C 23.22765922546387 10.04990673065186 23.21622085571289 10.04466724395752 23.20478057861328 10.03939723968506 L 22.8813304901123 9.890336990356445 L 22.85104942321777 10.24519729614258 C 22.72356986999512 11.73955726623535 22.00889015197754 13.12674713134766 20.83867073059082 14.15123748779297 C 19.65848922729492 15.18449687957764 18.12074089050293 15.75353717803955 16.50868988037109 15.75353717803955 Z" stroke="none"/>
        <path d="M 16.50868988037109 15.50353717803955 C 18.06014060974121 15.50353717803955 19.53940010070801 14.95647716522217 20.67399978637695 13.96313762664795 C 21.7952995300293 12.98146724700928 22.47999954223633 11.65352725982666 22.60195922851563 10.22394752502441 L 22.66250991821289 9.514226913452148 L 23.30941009521484 9.812347412109375 C 23.31926918029785 9.816886901855469 23.32912063598633 9.821416854858398 23.33892059326172 9.825687408447266 L 23.68473052978516 9.976407051086426 L 23.63472938537598 10.35031700134277 C 23.62601089477539 10.41549682617188 23.62158966064453 10.47899723052979 23.62158966064453 10.53903675079346 C 23.62158966064453 11.33937740325928 24.32427024841309 11.99050712585449 25.18796920776367 11.99050712585449 C 26.05163955688477 11.99050712585449 26.75428009033203 11.33937740325928 26.75428009033203 10.53903675079346 C 26.75428009033203 10.20829677581787 26.63121032714844 9.884977340698242 26.40773010253906 9.628637313842773 L 26.15206909179688 9.335367202758789 L 26.37351036071777 9.015477180480957 C 26.62261009216309 8.655636787414551 26.75428009033203 8.237637519836426 26.75428009033203 7.806647300720215 C 26.75428009033203 7.416286945343018 26.64473915100098 7.032307147979736 26.43748092651367 6.696146965026855 C 26.23369979858398 6.365527153015137 25.94071960449219 6.087127208709717 25.59023094177246 5.891036987304688 L 25.43120956420898 5.802067279815674 L 25.36672019958496 5.631647109985352 C 25.22130966186523 5.247386932373047 24.97112083435059 4.900116920471191 24.64311981201172 4.627306938171387 C 24.30949974060059 4.349717140197754 23.90364074707031 4.15645694732666 23.46940994262695 4.068417072296143 L 23.26053047180176 4.02606725692749 L 23.14644050598145 3.846037149429321 C 22.95716094970703 3.547377109527588 22.68754005432129 3.296657085418701 22.36676979064941 3.121017217636108 C 22.03313064575195 2.938367128372192 21.65103912353516 2.841827154159546 21.26180076599121 2.841827154159546 C 21.08430099487305 2.841827154159546 20.90682029724121 2.861907243728638 20.73428916931152 2.901507139205933 L 20.19375991821289 3.025577068328857 L 20.12616920471191 2.475117206573486 C 19.9879093170166 1.349117159843445 18.96585083007813 0.4999971687793732 17.74876976013184 0.4999971687793732 C 16.96920776367188 0.4999971687793732 16.24819946289063 0.8487609028816223 15.79794025421143 1.438280463218689 C 15.63739776611328 2.713750600814819 14.49902629852295 3.664157152175903 13.11048984527588 3.664157152175903 C 13.02451992034912 3.664157152175903 12.93729972839355 3.660337209701538 12.85126972198486 3.652807235717773 C 12.72017383575439 3.641335248947144 12.59033489227295 3.621229410171509 12.4627799987793 3.592709302902222 C 11.82582569122314 4.231830596923828 10.91938495635986 4.605337142944336 9.974880218505859 4.605337142944336 C 9.869350433349609 4.605337142944336 9.760530471801758 4.600597381591797 9.650529861450195 4.591156959533691 C 8.850488662719727 4.521032333374023 8.096253395080566 4.187754154205322 7.526535987854004 3.661876678466797 C 7.061437606811523 3.872199058532715 6.545182228088379 3.982057094573975 6.012340068817139 3.982057094573975 C 5.899940013885498 3.982057094573975 5.78603982925415 3.977067232131958 5.673890113830566 3.967247247695923 C 5.325187683105469 3.936736106872559 4.989144325256348 3.861135721206665 4.670504093170166 3.741780996322632 C 4.580600738525391 3.816182136535645 4.493854999542236 3.894905567169189 4.411290168762207 3.977067232131958 L 4.17765998840332 4.209567070007324 L 3.871900081634521 4.086487293243408 C 3.750790119171143 4.037747383117676 3.622250080108643 4.013027191162109 3.489840030670166 4.013027191162109 C 2.968050003051758 4.013027191162109 2.54355001449585 4.401777267456055 2.54355001449585 4.879617214202881 C 2.54355001449585 4.925497055053711 2.547719955444336 4.972337245941162 2.5559401512146 5.018836975097656 L 2.644720077514648 5.521107196807861 L 2.140779972076416 5.599867343902588 C 1.683390021324158 5.671357154846191 1.265430092811584 5.894717216491699 0.9638800621032715 6.228816986083984 C 0.6647400259971619 6.56024694442749 0.5000000596046448 6.981986999511719 0.5000000596046448 7.416367053985596 C 0.5000000596046448 8.431917190551758 1.382960081100464 9.258127212524414 2.468260049819946 9.258127212524414 C 2.926470041275024 9.258127212524414 3.372189998626709 9.107847213745117 3.723320007324219 8.834977149963379 L 4.07459020614624 8.561997413635254 L 4.386569976806641 8.879127502441406 C 4.742100238800049 9.240527153015137 5.163820266723633 9.525317192077637 5.640049934387207 9.725586891174316 C 6.134530067443848 9.933577537536621 6.662650108337402 10.03903675079346 7.209740161895752 10.03903675079346 C 8.087380409240723 10.03903675079346 8.913339614868164 9.769046783447266 9.598330497741699 9.258267402648926 L 10.41944980621338 8.645967483520508 L 10.3971004486084 9.67000675201416 C 10.39645957946777 9.699367523193359 10.39614009857178 9.728767395019531 10.39614009857178 9.758127212524414 C 10.39614009857178 11.20325756072998 10.96928024291992 12.58466720581055 12.00998020172119 13.64787673950195 L 12.09764957427979 13.73744678497314 L 12.13271045684814 13.85778713226318 C 12.41497993469238 14.82677745819092 13.3647403717041 15.50353717803955 14.44233989715576 15.50353717803955 C 14.67590045928955 15.50353717803955 14.9064302444458 15.47243690490723 15.12753009796143 15.41110706329346 L 15.23746013641357 15.38061714172363 L 15.34974002838135 15.40082740783691 C 15.72844982147217 15.4689769744873 16.11837959289551 15.50353717803955 16.50868988037109 15.50353717803955 M 16.50868988037109 16.00353622436523 C 16.08883094787598 16.00353622436523 15.66907978057861 15.96632671356201 15.26117992401123 15.89291763305664 C 14.9965295791626 15.96632671356201 14.72097015380859 16.00353622436523 14.44233989715576 16.00353622436523 C 13.14385032653809 16.00353622436523 11.99672031402588 15.17870712280273 11.65266036987305 13.99762725830078 C 10.52002048492432 12.84048748016357 9.896140098571777 11.33480739593506 9.896140098571777 9.758127212524414 C 9.896140098571777 9.725127220153809 9.896499633789063 9.692087173461914 9.897219657897949 9.659096717834473 C 9.125109672546387 10.23484706878662 8.19558048248291 10.53903675079346 7.209740161895752 10.53903675079346 C 6.595749855041504 10.53903675079346 6.002409934997559 10.42043685913086 5.446189880371094 10.1864767074585 C 4.908760070800781 9.960467338562012 4.432320117950439 9.638607025146484 4.030129909515381 9.229777336120605 C 3.59168004989624 9.570507049560547 3.036819934844971 9.758127212524414 2.468260049819946 9.758127212524414 C 1.107270002365112 9.758127212524414 4.516601492809968e-08 8.707636833190918 4.516601492809968e-08 7.416367053985596 C 4.516601492809968e-08 6.858087062835693 0.2104500383138657 6.31732702255249 0.592710018157959 5.893806934356689 C 0.9708300232887268 5.474867343902588 1.493220090866089 5.19500732421875 2.063570022583008 5.105867385864258 C 2.050150156021118 5.029947280883789 2.04355001449585 4.953707218170166 2.04355001449585 4.879617214202881 C 2.04355001449585 4.126057147979736 2.692360162734985 3.513027191162109 3.489840030670166 3.513027191162109 C 3.686540126800537 3.513027191162109 3.877890110015869 3.549917221069336 4.058599948883057 3.622657060623169 C 4.204720020294189 3.47724723815918 4.362279891967773 3.341527223587036 4.526540279388428 3.219357252120972 C 4.528170108795166 3.191437244415283 4.530550003051758 3.163687229156494 4.53341007232666 3.136997222900391 C 4.898640155792236 3.320527076721191 5.296780109405518 3.432337045669556 5.717470169067383 3.469147205352783 C 5.815390110015869 3.477727174758911 5.914619922637939 3.482057094573975 6.012340068817139 3.482057094573975 C 6.595510005950928 3.482057094573975 7.153749942779541 3.331047058105469 7.626780033111572 3.045437097549438 C 8.130860328674316 3.640247106552124 8.884169578552246 4.022067070007324 9.69419002532959 4.093067169189453 C 9.789090156555176 4.101207256317139 9.883520126342773 4.105337142944336 9.974880218505859 4.105337142944336 C 10.88766002655029 4.105337142944336 11.75669002532959 3.702187061309814 12.29940032958984 3.026857137680054 C 12.49007034301758 3.093757152557373 12.69023990631104 3.136807203292847 12.89484977722168 3.154707193374634 C 12.96611976623535 3.16094708442688 13.03870010375977 3.164157152175903 13.11048984527588 3.164157152175903 C 14.27132034301758 3.164157152175903 15.2167501449585 2.363547086715698 15.30974006652832 1.301947116851807 C 15.31177043914795 1.278557181358337 15.31334972381592 1.255177140235901 15.31453990936279 1.23186719417572 C 15.31772041320801 1.235477209091187 15.32034015655518 1.238577127456665 15.32291984558105 1.241637110710144 C 15.86011981964111 0.4644071459770203 16.7669792175293 -2.841491777871852e-06 17.74876976013184 -2.841491777871852e-06 C 19.21800994873047 -2.841491777871852e-06 20.45344924926758 1.037897109985352 20.62244033813477 2.414177179336548 C 20.83209037780762 2.366057157516479 21.0473804473877 2.341827154159546 21.26180076599121 2.341827154159546 C 21.73471069335938 2.341827154159546 22.1998291015625 2.459607124328613 22.60687065124512 2.682437181472778 C 23.00171089172363 2.898637056350708 23.3343391418457 3.208477258682251 23.56876945495605 3.578387260437012 C 24.08377075195313 3.682807207107544 24.5659294128418 3.912637233734131 24.96291923522949 4.24295711517334 C 25.35712051391602 4.570816993713379 25.65846061706543 4.989847183227539 25.83436012268066 5.454687118530273 C 26.25898933410645 5.692256927490234 26.61479949951172 6.030917167663574 26.86311912536621 6.43378734588623 C 27.11899948120117 6.84879732131958 27.25428009033203 7.323537349700928 27.25428009033203 7.806647300720215 C 27.25428009033203 8.339797019958496 27.09188079833984 8.856217384338379 26.78462028503418 9.300066947937012 C 27.08746910095215 9.647457122802734 27.25428009033203 10.08760738372803 27.25428009033203 10.53903675079346 C 27.25428009033203 11.61509704589844 26.32732009887695 12.49050712585449 25.18796920776367 12.49050712585449 C 24.04854965209961 12.49050712585449 23.12158966064453 11.61509704589844 23.12158966064453 10.53903675079346 C 23.12158966064453 10.45680713653564 23.12751007080078 10.37099742889404 23.13913917541504 10.28403759002686 C 23.12619972229004 10.27839756011963 23.1131706237793 10.27244758605957 23.10014915466309 10.26644706726074 C 22.96713066101074 11.82569694519043 22.22230911254883 13.27217674255371 21.00334930419922 14.33933734893799 C 19.77758979797363 15.41249752044678 18.1813793182373 16.00353622436523 16.50868988037109 16.00353622436523 Z" stroke="none" fill="#324755"/>
      </g>
      <g id="그룹_22" data-name="그룹 22" transform="translate(0 15.171)">
        <g id="패스_9" data-name="패스 9" transform="translate(-0.293 -38.493)" fill="#fff">
          <path d="M 14.34484958648682 51.50979995727539 C 10.62190914154053 51.50979995727539 7.14561939239502 50.16547775268555 4.55635929107666 47.7244873046875 C 2.029471874237061 45.34230041503906 0.6109731197357178 42.16158676147461 0.5452054142951965 38.74420928955078 C 1.260714888572693 38.74312210083008 3.524192571640015 38.74256896972656 7.298439502716064 38.74256896972656 C 13.43697929382324 38.74256896972656 21.99606895446777 38.74404907226563 26.06717872619629 38.74474716186523 L 28.14447593688965 38.74507522583008 C 28.07854461669922 42.16220855712891 26.66006851196289 45.34244918823242 24.13333892822266 47.7244873046875 C 21.5440788269043 50.16547775268555 18.06778907775879 51.50979995727539 14.34484958648682 51.50979995727539 Z" stroke="none"/>
          <path d="M 7.298439025878906 38.99256896972656 C 3.384363174438477 38.99256896972656 1.571235656738281 38.99318313598633 0.8026294708251953 38.99391937255859 C 0.9309406280517578 42.24677658081055 2.313274383544922 45.26626968383789 4.727849960327148 47.54257965087891 C 7.270540237426758 49.93966674804688 10.6859188079834 51.25979995727539 14.34484958648682 51.25979995727539 C 18.00378036499023 51.25979995727539 21.41915893554688 49.93966674804688 23.96184921264648 47.54257965087891 C 26.3761157989502 45.26656341552734 27.75840950012207 42.24741363525391 27.88702392578125 38.99503326416016 L 26.06711959838867 38.99474716186523 C 21.99601936340332 38.99404907226563 13.4369592666626 38.99256896972656 7.298439025878906 38.99256896972656 M 7.298437118530273 38.49256896972656 C 15.35241317749023 38.49256896972656 27.57321166992188 38.4951057434082 28.35737609863281 38.4951057434082 C 28.3837890625 38.4951057434082 28.39702415466309 38.4951057434082 28.39688873291016 38.49509811401367 C 28.39688873291016 45.90561676025391 22.16874885559082 51.75979995727539 14.34484958648682 51.75979995727539 C 6.520950317382813 51.75979995727539 0.2928085327148438 45.90561676025391 0.2928085327148438 38.49509811401367 C 0.2947959899902344 38.49320220947266 3.27747917175293 38.49256896972656 7.298437118530273 38.49256896972656 Z" stroke="none" fill="#324755"/>
        </g>
        <path id="패스_12" data-name="패스 12" d="M15.707,38.845c0,6.516-5.541,10.839-9.967,10.839S-5.4,45.361-5.4,38.845C-5.154,38.694,15.584,38.845,15.707,38.845Z" transform="translate(7.791 -36.677)" fill="#f2f2f2"/>
        <g id="사각형_17" data-name="사각형 17" transform="translate(8.197 12.096)" fill="#fff" stroke="#324755" stroke-width="0.5">
          <rect width="11.71" height="2.732" stroke="none"/>
          <rect x="0.25" y="0.25" width="11.21" height="2.232" fill="none"/>
        </g>
      </g>
      <g id="그룹_4655" data-name="그룹 4655" transform="translate(5.734 4.892) rotate(-8)">
        <g id="합치기_5" data-name="합치기 5" transform="translate(0.143 0)" fill="#fff">
          <path d="M 6.050451278686523 4.434179782867432 C 5.615461349487305 4.434179782867432 5.206281185150146 4.305529594421387 4.867151260375977 4.062129497528076 L 4.714210987091064 3.952359676361084 L 4.566461086273193 4.069009780883789 C 4.263881206512451 4.307909488677979 3.899591207504272 4.434179782867432 3.512981176376343 4.434179782867432 C 3.150561094284058 4.434179782867432 2.80475115776062 4.321829795837402 2.512911081314087 4.109289646148682 L 2.347291231155396 3.988659620285034 L 2.196491241455078 4.12736988067627 C 1.984501123428345 4.322349548339844 1.681871175765991 4.434179782867432 1.366191148757935 4.434179782867432 C 0.7507211565971375 4.434179782867432 0.2500011324882507 4.020939826965332 0.2500011324882507 3.51298975944519 C 0.2500011324882507 3.25154972076416 0.3865711390972137 3.001079559326172 0.6246811151504517 2.825809717178345 L 0.7767311334609985 2.713889598846436 L 0.7106911540031433 2.537019729614258 C 0.664181113243103 2.412469625473022 0.6406011581420898 2.281169652938843 0.6406011581420898 2.14678955078125 C 0.6406011581420898 1.531299710273743 1.141181111335754 1.030559659004211 1.756471157073975 1.030559659004211 C 1.990631103515625 1.030559659004211 2.214731216430664 1.102249622344971 2.404541254043579 1.237889647483826 L 2.534581184387207 1.330809712409973 L 2.673501253128052 1.251779675483704 C 2.73159122467041 1.218739628791809 2.792221069335938 1.188869595527649 2.853711128234863 1.162999629974365 L 2.974911212921143 1.112009644508362 L 3.001571178436279 0.9832696318626404 C 3.089581251144409 0.5583796501159668 3.468951225280762 0.2499996572732925 3.903621196746826 0.2499996572732925 C 4.130501270294189 0.2499996572732925 4.348461151123047 0.3332996666431427 4.517361164093018 0.4845496416091919 L 4.684141159057617 0.6339196562767029 L 4.850921154022217 0.4845496416091919 C 5.019821166992188 0.3332996666431427 5.237841129302979 0.2499996572732925 5.464821338653564 0.2499996572732925 C 5.871551036834717 0.2499996572732925 6.235111236572266 0.5224396586418152 6.348931312561035 0.9125296473503113 L 6.38978099822998 1.052549600601196 L 6.531781196594238 1.085879683494568 C 6.951291084289551 1.184369683265686 7.324440956115723 1.412879705429077 7.582480907440186 1.729309678077698 L 7.646251201629639 1.807509660720825 L 7.746431350708008 1.819539666175842 C 8.305901527404785 1.886709690093994 8.727801322937012 2.363109588623047 8.727801322937012 2.927669763565063 C 8.727801322937012 3.542979717254639 8.227081298828125 4.043579578399658 7.611611366271973 4.043579578399658 C 7.545161247253418 4.043579578399658 7.478541374206543 4.037699699401855 7.413600921630859 4.02610969543457 L 7.31049108505249 4.007699489593506 L 7.225050926208496 4.068289756774902 C 6.887521266937256 4.30765962600708 6.481351375579834 4.434179782867432 6.050451278686523 4.434179782867432 Z" stroke="none"/>
          <path d="M 6.050451278686523 4.184179782867432 C 6.429241180419922 4.184179782867432 6.785411357879639 4.07358980178833 7.080440998077393 3.864369630813599 L 7.251311302185059 3.743189573287964 L 7.457530975341797 3.779999732971191 C 7.508011341094971 3.789009571075439 7.559851169586182 3.793579578399658 7.611611366271973 3.793579578399658 C 8.089231491088867 3.793579578399658 8.477801322937012 3.405129671096802 8.477801322937012 2.927669763565063 C 8.477801322937012 2.489539623260498 8.150561332702637 2.11985969543457 7.716620922088623 2.067749738693237 L 7.516271114349365 2.043699741363525 L 7.388741016387939 1.887309670448303 C 7.165370941162109 1.613389611244202 6.840741157531738 1.415209650993347 6.474651336669922 1.329269647598267 L 6.190650939941406 1.262589693069458 L 6.108931064605713 0.9825496673583984 C 6.026031017303467 0.6984296441078186 5.761161327362061 0.4999996423721313 5.464821338653564 0.4999996423721313 C 5.299470901489258 0.4999996423721313 5.14069128036499 0.5606496334075928 5.017711162567139 0.6707896590232849 L 4.684141159057617 0.9695196747779846 L 4.350571155548096 0.6707896590232849 C 4.227591037750244 0.5606496334075928 4.06886100769043 0.4999996423721313 3.903621196746826 0.4999996423721313 C 3.586881160736084 0.4999996423721313 3.310471057891846 0.7245696783065796 3.246381044387817 1.033969640731812 L 3.193041086196899 1.291469693183899 L 2.950661182403564 1.393439650535583 C 2.898271083831787 1.41547966003418 2.846611022949219 1.440929651260376 2.797121047973633 1.469079613685608 L 2.5192711353302 1.627139687538147 L 2.259201049804688 1.441289663314819 C 2.112041234970093 1.336139678955078 1.938201189041138 1.280559659004211 1.756471157073975 1.280559659004211 C 1.279031157493591 1.280559659004211 0.8906011581420898 1.66914963722229 0.8906011581420898 2.14678955078125 C 0.8906011581420898 2.251209735870361 0.9088711142539978 2.353089570999146 0.9448911547660828 2.449569702148438 L 1.076971173286438 2.803309679031372 L 0.7728811502456665 3.027139663696289 C 0.670971155166626 3.102159738540649 0.5000011324882507 3.265029668807983 0.5000011324882507 3.51298975944519 C 0.5000011324882507 3.876809597015381 0.8966711163520813 4.184179782867432 1.366191148757935 4.184179782867432 C 1.619911193847656 4.184179782867432 1.86086118221283 4.096409797668457 2.027241230010986 3.943369626998901 L 2.328851222991943 3.665949583053589 L 2.660091161727905 3.907199621200562 C 2.908891201019287 4.088399887084961 3.203811168670654 4.184179782867432 3.512981176376343 4.184179782867432 C 3.842811107635498 4.184179782867432 4.153531074523926 4.076509475708008 4.411550998687744 3.872799634933472 L 4.707051277160645 3.639489650726318 L 5.012921333312988 3.859019756317139 C 5.309301376342773 4.071739673614502 5.668081283569336 4.184179782867432 6.050451278686523 4.184179782867432 M 6.050451278686523 4.684179782867432 C 5.548561096191406 4.684179782867432 5.086971282958984 4.5276198387146 4.721381187438965 4.26522970199585 C 4.389040946960449 4.5276198387146 3.969341039657593 4.684179782867432 3.512981176376343 4.684179782867432 C 3.084191083908081 4.684179782867432 2.687721252441406 4.54587984085083 2.365731239318848 4.3113694190979 C 2.116341114044189 4.540759563446045 1.760761141777039 4.684179782867432 1.366191148757935 4.684179782867432 C 0.6119211316108704 4.684179782867432 1.138305719905475e-06 4.159729480743408 1.138305719905475e-06 3.51298975944519 C 1.138305719905475e-06 3.157529592514038 0.1847611367702484 2.839199542999268 0.4764811396598816 2.624469757080078 C 0.4209711253643036 2.475799560546875 0.3906011283397675 2.314829587936401 0.3906011283397675 2.14678955078125 C 0.3906011283397675 1.39251971244812 1.002201080322266 0.7805596590042114 1.756471157073975 0.7805596590042114 C 2.052331209182739 0.7805596590042114 2.326231241226196 0.8746596574783325 2.549891233444214 1.03447961807251 C 2.616481065750122 0.9965996742248535 2.685531139373779 0.9625296592712402 2.756771087646484 0.9325596690177917 C 2.867031097412109 0.4002496600151062 3.338711023330688 -3.469848763870687e-07 3.903621196746826 -3.469848763870687e-07 C 4.203411102294922 -3.469848763870687e-07 4.476951122283936 0.1127696558833122 4.684141159057617 0.2983196675777435 C 4.891331195831299 0.1127696558833122 5.164871215820313 -3.469848763870687e-07 5.464821338653564 -3.469848763870687e-07 C 5.997401237487793 -3.469848763870687e-07 6.446891307830811 0.3557296395301819 6.588921070098877 0.8424996733665466 C 7.071280956268311 0.9557396769523621 7.487921237945557 1.217769622802734 7.776231288909912 1.571319699287415 C 8.453161239624023 1.652599692344666 8.977801322937012 2.228829622268677 8.977801322937012 2.927669763565063 C 8.977801322937012 3.681939601898193 8.366201400756836 4.293579578399658 7.611611366271973 4.293579578399658 C 7.529061317443848 4.293579578399658 7.448211193084717 4.286239624023438 7.36967134475708 4.272219657897949 C 7.005721092224121 4.530319690704346 6.547821044921875 4.684179782867432 6.050451278686523 4.684179782867432 Z" stroke="none" fill="#324755"/>
        </g>
        <g id="합치기_7" data-name="합치기 7" transform="translate(0 0.881)" fill="#00faac">
          <path d="M 4.399591445922852 5.144960880279541 L 4.399581432342529 5.144960880279541 C 2.073381662368774 5.145081043243408 0.3761715888977051 3.681380987167358 0.2743915915489197 2.713191032409668 L 0.2733663022518158 2.703431129455566 C 0.4119131863117218 2.626774311065674 0.9241210222244263 2.439260244369507 2.731241703033447 2.298430919647217 C 3.97059154510498 2.201840877532959 5.582951545715332 2.146450996398926 7.154881477355957 2.146450996398926 C 7.561971664428711 2.146450996398926 7.949831485748291 2.150270938873291 8.307671546936035 2.157810926437378 L 8.329431533813477 2.158270835876465 L 8.35094165802002 2.154960870742798 L 20.69283103942871 0.2568109333515167 C 20.72178077697754 0.252240926027298 20.75007247924805 0.250000923871994 20.7779712677002 0.250000923871994 C 21.04011154174805 0.250000923871994 21.26019096374512 0.4382709264755249 21.30127143859863 0.6976709365844727 L 21.36238098144531 1.083400964736938 C 21.38457107543945 1.223370909690857 21.35092163085938 1.363560914993286 21.26761245727539 1.478170871734619 C 21.18426132202148 1.592830896377563 21.06116104125977 1.668210864067078 20.92099189758301 1.690410971641541 L 8.367451667785645 3.621420860290527 L 8.293021202087402 3.63287091255188 L 8.23729133605957 3.683521032333374 C 7.37813138961792 4.46458101272583 6.178971767425537 4.986810684204102 4.947291374206543 5.116321086883545 C 4.766271591186523 5.135321140289307 4.581981658935547 5.144960880279541 4.399591445922852 5.144960880279541 Z" stroke="none"/>
          <path d="M 4.399591445922852 4.894960880279541 C 4.573301792144775 4.894960880279541 4.748801708221436 4.885780811309814 4.921141624450684 4.867691040039063 C 6.101071357727051 4.743620872497559 7.248471736907959 4.244590759277344 8.069121360778809 3.498540878295898 L 8.180571556091309 3.397220849990845 L 8.329442024230957 3.374320983886719 L 20.88188171386719 1.443490862846375 C 20.95612144470215 1.43173086643219 21.02129173278809 1.391840934753418 21.06539154052734 1.331170916557312 C 21.10941123962402 1.270610928535461 21.1271915435791 1.196530938148499 21.1154613494873 1.122520923614502 L 21.05434226989746 0.7367709279060364 C 21.03297233581543 0.6017909049987793 20.91416168212891 0.5000008940696716 20.7779712677002 0.5000008940696716 C 20.76310157775879 0.5000008940696716 20.74797248840332 0.5012009143829346 20.7308406829834 0.5039108991622925 L 8.388951301574707 2.402060985565186 L 8.345921516418457 2.40868091583252 L 8.302401542663574 2.407760858535767 C 7.946411609649658 2.400250911712646 7.56033182144165 2.396450996398926 7.154881477355957 2.396450996398926 C 5.655141353607178 2.396450996398926 4.101041793823242 2.447690963745117 2.891061544418335 2.537020921707153 C 1.447810411453247 2.643584012985229 0.8212215304374695 2.777593612670898 0.5588653683662415 2.858812570571899 C 0.8272923231124878 3.736302375793457 2.417850971221924 4.895063877105713 4.399561405181885 4.894960880279541 L 4.399591445922852 4.894960880279541 M 4.399591445922852 5.394960880279541 C 2.075551509857178 5.395081043243408 0.1508415788412094 3.92914080619812 0.02576158381998539 2.739331007003784 C -0.3760705292224884 2.125401735305786 4.009587287902832 1.896448612213135 7.154879570007324 1.896448612213135 C 7.566740036010742 1.896448612213135 7.957144260406494 1.900371551513672 8.312941551208496 1.907870888710022 L 20.65483093261719 0.009720919653773308 C 20.69621658325195 0.003173970384523273 20.73736572265625 1.232376121151901e-06 20.7779712677002 1.232376121151901e-06 C 21.1555233001709 1.232376121151901e-06 21.48731803894043 0.2741371095180511 21.54819107055664 0.6585709452629089 L 21.60930252075195 1.044280886650085 C 21.67681121826172 1.47006094455719 21.38627243041992 1.869830965995789 20.96010208129883 1.937330961227417 L 8.405461311340332 3.868510961532593 C 7.595671653747559 4.604681015014648 6.368411540985107 5.218270778656006 4.973431587219238 5.364951133728027 C 4.780141353607178 5.385241031646729 4.588361740112305 5.394960880279541 4.399591445922852 5.394960880279541 Z" stroke="none" fill="#324755"/>
        </g>
      </g>
      <path id="패스_2288" data-name="패스 2288" d="M392.594,1134.143c-.171.728-.2.959.283,1.5a.852.852,0,0,1,0,1.215" transform="translate(-384.805 -1133.042)" fill="none" stroke="#324755" stroke-linecap="round" stroke-width="0.5"/>
      <path id="패스_2289" data-name="패스 2289" d="M392.628,1134.143c-.223.948-.256,1.249.368,1.952a1.111,1.111,0,0,1,0,1.584" transform="translate(-383.316 -1134.143)" fill="none" stroke="#324755" stroke-linecap="round" stroke-width="0.5"/>
      <path id="패스_2290" data-name="패스 2290" d="M392.594,1134.143c-.171.728-.2.959.283,1.5a.852.852,0,0,1,0,1.215" transform="translate(-381.628 -1133.641)" fill="none" stroke="#324755" stroke-linecap="round" stroke-width="0.5"/>
    </g>
  </g>
</svg>
