<svg id="ic_mexican_sm" xmlns="http://www.w3.org/2000/svg" xmlns:xlink="http://www.w3.org/1999/xlink" width="30" height="30" viewBox="0 0 30 30">
  <defs>
    <clipPath id="clip-path">
      <rect id="사각형_2462" data-name="사각형 2462" width="27" height="28.125" transform="translate(0 0)" fill="rgba(255,255,255,0)"/>
    </clipPath>
  </defs>
  <rect id="사각형_2423" data-name="사각형 2423" width="30" height="30" fill="rgba(255,255,255,0)"/>
  <g id="마스크_그룹_14" data-name="마스크 그룹 14" transform="translate(1.5 0.938)" clip-path="url(#clip-path)">
    <g id="그룹_4720" data-name="그룹 4720" transform="translate(0.537 -0.855)">
      <g id="그룹_4718" data-name="그룹 4718" transform="translate(11.081 3.813) rotate(45)">
        <g id="합치기_14" data-name="합치기 14" transform="translate(5.316 1.885)" fill="#fff">
          <path d="M 12.25545978546143 5.063675880432129 C 11.49547958374023 5.063675880432129 10.87718963623047 4.445315837860107 10.87718963623047 3.685245990753174 C 10.87718963623047 3.660906076431274 10.87782001495361 3.636686086654663 10.87907028198242 3.612666130065918 L 10.89280986785889 3.349626064300537 L 10.62940979003906 3.349626064300537 L 0.2499998360872269 3.349606513977051 L 0.2499998360872269 1.792636513710022 L 10.62940979003906 1.792656064033508 L 10.86678028106689 1.792656064033508 L 10.87907028198242 1.555606007575989 C 10.91705989837646 0.8234860301017761 11.52163028717041 0.2499960362911224 12.25545024871826 0.2499960362911224 C 13.01550960540771 0.2500060200691223 13.63387012481689 0.8683660626411438 13.63387966156006 1.628426074981689 C 13.63387966156006 1.944995999336243 13.52394962310791 2.254136085510254 13.3243293762207 2.49889612197876 L 13.19545936584473 2.656906127929688 L 13.32433986663818 2.814916133880615 C 13.52394962310791 3.059636116027832 13.63387966156006 3.368726015090942 13.63387966156006 3.685245990753174 C 13.63387966156006 4.445315837860107 13.0155200958252 5.063675880432129 12.25545978546143 5.063675880432129 Z" stroke="none"/>
          <path d="M 12.25545978546143 4.813675880432129 C 12.87767028808594 4.813675880432129 13.38387966156006 4.30746603012085 13.38387966156006 3.685245990753174 C 13.38387966156006 3.422385931015015 13.29629993438721 3.176065921783447 13.1306095123291 2.972926139831543 L 12.87285995483398 2.65691614151001 L 13.13058948516846 2.340886116027832 C 13.29628944396973 2.13770604133606 13.38387966156006 1.891345977783203 13.38387966156006 1.628436088562012 C 13.38387012481689 1.006216049194336 12.87765979766846 0.5000060200691223 12.25545024871826 0.4999960362911224 C 11.65472984313965 0.4999960362911224 11.15981960296631 0.9693660140037537 11.12873935699463 1.568556070327759 L 11.10414028167725 2.042655944824219 L 10.62940979003906 2.042655944824219 L 0.4999998211860657 2.042636871337891 L 0.4999998211860657 3.099606990814209 L 10.62940979003906 3.099626064300537 L 11.15619945526123 3.099626064300537 L 11.12872982025146 3.62570595741272 C 11.12769985198975 3.645406007766724 11.12718963623047 3.665276050567627 11.12718963623047 3.685245990753174 C 11.12718963623047 4.30746603012085 11.63332939147949 4.813675880432129 12.25545978546143 4.813675880432129 M 12.25545978546143 5.313675880432129 C 11.35624980926514 5.313675880432129 10.62718963623047 4.584616184234619 10.62718963623047 3.685245990753174 C 10.62718963623047 3.656536102294922 10.6279296875 3.627965927124023 10.62940979003906 3.599626064300537 L -1.692199731451183e-07 3.599606037139893 L -1.692199731451183e-07 1.542636036872864 L 10.62940979003906 1.542656064033508 C 10.67399978637695 0.683146059513092 11.38500022888184 -3.967132670368301e-06 12.25545024871826 -3.967132670368301e-06 C 13.15481948852539 6.032867531757802e-06 13.88387012481689 0.729066014289856 13.88387966156006 1.628426074981689 C 13.88387966156006 2.018496036529541 13.74675941467285 2.37648606300354 13.51807022094727 2.656896114349365 C 13.74676990509033 2.937286138534546 13.88387966156006 3.295246124267578 13.88387966156006 3.685245990753174 C 13.88387966156006 4.584616184234619 13.15482997894287 5.313675880432129 12.25545978546143 5.313675880432129 Z" stroke="none" fill="#324755"/>
        </g>
        <g id="패스_2372" data-name="패스 2372" transform="translate(0 0)" fill="#fff">
          <path d="M 4.456557273864746 8.663116455078125 C 2.137057542800903 8.663106918334961 0.2500074505805969 6.776046752929688 0.2499974519014359 4.456546783447266 C 0.2499974519014359 2.137046813964844 2.137047529220581 0.2499967962503433 4.456547260284424 0.2499967962503433 C 5.558257579803467 0.2499967962503433 7.876077651977539 0.7013968229293823 10.00163745880127 1.537936806678772 C 12.30997753143311 2.446416854858398 13.63387775421143 3.51021671295166 13.63387775421143 4.45656681060791 C 13.63387775421143 5.40291690826416 12.30997753143311 6.466716766357422 10.00164699554443 7.375196933746338 C 7.876097679138184 8.211727142333984 5.558267593383789 8.663116455078125 4.456557273864746 8.663116455078125 Z" stroke="none"/>
          <path d="M 4.456547737121582 -2.86102294921875e-06 L 4.456547737121582 0.4999971389770508 C 2.274897575378418 0.4999971389770508 0.4999971389770508 2.274896621704102 0.4999971389770508 4.456546783447266 C 0.5000076293945313 6.63819694519043 2.274917602539063 8.413106918334961 4.456577301025391 8.413106918334961 C 5.535377502441406 8.413106918334961 7.813377380371094 7.96778678894043 9.910247802734375 7.14250659942627 C 12.0853271484375 6.286437034606934 13.38387775421143 5.282346725463867 13.38387775421143 4.45656681060791 C 13.38387775421143 3.630756855010986 12.0852575302124 2.626646995544434 9.910077095031738 1.770566940307617 C 7.813187599182129 0.9453067779541016 5.535257339477539 0.4999971389770508 4.456547737121582 0.4999971389770508 L 4.456547737121582 -2.86102294921875e-06 M 4.456547737121582 -2.86102294921875e-06 C 6.917827606201172 6.67572021484375e-06 13.88387775421143 1.99528694152832 13.88387775421143 4.45656681060791 C 13.88387775421143 6.917706489562988 6.918265342712402 8.913106918334961 4.456576347351074 8.913106918334961 C 4.456425666809082 8.913106918334961 4.456707954406738 8.913106918334961 4.456557273864746 8.913106918334961 C 1.995277404785156 8.913106918334961 7.62939453125e-06 6.917836666107178 -2.86102294921875e-06 4.456546783447266 C -2.86102294921875e-06 1.995266914367676 1.995257377624512 -2.86102294921875e-06 4.456547737121582 -2.86102294921875e-06 Z" stroke="none" fill="#324755"/>
        </g>
        <g id="타원_619" data-name="타원 619" transform="translate(3.011 5.475)" fill="#fff" stroke="#324755" stroke-width="0.5">
          <circle cx="0.343" cy="0.343" r="0.343" stroke="none"/>
          <circle cx="0.343" cy="0.343" r="0.093" fill="none"/>
        </g>
        <g id="타원_620" data-name="타원 620" transform="translate(1.811 3.76)" fill="#fff" stroke="#324755" stroke-width="0.5">
          <circle cx="0.343" cy="0.343" r="0.343" stroke="none"/>
          <circle cx="0.343" cy="0.343" r="0.093" fill="none"/>
        </g>
        <g id="타원_621" data-name="타원 621" transform="translate(4.554 1.875)" fill="#fff" stroke="#324755" stroke-width="0.5">
          <circle cx="0.343" cy="0.343" r="0.343" stroke="none"/>
          <circle cx="0.343" cy="0.343" r="0.093" fill="none"/>
        </g>
      </g>
      <g id="그룹_4719" data-name="그룹 4719" transform="matrix(0.407, 0.914, -0.914, 0.407, 20.181, 0)">
        <g id="합치기_14-2" data-name="합치기 14" transform="translate(5.316 1.885)" fill="#fff">
          <path d="M 12.25546836853027 5.063662528991699 C 11.49548816680908 5.063662528991699 10.87719821929932 4.445302486419678 10.87719821929932 3.685242652893066 C 10.87719821929932 3.6608726978302 10.87783813476563 3.636622667312622 10.87907791137695 3.61257266998291 L 10.89271831512451 3.34962272644043 L 10.62941837310791 3.34962272644043 L 0.2500067353248596 3.349603176116943 L 0.249999150633812 1.792633175849915 L 10.62941837310791 1.792652726173401 L 10.86678791046143 1.792652726173401 L 10.87907791137695 1.555602669715881 C 10.917067527771 0.823492705821991 11.52164840698242 0.2500026822090149 12.25546836853027 0.2500026822090149 C 13.01552772521973 0.2500026822090149 13.63388824462891 0.8683627247810364 13.63389778137207 1.628422737121582 C 13.63389778137207 1.944992661476135 13.52395820617676 2.254132747650146 13.32433795928955 2.49888277053833 L 13.19546794891357 2.65690279006958 L 13.32434749603271 2.814912796020508 C 13.52396774291992 3.059642791748047 13.63389778137207 3.368732690811157 13.63389778137207 3.685242652893066 C 13.63389778137207 4.445302486419678 13.01553821563721 5.063662528991699 12.25546836853027 5.063662528991699 Z" stroke="none"/>
          <path d="M 12.25546836853027 4.813662528991699 C 12.87768840789795 4.813662528991699 13.38389778137207 4.30745267868042 13.38389778137207 3.685242652893066 C 13.38389778137207 3.422382593154907 13.29631805419922 3.176072597503662 13.13061809539795 2.972922801971436 L 12.87285804748535 2.65690279006958 L 13.13060760498047 2.340872764587402 C 13.29630756378174 2.137702703475952 13.38389778137207 1.891342639923096 13.38389778137207 1.628432750701904 C 13.38388824462891 1.006212711334229 12.87767791748047 0.5000026822090149 12.25546836853027 0.5000026822090149 C 11.65474796295166 0.5000026822090149 11.15982818603516 0.9693726897239685 11.12874794006348 1.568552732467651 L 11.10414791107178 2.042652606964111 L 10.62941837310791 2.042652606964111 L 0.5000003576278687 2.042633533477783 L 0.5000054836273193 3.099603652954102 L 10.62941837310791 3.09962272644043 L 11.15602779388428 3.09962272644043 L 11.12874794006348 3.625522613525391 C 11.12771797180176 3.64529275894165 11.12719821929932 3.665212631225586 11.12719821929932 3.685242652893066 C 11.12719821929932 4.30745267868042 11.63333797454834 4.813662528991699 12.25546836853027 4.813662528991699 M 12.25546836853027 5.313662528991699 C 11.35625839233398 5.313662528991699 10.62719821929932 4.584602832794189 10.62719821929932 3.685242652893066 C 10.62719821929932 3.656532764434814 10.62794780731201 3.627962589263916 10.62941837310791 3.59962272644043 L 7.937012014735956e-06 3.599602699279785 L -2.062988187390147e-06 1.542632699012756 L 10.62941837310791 1.542652726173401 C 10.6740083694458 0.6831427216529846 11.38500785827637 2.695007424335927e-06 12.25546836853027 2.695007424335927e-06 C 13.1548376083374 2.695007424335927e-06 13.88388824462891 0.7290626764297485 13.88389778137207 1.628422737121582 C 13.88389778137207 2.018492698669434 13.74677753448486 2.376482725143433 13.5180778503418 2.656892776489258 C 13.74677753448486 2.937282800674438 13.88389778137207 3.295242786407471 13.88389778137207 3.685242652893066 C 13.88389778137207 4.584612846374512 13.15484809875488 5.313662528991699 12.25546836853027 5.313662528991699 Z" stroke="none" fill="#324755"/>
        </g>
        <g id="패스_2372-2" data-name="패스 2372" transform="translate(0 0)" fill="#fff">
          <path d="M 4.456586360931396 8.663101196289063 L 4.456566333770752 8.663101196289063 C 2.137066602706909 8.663101196289063 0.2500064969062805 6.776041507720947 0.2499965131282806 4.456541538238525 C 0.2499965131282806 2.137051582336426 2.137046575546265 0.2500015497207642 4.45655632019043 0.2500015497207642 C 5.55825662612915 0.2500015497207642 7.876086711883545 0.7013915777206421 10.00164604187012 1.537931561470032 C 12.30998611450195 2.446411609649658 13.63389682769775 3.51021146774292 13.63389682769775 4.45656156539917 C 13.63389682769775 5.402871608734131 12.31005668640137 6.466651439666748 10.00181674957275 7.375131607055664 C 7.87627649307251 8.211701393127441 5.558376312255859 8.663101196289063 4.456586360931396 8.663101196289063 Z" stroke="none"/>
          <path d="M 4.456526756286621 0.5000019073486328 C 2.274886131286621 0.5000019073486328 0.4999961853027344 2.274901390075684 0.4999961853027344 4.456541538238525 C 0.5000066757202148 6.638191223144531 2.27492618560791 8.413101196289063 4.456586837768555 8.413101196289063 C 5.535386085510254 8.413101196289063 7.8133864402771 7.967781543731689 9.910256385803223 7.142501831054688 C 12.08533668518066 6.286431312561035 13.38389682769775 5.282341480255127 13.38389682769775 4.45656156539917 C 13.38389682769775 3.630751609802246 12.08527660369873 2.626641750335693 9.910086631774902 1.770561695098877 C 7.813186645507813 0.9453015327453613 5.535246849060059 0.5000019073486328 4.456526756286621 0.5000019073486328 M 4.456527709960938 1.9073486328125e-06 C 4.45667839050293 1.9073486328125e-06 4.456396102905273 1.9073486328125e-06 4.456546783447266 1.9073486328125e-06 C 6.917836666107178 1.9073486328125e-06 13.88388633728027 1.99528169631958 13.88389682769775 4.45656156539917 C 13.88389682769775 6.917701244354248 6.918274402618408 8.913101196289063 4.456584930419922 8.913101196289063 C 4.456435203552246 8.913101196289063 4.456716537475586 8.913101196289063 4.45656681060791 8.913101196289063 C 1.99527645111084 8.913101196289063 6.67572021484375e-06 6.917831420898438 -3.814697265625e-06 4.456541538238525 C -3.814697265625e-06 1.99541187286377 1.995454788208008 1.9073486328125e-06 4.456527709960938 1.9073486328125e-06 Z" stroke="none" fill="#324755"/>
        </g>
        <g id="타원_619-2" data-name="타원 619" transform="translate(3.011 5.475)" fill="#fff" stroke="#324755" stroke-width="0.5">
          <circle cx="0.343" cy="0.343" r="0.343" stroke="none"/>
          <circle cx="0.343" cy="0.343" r="0.093" fill="none"/>
        </g>
        <g id="타원_620-2" data-name="타원 620" transform="translate(1.811 3.76)" fill="#fff" stroke="#324755" stroke-width="0.5">
          <circle cx="0.343" cy="0.343" r="0.343" stroke="none"/>
          <circle cx="0.343" cy="0.343" r="0.093" fill="none"/>
        </g>
        <g id="타원_621-2" data-name="타원 621" transform="translate(4.554 1.875)" fill="#fff" stroke="#324755" stroke-width="0.5">
          <circle cx="0.343" cy="0.343" r="0.343" stroke="none"/>
          <circle cx="0.343" cy="0.343" r="0.093" fill="none"/>
        </g>
      </g>
      <g id="그룹_4679" data-name="그룹 4679" transform="translate(0 14.963)">
        <g id="사각형_2421" data-name="사각형 2421" transform="translate(7.538 0) rotate(21)" fill="#fffdaf" stroke="#324755" stroke-width="0.5">
          <rect width="7.836" height="7.256" rx="3" stroke="none"/>
          <rect x="0.25" y="0.25" width="7.336" height="6.756" rx="2.75" fill="none"/>
        </g>
        <g id="사각형_2422" data-name="사각형 2422" transform="translate(15.295 0.431) rotate(60)" fill="#fffdaf" stroke="#324755" stroke-width="0.5">
          <rect width="6.675" height="8.997" rx="3" stroke="none"/>
          <rect x="0.25" y="0.25" width="6.175" height="8.497" rx="2.75" fill="none"/>
        </g>
        <g id="합치기_8" data-name="합치기 8" transform="translate(0 4.196)" fill="#00faac">
          <path d="M 20.72051811218262 8.914438247680664 C 19.48090744018555 8.914438247680664 18.47240829467773 7.899288654327393 18.47240829467773 6.651498794555664 C 18.47240829467773 6.368708610534668 18.52349662780762 6.093018531799316 18.624267578125 5.832078456878662 L 18.6893367767334 5.663588523864746 L 18.54980659484863 5.548888683319092 C 18.1270866394043 5.201418876647949 17.88464736938477 4.687468528747559 17.88464736938477 4.138828754425049 C 17.88464736938477 3.84674859046936 17.95120811462402 3.567948579788208 18.08246803283691 3.310168743133545 L 18.17186737060547 3.134608745574951 L 18.02206802368164 3.006648540496826 C 17.74796676635742 2.772488594055176 17.59076690673828 2.430888652801514 17.59076690673828 2.069418668746948 C 17.59076690673828 1.392318606376648 18.13778686523438 0.8414486646652222 18.81016731262207 0.8414486646652222 C 19.48268699645996 0.8414486646652222 20.02982711791992 1.392318606376648 20.02982711791992 2.069418668746948 C 20.02982711791992 2.093218564987183 20.02912712097168 2.116808652877808 20.02780723571777 2.140288591384888 L 20.01666831970215 2.337538719177246 L 20.20599746704102 2.39396858215332 C 20.96742820739746 2.620928764343262 21.49922752380371 3.338448762893677 21.49922752380371 4.138828754425049 C 21.49922752380371 4.202638626098633 21.49590682983398 4.26702880859375 21.48935699462891 4.33021879196167 L 21.47072792053223 4.510008811950684 L 21.63561820983887 4.584048748016357 C 22.445556640625 4.94774866104126 22.96889686584473 5.759278774261475 22.96889686584473 6.651498794555664 C 22.96889686584473 7.899288654327393 21.96027755737305 8.914438247680664 20.72051811218262 8.914438247680664 Z M 2.498377561569214 8.323248863220215 C 1.258617520332336 8.323248863220215 0.2499974817037582 7.308098793029785 0.2499974817037582 6.060318470001221 C 0.2499974817037582 5.168088436126709 0.7733374834060669 4.356558799743652 1.583277463912964 3.992858648300171 L 1.748197436332703 3.918808698654175 L 1.729527473449707 3.738988637924194 C 1.722987532615662 3.675918579101563 1.719667434692383 3.611548662185669 1.719667434692383 3.547648668289185 C 1.719667434692383 2.645728588104248 2.387377500534058 1.871198654174805 3.272827386856079 1.746028661727905 L 3.471677541732788 1.717918634414673 L 3.487097501754761 1.517688632011414 C 3.541857481002808 0.8068386316299438 4.140257358551025 0.2499986439943314 4.849417686462402 0.2499986439943314 C 5.603037357330322 0.2499986439943314 6.216147422790527 0.8672186732292175 6.216147422790527 1.625888705253601 C 6.216147422790527 2.157488584518433 5.907157421112061 2.646878719329834 5.428967475891113 2.872658729553223 L 5.2487473487854 2.957758665084839 L 5.291537284851074 3.152408599853516 C 5.319877624511719 3.281308650970459 5.334247589111328 3.414288759231567 5.334247589111328 3.547648668289185 C 5.334247589111328 4.096248626708984 5.091787338256836 4.610148429870605 4.669047355651855 4.957568645477295 L 4.529487609863281 5.072258472442627 L 4.59456729888916 5.240768432617188 C 4.695377349853516 5.501808643341064 4.746487617492676 5.777548789978027 4.746487617492676 6.060318470001221 C 4.746487617492676 7.308098793029785 3.737987518310547 8.323248863220215 2.498377561569214 8.323248863220215 Z" stroke="none"/>
          <path d="M 20.72051811218262 8.664438247680664 C 21.82242774963379 8.664438247680664 22.71889686584473 7.761438846588135 22.71889686584473 6.651498794555664 C 22.71889686584473 5.857558727264404 22.25348663330078 5.13554859161377 21.53320693969727 4.812108516693115 L 21.20342826843262 4.664028644561768 L 21.24068832397461 4.30444860458374 C 21.24635696411133 4.249788761138916 21.24922752380371 4.194068431854248 21.24922752380371 4.138828754425049 C 21.24922752380371 3.448168754577637 20.79086685180664 2.82917857170105 20.13457679748535 2.633558750152588 L 19.75591659545898 2.520688533782959 L 19.77820777893066 2.1261887550354 C 19.77926826477051 2.107378721237183 19.77982711791992 2.088488578796387 19.77982711791992 2.069418668746948 C 19.77982711791992 1.530168652534485 19.3448371887207 1.091448664665222 18.81016731262207 1.091448664665222 C 18.27563667297363 1.091448664665222 17.84076690673828 1.530168652534485 17.84076690673828 2.069418668746948 C 17.84076690673828 2.357648611068726 17.96603775024414 2.629978656768799 18.18445777893066 2.816558599472046 L 18.48404693603516 3.07248854637146 L 18.30524826049805 3.42361855506897 C 18.19204711914063 3.645918607711792 18.13464736938477 3.886548757553101 18.13464736938477 4.138828754425049 C 18.13464736938477 4.612398624420166 18.34382820129395 5.05595874786377 18.70855712890625 5.35576868057251 L 18.98762702941895 5.585158824920654 L 18.85748672485352 5.922148704528809 C 18.76785659790039 6.154238700866699 18.72240829467773 6.399628639221191 18.72240829467773 6.651498794555664 C 18.72240829467773 7.761438846588135 19.6187572479248 8.664438247680664 20.72051811218262 8.664438247680664 M 2.498377561569214 8.073248863220215 C 3.60013747215271 8.073248863220215 4.496487617492676 7.170248508453369 4.496487617492676 6.060318470001221 C 4.496487617492676 5.808468818664551 4.451017379760742 5.563028812408447 4.361347675323486 5.330838680267334 L 4.231197357177734 4.993808746337891 L 4.510317325592041 4.764418601989746 C 4.875057697296143 4.464668750762939 5.084247589111328 4.021178722381592 5.084247589111328 3.547648668289185 C 5.084247589111328 3.432308673858643 5.071837425231934 3.317388534545898 5.047367572784424 3.206088542938232 L 4.961777687072754 2.816778659820557 L 5.322227478027344 2.646588563919067 C 5.71339750289917 2.461898565292358 5.966147422790527 2.061248540878296 5.966147422790527 1.625888705253601 C 5.966147422790527 1.00506865978241 5.465187549591064 0.4999986588954926 4.849417686462402 0.4999986588954926 C 4.270057678222656 0.4999986588954926 3.781147480010986 0.9554586410522461 3.736357450485229 1.536888599395752 L 3.705517530441284 1.937348604202271 L 3.307827472686768 1.993568658828735 C 2.544947385787964 2.101408720016479 1.969667434692383 2.769518613815308 1.969667434692383 3.547648668289185 C 1.969667434692383 3.602958679199219 1.972537517547607 3.658648729324341 1.978197455406189 3.713188648223877 L 2.015517473220825 4.072808742523193 L 1.68568742275238 4.220918655395508 C 0.9654074907302856 4.544358730316162 0.499997466802597 5.266368865966797 0.499997466802597 6.060318470001221 C 0.499997466802597 7.170248508453369 1.396467447280884 8.073248863220215 2.498377561569214 8.073248863220215 M 20.72051811218262 9.164438247680664 C 19.34078788757324 9.164438247680664 18.22240829467773 8.039268493652344 18.22240829467773 6.651498794555664 C 18.22240829467773 6.330728530883789 18.28213691711426 6.024058818817139 18.39105796813965 5.742018699645996 C 17.92935752868652 5.362498760223389 17.63464736938477 4.785238742828369 17.63464736938477 4.138828754425049 C 17.63464736938477 3.799498558044434 17.71579742431641 3.47929859161377 17.85968780517578 3.196728706359863 C 17.5422477722168 2.925548553466797 17.34076690673828 2.521098613739014 17.34076690673828 2.069418668746948 C 17.34076690673828 1.253138661384583 17.99862670898438 0.5914486646652222 18.81016731262207 0.5914486646652222 C 19.62170791625977 0.5914486646652222 20.27982711791992 1.253138661384583 20.27982711791992 2.069418668746948 C 20.27982711791992 2.097958564758301 20.27899742126465 2.126238584518433 20.27740669250488 2.154388666152954 C 21.12834739685059 2.408028602600098 21.74922752380371 3.200448751449585 21.74922752380371 4.138828754425049 C 21.74922752380371 4.212198734283447 21.74542808532715 4.284578800201416 21.73802757263184 4.355988502502441 C 22.61064720153809 4.747838497161865 23.21889686584473 5.628208637237549 23.21889686584473 6.651498794555664 C 23.21889686584473 8.039268493652344 22.10024833679199 9.164438247680664 20.72051811218262 9.164438247680664 Z M 2.498377561569214 8.573248863220215 C 1.118647456169128 8.573248863220215 -2.520751877455041e-06 7.448088645935059 -2.520751877455041e-06 6.060318470001221 C -2.520751877455041e-06 5.037018775939941 0.6082375049591064 4.156648635864258 1.480867505073547 3.764798641204834 C 1.473457455635071 3.693398714065552 1.469667434692383 3.621018648147583 1.469667434692383 3.547648668289185 C 1.469667434692383 2.503298759460449 2.238497495651245 1.639758706092834 3.237837553024292 1.498488664627075 C 3.302417516708374 0.6600586175918579 3.999277591705322 -1.352996832792996e-06 4.849417686462402 -1.352996832792996e-06 C 5.742427349090576 -1.352996832792996e-06 6.466147422790527 0.7279386520385742 6.466147422790527 1.625888705253601 C 6.466147422790527 2.27729868888855 6.085507392883301 2.839138746261597 5.535707473754883 3.098728656768799 C 5.567487716674805 3.243278741836548 5.584247589111328 3.393468618392944 5.584247589111328 3.547648668289185 C 5.584247589111328 4.194058418273926 5.289487361907959 4.771268844604492 4.82777738571167 5.150708675384521 C 4.936697483062744 5.432748794555664 4.996487617492676 5.739548683166504 4.996487617492676 6.060318470001221 C 4.996487617492676 7.448088645935059 3.87810754776001 8.573248863220215 2.498377561569214 8.573248863220215 Z" stroke="none" fill="#324755"/>
        </g>
        <g id="패스_2321" data-name="패스 2321" transform="translate(0.871 1.848)" fill="#fff">
          <path d="M 0.2530831396579742 11.26233100891113 C 0.3172768950462341 8.663939476013184 1.379648447036743 6.279863834381104 3.261006355285645 4.52546501159668 C 5.18031644821167 2.735685110092163 7.775696277618408 1.750005125999451 10.56904602050781 1.750005125999451 C 13.36589622497559 1.750005125999451 15.97018623352051 2.735875129699707 17.90219688415527 4.526005268096924 C 19.79840469360352 6.282967567443848 20.86921119689941 8.666967391967773 20.93403816223145 11.26233100891113 C 20.77923774719238 11.2620906829834 20.55693244934082 11.26186847686768 20.2765064239502 11.26166534423828 C 19.69706726074219 11.26123523712158 18.86938667297363 11.26088523864746 17.87621688842773 11.26060485839844 C 15.8899564743042 11.26003551483154 13.24176597595215 11.25975513458252 10.59357643127441 11.25975513458252 C 7.945386409759521 11.25975513458252 5.297196388244629 11.26003551483154 3.310936450958252 11.26060485839844 C 2.317766427993774 11.26088523864746 1.490086436271667 11.26123523712158 0.9106464385986328 11.26166534423828 C 0.6302033662796021 11.26186847686768 0.4078845679759979 11.2620906829834 0.2530831396579742 11.26233100891113 Z" stroke="none"/>
          <path d="M 10.56904602050781 1.999995231628418 C 7.83919620513916 1.999995231628418 5.304376602172852 2.961825370788574 3.431507110595703 4.708294868469238 C 1.662006378173828 6.358384609222412 0.6366519927978516 8.581286430358887 0.5127182006835938 11.01199626922607 C 0.6278133392333984 11.01187705993652 0.7608814239501953 11.01176357269287 0.9104671478271484 11.0116548538208 C 1.489936828613281 11.01123523712158 2.317646026611328 11.0108757019043 3.310867309570313 11.01059532165527 C 5.297136306762695 11.01002502441406 7.945356369018555 11.00974464416504 10.59357643127441 11.00974464416504 C 13.24178695678711 11.00974464416504 15.89000701904297 11.01002502441406 17.87628555297852 11.01059532165527 C 18.8694953918457 11.0108757019043 19.69721603393555 11.01123523712158 20.27668571472168 11.0116548538208 C 20.42621994018555 11.01176357269287 20.55923271179199 11.01187705993652 20.67430114746094 11.01199626922607 C 20.54926872253418 8.584308624267578 19.51576614379883 6.361903667449951 17.73227691650391 4.709384918212891 C 15.84663581848145 2.962204933166504 13.30268669128418 1.999995231628418 10.56904602050781 1.999995231628418 M 10.56904602050781 1.499995231628418 C 16.41971588134766 1.499995231628418 21.18716621398926 5.742605209350586 21.18716621398926 11.51314544677734 C 21.18946647644043 11.51088047027588 15.89152145385742 11.50974750518799 10.59357643127441 11.50974750518799 C 5.295631408691406 11.50974750518799 -0.002313613891601563 11.51088047027588 -1.33514404296875e-05 11.51314544677734 C -1.33514404296875e-05 5.742605209350586 4.718366622924805 1.499995231628418 10.56904602050781 1.499995231628418 Z" stroke="none" fill="#324755"/>
        </g>
        <g id="타원_553" data-name="타원 553" transform="translate(6.175 7.195)" fill="#fff" stroke="#324755" stroke-width="0.5">
          <circle cx="0.435" cy="0.435" r="0.435" stroke="none"/>
          <circle cx="0.435" cy="0.435" r="0.185" fill="none"/>
        </g>
        <g id="타원_554" data-name="타원 554" transform="translate(9.116 4.842)" fill="#fff" stroke="#324755" stroke-width="0.5">
          <circle cx="0.435" cy="0.435" r="0.435" stroke="none"/>
          <circle cx="0.435" cy="0.435" r="0.185" fill="none"/>
        </g>
        <g id="타원_555" data-name="타원 555" transform="translate(11.468 7.195)" fill="#fff" stroke="#324755" stroke-width="0.5">
          <circle cx="0.435" cy="0.435" r="0.435" stroke="none"/>
          <circle cx="0.435" cy="0.435" r="0.185" fill="none"/>
        </g>
        <g id="타원_556" data-name="타원 556" transform="translate(14.997 8.077)" fill="#fff" stroke="#324755" stroke-width="0.5">
          <circle cx="0.435" cy="0.435" r="0.435" stroke="none"/>
          <circle cx="0.435" cy="0.435" r="0.185" fill="none"/>
        </g>
        <g id="타원_557" data-name="타원 557" transform="translate(8.234 10.137)" fill="#fff" stroke="#324755" stroke-width="0.5">
          <circle cx="0.435" cy="0.435" r="0.435" stroke="none"/>
          <circle cx="0.435" cy="0.435" r="0.185" fill="none"/>
        </g>
        <g id="타원_558" data-name="타원 558" transform="translate(18.865 11.329)" fill="#fff" stroke="#324755" stroke-width="0.5">
          <circle cx="0.435" cy="0.435" r="0.435" stroke="none"/>
          <circle cx="0.435" cy="0.435" r="0.185" fill="none"/>
        </g>
        <g id="타원_559" data-name="타원 559" transform="translate(12.644 10.431)" fill="#fff" stroke="#324755" stroke-width="0.5">
          <circle cx="0.435" cy="0.435" r="0.435" stroke="none"/>
          <circle cx="0.435" cy="0.435" r="0.185" fill="none"/>
        </g>
        <g id="타원_560" data-name="타원 560" transform="translate(3.483 10.749)" fill="#fff" stroke="#324755" stroke-width="0.5">
          <circle cx="0.435" cy="0.435" r="0.435" stroke="none"/>
          <circle cx="0.435" cy="0.435" r="0.185" fill="none"/>
        </g>
        <g id="타원_561" data-name="타원 561" transform="translate(14.997 5.43)" fill="#fff" stroke="#324755" stroke-width="0.5">
          <circle cx="0.435" cy="0.435" r="0.435" stroke="none"/>
          <circle cx="0.435" cy="0.435" r="0.185" fill="none"/>
        </g>
      </g>
    </g>
  </g>
</svg>
