<svg id="icn_desserts_sm" xmlns="http://www.w3.org/2000/svg" width="30" height="30" viewBox="0 0 30 30">
  <rect id="사각형_2465" data-name="사각형 2465" width="30" height="30" fill="rgba(255,255,255,0)"/>
  <g id="cake" transform="translate(14.625)">
    <path id="패스_2450" data-name="패스 2450" d="M13.99-16.9a.385.385,0,0,1,.165.283L14.25-3.6a.189.189,0,0,1-.189.189L.377-6.9A.189.189,0,0,1,.189-7.09S.012-19.169,0-19.169c0-.035,8.965-2,8.965-2S12.622-18.088,13.99-16.9Z" transform="translate(0 25.207)" fill="#fff" stroke="#324755" stroke-linecap="round" stroke-width="0.5"/>
    <path id="합치기_20" data-name="합치기 20" d="M.328,2.348v-.5A.278.278,0,0,1,0,1.572V.278A.278.278,0,0,1,.44.052a.273.273,0,0,1,.434.22V2.348a.273.273,0,0,1-.546,0Z" transform="translate(12.76 15.148)" fill="#fffdaf"/>
    <path id="패스_2460" data-name="패스 2460" d="M1684.434,1731.41l-13.056-2.707v2.707l13.056,3.371Z" transform="translate(-1670.796 -1719.069)" fill="#fffdaf"/>
    <path id="합치기_21" data-name="합치기 21" d="M.553,1.15v-.1A.36.36,0,0,1,0,.744V.36A.36.36,0,0,1,.689.217.6.6,0,0,1,1.748.6V1.15a.6.6,0,0,1-1.2,0Z" transform="translate(11.013 14.566)" fill="#fffdaf"/>
    <path id="패스_2457" data-name="패스 2457" d="M.5-2.25,13.149.109" transform="translate(0.324 8.697)" fill="none" stroke="#324755" stroke-linecap="round" stroke-width="0.5"/>
    <line id="선_226" data-name="선 226" x2="12.861" y2="2.642" transform="translate(0.777 9.679)" fill="none" stroke="#324755" stroke-linecap="round" stroke-width="0.5"/>
    <line id="선_228" data-name="선 228" x2="12.861" y2="3.775" transform="translate(0.777 15.907)" fill="none" stroke="#324755" stroke-linecap="round" stroke-width="0.5"/>
    <g id="그룹_4794" data-name="그룹 4794" transform="translate(3.75)">
      <g id="패스_2459" data-name="패스 2459" transform="translate(4.526 4.988) rotate(65)" fill="#17bf60">
        <path d="M 1.928717613220215 1.300459980964661 C 1.374265551567078 1.300459980964661 0.6725746393203735 1.16775107383728 0.3637222647666931 1.103118777275085 L 0.2795587480068207 0.6520891785621643 C 0.5597736835479736 0.5154352784156799 1.198157429695129 0.2499999850988388 1.928717613220215 0.2499999850988388 C 2.48108959197998 0.2499999850988388 2.980823278427124 0.4017743170261383 3.312899589538574 0.5349079966545105 L 2.882327556610107 0.7756900191307068 L 2.854397535324097 0.7913100123405457 L 2.831297636032104 0.8134599924087524 C 2.699087619781494 0.9396499991416931 2.24896764755249 1.300459980964661 1.928717613220215 1.300459980964661 Z" stroke="none"/>
        <path d="M 1.928717613220215 1.050459980964661 C 2.117847681045532 1.050459980964661 2.474437713623047 0.8075399994850159 2.658247709274292 0.6330299973487854 L 2.695374965667725 0.5974295139312744 C 2.46445369720459 0.5406462550163269 2.203288793563843 0.5 1.928717613220215 0.5 C 1.369792938232422 0.5 0.8662235736846924 0.6684684753417969 0.5611583590507507 0.7982924580574036 L 0.5785410404205322 0.8914456367492676 C 0.920712411403656 0.9579028487205505 1.478167653083801 1.050459980964661 1.928717613220215 1.050459980964661 M 1.928717613220215 1.550459980964661 C 1.160707592964172 1.550459980964661 0.1483676135540009 1.311920046806335 0.1483676135540009 1.311920046806335 L -2.386779897278757e-06 0.5168099999427795 C -2.386779897278757e-06 0.5168099999427795 0.8635176420211792 -9.517670207515039e-09 1.928717613220215 -9.517670207515039e-09 C 2.99391770362854 -9.517670207515039e-09 3.857437610626221 0.5168299674987793 3.857437610626221 0.5168299674987793 L 3.004347562789917 0.9938899874687195 C 3.004347562789917 0.9938899874687195 2.42403769493103 1.550459980964661 1.928717613220215 1.550459980964661 Z" stroke="none" fill="#324755"/>
      </g>
      <g id="패스_2458" data-name="패스 2458" transform="translate(4.069 4.688) rotate(30)" fill="#17bf60">
        <path d="M 2.067293167114258 1.300461769104004 C 2.06727147102356 1.300461769104004 2.067299842834473 1.300461769104004 2.067278146743774 1.300461769104004 C 1.463161945343018 1.300461769104004 0.6979295015335083 1.164266586303711 0.3716377019882202 1.100247740745544 L 0.2828371822834015 0.656267523765564 C 0.5842201113700867 0.5188636779785156 1.27528190612793 0.2500017881393433 2.067245006561279 0.2500017881393433 C 2.067309617996216 0.2500017881393433 2.067213535308838 0.2500017881393433 2.067278146743774 0.2500017881393433 C 2.662032604217529 0.2500017881393433 3.199864864349365 0.4016281068325043 3.558553457260132 0.5353707671165466 L 3.104548215866089 0.7722417712211609 L 3.0767982006073 0.7867217659950256 L 3.053478240966797 0.8075917959213257 C 2.899717569351196 0.9445334076881409 2.422336339950562 1.300461769104004 2.067293167114258 1.300461769104004 Z" stroke="none"/>
        <path d="M 2.067288160324097 1.050461769104004 C 2.29593825340271 1.050461769104004 2.691988229751587 0.7938917875289917 2.886778116226196 0.6212818026542664 L 2.910088300704956 0.6004256010055542 C 2.656779527664185 0.5419915318489075 2.369559764862061 0.5000017881393433 2.067248106002808 0.5000017881393433 C 1.452000141143799 0.5000017881393433 0.8993846774101257 0.6738989353179932 0.5678023099899292 0.8063031435012817 L 0.5837687253952026 0.886131227016449 C 0.9504421353340149 0.9532925486564636 1.567365646362305 1.050461769104004 2.067288160324097 1.050461769104004 M 2.067278146743774 1.550461769104004 C 1.24409818649292 1.550461769104004 0.1590281426906586 1.311921834945679 0.1590281426906586 1.311921834945679 L -1.85325620805088e-06 0.5168117880821228 C -1.85325620805088e-06 0.5168117880821228 0.9255481362342834 -8.221378266171087e-06 2.067278146743774 1.77862170858134e-06 C 3.208998203277588 1.77862170858134e-06 4.134558200836182 0.5168317556381226 4.134558200836182 0.5168317556381226 L 3.220188140869141 0.9938917756080627 C 3.220188140869141 0.9938917756080627 2.598178148269653 1.550471782684326 2.067278146743774 1.550461769104004 Z" stroke="none" fill="#324755"/>
      </g>
      <g id="다각형_4" data-name="다각형 4" transform="translate(0)" fill="#fff">
        <path d="M 4.170289516448975 5.749996185302734 L 3.704709529876709 5.749996185302734 C 3.050999641418457 5.749996185302734 2.475319623947144 5.406566143035889 2.164779424667358 4.831336498260498 C 1.85422956943512 4.256096363067627 1.882959485054016 3.586386442184448 2.24161958694458 3.039846420288086 L 2.474409580230713 2.685116291046143 C 2.798979520797729 2.190546274185181 3.345929622650146 1.895276427268982 3.937499523162842 1.895276427268982 C 4.529069423675537 1.895276427268982 5.076019287109375 2.190546274185181 5.400589466094971 2.685126304626465 L 5.633379459381104 3.039846420288086 C 5.992039680480957 3.586386442184448 6.020769596099854 4.256096363067627 5.710219383239746 4.831336498260498 C 5.399679660797119 5.406566143035889 4.823999404907227 5.749996185302734 4.170289516448975 5.749996185302734 Z" stroke="none"/>
        <path d="M 3.937499523162842 2.145266532897949 C 3.422879695892334 2.145266532897949 2.965779304504395 2.392026424407959 2.683419704437256 2.822286605834961 L 2.450629711151123 3.177016258239746 C 2.143209457397461 3.645466327667236 2.118589401245117 4.21950626373291 2.384769439697266 4.712566375732422 C 2.650949478149414 5.205626487731934 3.144379615783691 5.499996185302734 3.704709529876709 5.499996185302734 L 4.170289516448975 5.499996185302734 C 4.730619430541992 5.499996185302734 5.22404956817627 5.205626487731934 5.490229606628418 4.712566375732422 C 5.756409645080566 4.21950626373291 5.731789588928223 3.645466327667236 5.424369812011719 3.177016258239746 L 5.191579818725586 2.822286605834961 C 4.909219741821289 2.392026424407959 4.452119827270508 2.145266532897949 3.937499523162842 2.145266532897949 M 3.937499523162842 1.645271301269531 C 4.576084613800049 1.645271301269531 5.214669227600098 1.946166515350342 5.609599590301514 2.547956466674805 L 5.842389583587646 2.902686595916748 C 6.715209484100342 4.232696533203125 5.761129379272461 5.999996185302734 4.170289516448975 5.999996185302734 L 3.704709529876709 5.999996185302734 C 2.113869667053223 5.999996185302734 1.159789562225342 4.232696533203125 2.032609462738037 2.902686595916748 L 2.26539945602417 2.547956466674805 C 2.660329341888428 1.946166515350342 3.298914432525635 1.645271301269531 3.937499523162842 1.645271301269531 Z" stroke="none" fill="#324755"/>
      </g>
      <g id="타원_695" data-name="타원 695" transform="translate(3.391 2.28) rotate(-54)" fill="#fff" stroke="#324755" stroke-width="0.5">
        <circle cx="0.251" cy="0.251" r="0.251" stroke="none"/>
        <circle cx="0.251" cy="0.251" r="0.001" fill="none"/>
      </g>
      <g id="타원_696" data-name="타원 696" transform="translate(4.891 4.53) rotate(-54)" fill="#fff" stroke="#324755" stroke-width="0.5">
        <circle cx="0.251" cy="0.251" r="0.251" stroke="none"/>
        <circle cx="0.251" cy="0.251" r="0.001" fill="none"/>
      </g>
      <g id="타원_697" data-name="타원 697" transform="translate(3.016 4.155) rotate(-54)" fill="#fff" stroke="#324755" stroke-width="0.5">
        <circle cx="0.251" cy="0.251" r="0.251" stroke="none"/>
        <circle cx="0.251" cy="0.251" r="0.001" fill="none"/>
      </g>
      <g id="타원_698" data-name="타원 698" transform="translate(4.516 3.03) rotate(-54)" fill="#fff" stroke="#324755" stroke-width="0.5">
        <circle cx="0.251" cy="0.251" r="0.251" stroke="none"/>
        <circle cx="0.251" cy="0.251" r="0.001" fill="none"/>
      </g>
      <g id="타원_699" data-name="타원 699" transform="translate(1.891 4.905) rotate(-54)" fill="#fff" stroke="#324755" stroke-width="0.5">
        <circle cx="0.251" cy="0.251" r="0.251" stroke="none"/>
        <circle cx="0.251" cy="0.251" r="0.001" fill="none"/>
      </g>
    </g>
  </g>
  <g id="ic_icecream" transform="translate(1.875 0.112)">
    <g id="패스_33" data-name="패스 33" transform="translate(0.582 3.798)" fill="#fff">
      <path d="M 6.03726863861084 5.521977424621582 C 3.014946937561035 5.521977424621582 0.6751840710639954 5.30128288269043 0.2507827281951904 5.085745811462402 C 0.3006677627563477 2.411513090133667 2.734150648117065 0.2499974071979523 5.718258857727051 0.2499974071979523 C 8.707152366638184 0.2499974071979523 11.14365863800049 2.418820858001709 11.18596267700195 5.098984241485596 C 11.09136867523193 5.15279483795166 10.73611068725586 5.292522430419922 9.501738548278809 5.398927211761475 C 8.581178665161133 5.478277206420898 7.350808620452881 5.521977424621582 6.03726863861084 5.521977424621582 Z" stroke="none"/>
      <path d="M 5.718258857727051 0.499997615814209 C 2.938543319702148 0.499997615814209 0.6594905853271484 2.455137014389038 0.5080108642578125 4.909345626831055 C 1.130051612854004 5.076861381530762 3.154218673706055 5.271977424621582 6.03726863861084 5.271977424621582 C 8.873988151550293 5.271977424621582 10.43899917602539 5.082564830780029 10.92992687225342 4.9334716796875 C 10.7919921875 2.467925548553467 8.507106781005859 0.499997615814209 5.718258857727051 0.499997615814209 M 5.718258857727051 -2.384185791015625e-06 C 8.876368522644043 -2.384185791015625e-06 11.43651866912842 2.314537286758423 11.43651866912842 5.16966724395752 C 11.41452407836914 5.585229873657227 8.774730682373047 5.771974086761475 6.037267684936523 5.771974086761475 C 3.075798988342285 5.771974086761475 -9.5367431640625e-07 5.553446769714355 -9.5367431640625e-07 5.16966724395752 C -9.5367431640625e-07 2.314537286758423 2.560149192810059 -2.384185791015625e-06 5.718258857727051 -2.384185791015625e-06 Z" stroke="none" fill="#324755"/>
    </g>
    <g id="패스_34" data-name="패스 34" transform="translate(0.915 0)" fill="#fffdaf">
      <path d="M 5.3851637840271 5.986802101135254 C 3.176262378692627 5.986802101135254 0.9431530833244324 5.701148509979248 0.2538088262081146 5.604937553405762 C 0.3588337600231171 2.632930517196655 2.620333671569824 0.2500022351741791 5.3851637840271 0.2500022351741791 C 8.149993896484375 0.2500022351741791 10.4114933013916 2.632916450500488 10.51651859283447 5.604923725128174 C 9.827023506164551 5.701113700866699 7.592947483062744 5.986802101135254 5.3851637840271 5.986802101135254 Z" stroke="none"/>
      <path d="M 5.3851637840271 0.500002384185791 C 2.825139045715332 0.500002384185791 0.7187347412109375 2.655843019485474 0.5159912109375 5.388279438018799 C 1.38102912902832 5.502770900726318 3.393101692199707 5.736802101135254 5.3851637840271 5.736802101135254 C 7.375230312347412 5.736802101135254 9.388792037963867 5.502701759338379 10.25433254241943 5.388225555419922 C 10.051589012146 2.655789375305176 7.945188522338867 0.500002384185791 5.3851637840271 0.500002384185791 M 5.3851637840271 2.384185791015625e-06 C 8.35930347442627 2.384185791015625e-06 10.77032375335693 2.606082201004028 10.77032375335693 5.820842266082764 C 10.77032375335693 5.820842266082764 8.077743530273438 6.236802101135254 5.3851637840271 6.236802101135254 C 2.692584037780762 6.236802101135254 3.814697265625e-06 5.820842266082764 3.814697265625e-06 5.820842266082764 C 3.814697265625e-06 2.606082201004028 2.41102409362793 2.384185791015625e-06 5.3851637840271 2.384185791015625e-06 Z" stroke="none" fill="#324755"/>
    </g>
    <g id="패스_35" data-name="패스 35" transform="translate(12.482 17.725) rotate(180)" fill="#fff">
      <path d="M 12.07977676391602 9.172492980957031 C 11.97262096405029 9.154671669006348 11.84412956237793 9.130247116088867 11.70086097717285 9.103015899658203 C 11.59492015838623 9.0828857421875 11.47963047027588 9.060976028442383 11.35542011260986 9.038355827331543 C 11.00803089141846 8.975085258483887 10.83588027954102 8.858725547790527 10.65362071990967 8.735526084899902 C 10.4105110168457 8.571206092834473 10.15913009643555 8.401286125183105 9.606620788574219 8.401286125183105 C 9.092610359191895 8.401286125183105 8.816910743713379 8.590685844421387 8.573670387268066 8.757785797119141 C 8.357680320739746 8.906166076660156 8.171150207519531 9.034305572509766 7.790010452270508 9.034305572509766 C 7.410030364990234 9.034305572509766 7.232880592346191 8.912816047668457 7.008610725402832 8.759005546569824 C 6.764120578765869 8.591335296630859 6.487010478973389 8.401286125183105 5.966930389404297 8.401286125183105 C 5.436440467834473 8.401286125183105 5.158520698547363 8.605755805969238 4.935210704803467 8.770045280456543 C 4.734520435333252 8.917685508728027 4.576010704040527 9.034305572509766 4.229690551757813 9.034305572509766 C 3.8864905834198 9.034305572509766 3.73469066619873 8.919185638427734 3.542520523071289 8.773426055908203 C 3.323900461196899 8.607625961303711 3.051830530166626 8.401286125183105 2.513600587844849 8.401286125183105 C 2.244070529937744 8.401286125183105 1.978510499000549 8.563475608825684 1.697360515594482 8.735185623168945 C 1.473940491676331 8.871645927429199 1.242910504341125 9.01274585723877 1.029430508613586 9.058365821838379 L 1.013440608978271 9.061785697937012 L 0.9980405569076538 9.067255973815918 C 0.8691805601119995 9.113005638122559 0.7292405366897583 9.136196136474609 0.5821205377578735 9.136196136474609 C 0.5199385285377502 9.136196136474609 0.4611922800540924 9.132027626037598 0.4074283540248871 9.125552177429199 L 6.225192070007324 0.448212593793869 C 7.852332592010498 2.864242792129517 11.30623054504395 7.998374938964844 12.07977676391602 9.172492980957031 Z" stroke="none"/>
      <path d="M 6.225654125213623 0.896458625793457 L 0.9027500152587891 8.835701942443848 C 0.9066410064697266 8.834382057189941 0.910517692565918 8.833037376403809 0.9143810272216797 8.831665992736816 L 0.9452009201049805 8.820725440979004 L 0.9771804809570313 8.813885688781738 C 1.148980140686035 8.777175903320313 1.361520767211914 8.647365570068359 1.567060470581055 8.521835327148438 C 1.865340232849121 8.339655876159668 2.173770904541016 8.151285171508789 2.51360034942627 8.151285171508789 C 3.135910987854004 8.151285171508789 3.458240509033203 8.395745277404785 3.69359016418457 8.574235916137695 C 3.878000259399414 8.714105606079102 3.97057056427002 8.784305572509766 4.229690551757813 8.784305572509766 C 4.493950843811035 8.784305572509766 4.598060607910156 8.70771598815918 4.787050724029541 8.568665504455566 C 5.026480674743652 8.392525672912598 5.35438060760498 8.151285171508789 5.966930389404297 8.151285171508789 C 6.564500331878662 8.151285171508789 6.902910709381104 8.38337516784668 7.15000057220459 8.552835464477539 C 7.360480785369873 8.697175979614258 7.487520694732666 8.784305572509766 7.790010452270508 8.784305572509766 C 8.093561172485352 8.784305572509766 8.220991134643555 8.696765899658203 8.432110786437988 8.551725387573242 C 8.6781005859375 8.382735252380371 9.015010833740234 8.151285171508789 9.606620788574219 8.151285171508789 C 10.23569107055664 8.151285171508789 10.54505062103271 8.360385894775391 10.79361057281494 8.528406143188477 C 10.96731090545654 8.645805358886719 11.10450077056885 8.738545417785645 11.4002103805542 8.79239559173584 C 11.45005130767822 8.801472663879395 11.49846267700195 8.810436248779297 11.54541873931885 8.819218635559082 C 10.53384685516357 7.30027961730957 8.110966682434082 3.696149349212646 6.225654125213623 0.896458625793457 M 6.224710464477539 -4.76837158203125e-06 C 6.224710464477539 -4.76837158203125e-06 12.28917026519775 9.002685546875 12.4494104385376 9.284305572509766 C 12.51889419555664 9.406418800354004 12.47738933563232 9.452390670776367 12.33724880218506 9.452390670776367 C 12.15418243408203 9.452390670776367 11.80279922485352 9.373945236206055 11.31062030792236 9.284305572509766 C 10.44166088104248 9.126055717468262 10.48677062988281 8.651285171508789 9.606620788574219 8.651285171508789 C 8.726470947265625 8.651285171508789 8.699930191040039 9.284305572509766 7.790010452270508 9.284305572509766 C 6.880080699920654 9.284305572509766 6.857010364532471 8.651285171508789 5.966930389404297 8.651285171508789 C 5.076850414276123 8.651285171508789 5.093020439147949 9.284305572509766 4.229690551757813 9.284305572509766 C 3.366350173950195 9.284305572509766 3.41277027130127 8.651285171508789 2.51360034942627 8.651285171508789 C 2.126960754394531 8.651285171508789 1.608070373535156 9.190345764160156 1.081680297851563 9.30284595489502 C 0.906890869140625 9.364902496337891 0.7352981567382813 9.386198997497559 0.582118034362793 9.386198997497559 C 0.2470293045043945 9.386198997497559 9.5367431640625e-07 9.284305572509766 9.5367431640625e-07 9.284305572509766 L 6.224710464477539 -4.76837158203125e-06 Z" stroke="none" fill="#324755"/>
    </g>
    <line id="선_3" data-name="선 3" x2="8.018" transform="translate(2.249 10.757)" fill="none" stroke="#324755" stroke-width="0.5"/>
    <line id="선_4" data-name="선 4" x2="4.853" transform="translate(3.726 12.547)" fill="none" stroke="#324755" stroke-width="0.5"/>
    <line id="선_5" data-name="선 5" x2="1.899" transform="translate(5.414 15.509)" fill="none" stroke="#324755" stroke-width="0.5"/>
    <g id="패스_2407" data-name="패스 2407" transform="translate(10.085 18.919) rotate(180)" fill="#fff">
      <path d="M 7.358946323394775 5.480889797210693 L 0.3868862092494965 5.480889797210693 C 0.3154862225055695 5.480889797210693 0.2687262296676636 5.448619842529297 0.2540562152862549 5.416639804840088 C 0.2485262155532837 5.404579639434814 0.2455262243747711 5.392769813537598 0.2649562358856201 5.370179653167725 L 0.2738062143325806 5.359899520874023 L 0.2814962267875671 5.348709583282471 L 3.757540225982666 0.2906207144260406 C 3.783971071243286 0.2650398910045624 3.82627010345459 0.2499997317790985 3.872916221618652 0.2499997317790985 C 3.919562339782715 0.2499997317790985 3.961861371994019 0.2650398910045624 3.988292217254639 0.2906207144260406 L 7.464336395263672 5.348709583282471 L 7.472026348114014 5.359899520874023 L 7.480876445770264 5.370179653167725 C 7.500306129455566 5.392769813537598 7.497306346893311 5.404579639434814 7.491775989532471 5.416639804840088 C 7.477106094360352 5.448619842529297 7.430346012115479 5.480889797210693 7.358946323394775 5.480889797210693 Z" stroke="none"/>
      <path d="M 3.872916221618652 0.5641336441040039 L 0.6658062934875488 5.230889797210693 L 7.080026626586914 5.230889797210693 L 3.872916221618652 0.5641336441040039 M 3.872916221618652 2.384185791015625e-06 C 3.990053653717041 2.384185791015625e-06 4.10719108581543 0.04483461380004883 4.184346199035645 0.1344995498657227 L 7.670376300811768 5.207119941711426 C 7.857446193695068 5.424519538879395 7.675276279449463 5.730889797210693 7.358946323394775 5.730889797210693 L 0.3868861198425293 5.730889797210693 C 0.0705561637878418 5.730889797210693 -0.1116137504577637 5.424519538879395 0.07545614242553711 5.207119941711426 L 3.56148624420166 0.1344995498657227 C 3.638641357421875 0.04483461380004883 3.755778789520264 2.384185791015625e-06 3.872916221618652 2.384185791015625e-06 Z" stroke="none" fill="#324755"/>
    </g>
  </g>
  <g id="ic_coffee" transform="translate(8.041 12.404)">
    <g id="패스_30" data-name="패스 30" transform="translate(0.712 -3.916)" fill="#fff">
      <path d="M 9.747177124023438 20.51127815246582 L 2.115994691848755 20.51127815246582 L 0.2868503332138062 7.249998092651367 L 11.57632160186768 7.249998092651367 L 9.747177124023438 20.51127815246582 Z" stroke="none"/>
      <path d="M 0.573695182800293 7.499998092651367 L 2.333873748779297 20.26127815246582 L 9.529297828674316 20.26127815246582 L 11.28947639465332 7.499998092651367 L 0.573695182800293 7.499998092651367 M -3.814697265625e-06 6.999998092651367 L 11.86317539215088 6.999998092651367 L 9.965065956115723 20.76127815246582 L 1.898105621337891 20.76127815246582 L -3.814697265625e-06 6.999998092651367 Z" stroke="none" fill="#324755"/>
    </g>
    <g id="패스_31" data-name="패스 31" transform="translate(-0.051 6.881)" fill="#00faac">
      <path d="M 11.45615673065186 5.444321632385254 L 1.932489275932312 5.444321632385254 L 1.283199310302734 0.2500015199184418 L 12.10544681549072 0.2500015199184418 L 11.45615673065186 5.444321632385254 Z" stroke="none"/>
      <path d="M 1.56639575958252 0.5000014305114746 L 2.153185844421387 5.194321632385254 L 11.23546028137207 5.194321632385254 L 11.82225036621094 0.5000014305114746 L 1.56639575958252 0.5000014305114746 M 1.000002861022949 1.430511474609375e-06 L 12.38864326477051 1.430511474609375e-06 L 11.67685317993164 5.694321632385254 L 1.711792945861816 5.694321632385254 L 1.000002861022949 1.430511474609375e-06 Z" stroke="none" fill="#324755"/>
    </g>
    <g id="패스_32" data-name="패스 32" transform="translate(0.949 0)" fill="#fff">
      <path d="M 11.09724426269531 2.834422588348389 L 0.2914017140865326 2.834422588348389 L 0.6889996528625488 0.2500024735927582 L 10.69964694976807 0.2500024735927582 L 11.09724426269531 2.834422588348389 Z" stroke="none"/>
      <path d="M 0.9034881591796875 0.500002384185791 L 0.5828123092651367 2.584422588348389 L 10.80583381652832 2.584422588348389 L 10.48515796661377 0.500002384185791 L 0.9034881591796875 0.500002384185791 M 0.474522590637207 2.384185791015625e-06 L 10.91412353515625 2.384185791015625e-06 L 11.38864326477051 3.084422588348389 L 2.86102294921875e-06 3.084422588348389 L 0.474522590637207 2.384185791015625e-06 Z" stroke="none" fill="#324755"/>
    </g>
    <g id="사각형_51" data-name="사각형 51" transform="translate(0 1.955)" fill="#fff" stroke="#324755" stroke-width="0.5">
      <rect width="13.196" height="2.199" stroke="none"/>
      <rect x="0.25" y="0.25" width="12.696" height="1.699" fill="none"/>
    </g>
    <circle id="타원_61" data-name="타원 61" cx="2.063" cy="2.063" r="2.063" transform="translate(4.399 7.671)" fill="#f2f2f2"/>
  </g>
</svg>
