<svg id="icn_chinese" xmlns="http://www.w3.org/2000/svg" xmlns:xlink="http://www.w3.org/1999/xlink" width="56" height="56" viewBox="0 0 56 56">
  <defs>
    <clipPath id="clip-path">
      <rect id="사각형_2420" data-name="사각형 2420" width="53.2" height="56" fill="rgba(255,255,255,0)"/>
    </clipPath>
  </defs>
  <rect id="사각형_2417" data-name="사각형 2417" width="56" height="56" fill="rgba(255,255,255,0)"/>
  <g id="마스크_그룹_11" data-name="마스크 그룹 11" transform="translate(1.4)" clip-path="url(#clip-path)">
    <g id="그룹_4675" data-name="그룹 4675" transform="translate(1.4 4.2)">
      <g id="그룹_4677" data-name="그룹 4677" transform="translate(21.7 3.5)">
        <g id="타원_534" data-name="타원 534" transform="translate(0 0)" fill="#fff" stroke="#324755" stroke-width="1">
          <circle cx="9.1" cy="9.1" r="9.1" stroke="none"/>
          <circle cx="9.1" cy="9.1" r="8.6" fill="none"/>
        </g>
        <g id="타원_535" data-name="타원 535" transform="translate(1.4 1.4)" fill="#fff" stroke="#324755" stroke-width="1">
          <circle cx="7.7" cy="7.7" r="7.7" stroke="none"/>
          <circle cx="7.7" cy="7.7" r="7.2" fill="none"/>
        </g>
        <g id="타원_536" data-name="타원 536" transform="translate(2.8 2.8)" fill="#fff" stroke="#324755" stroke-width="1">
          <circle cx="6.3" cy="6.3" r="6.3" stroke="none"/>
          <circle cx="6.3" cy="6.3" r="5.8" fill="none"/>
        </g>
        <g id="타원_538" data-name="타원 538" transform="translate(4.2 4.2)" fill="#fff" stroke="#324755" stroke-width="1">
          <circle cx="4.9" cy="4.9" r="4.9" stroke="none"/>
          <circle cx="4.9" cy="4.9" r="4.4" fill="none"/>
        </g>
        <g id="타원_539" data-name="타원 539" transform="translate(5.6 5.6)" fill="#fff" stroke="#324755" stroke-width="1">
          <circle cx="3.5" cy="3.5" r="3.5" stroke="none"/>
          <circle cx="3.5" cy="3.5" r="3" fill="none"/>
        </g>
        <g id="타원_541" data-name="타원 541" transform="translate(7 7)" fill="#fff" stroke="#324755" stroke-width="1">
          <circle cx="2.1" cy="2.1" r="2.1" stroke="none"/>
          <circle cx="2.1" cy="2.1" r="1.6" fill="none"/>
        </g>
      </g>
      <g id="그룹_4673" data-name="그룹 4673" transform="translate(1.4 4.9)">
        <g id="타원_533" data-name="타원 533" fill="#00faac" stroke="#324755" stroke-width="1">
          <circle cx="15.75" cy="15.75" r="15.75" stroke="none"/>
          <circle cx="15.75" cy="15.75" r="15.25" fill="none"/>
        </g>
        <g id="타원_534-2" data-name="타원 534" transform="translate(2.1 2.1)" fill="#fffdaf" stroke="#324755" stroke-width="1">
          <circle cx="13.65" cy="13.65" r="13.65" stroke="none"/>
          <circle cx="13.65" cy="13.65" r="13.15" fill="none"/>
        </g>
        <g id="타원_535-2" data-name="타원 535" transform="translate(4.2 4.2)" fill="#fffdaf" stroke="#324755" stroke-width="1">
          <circle cx="11.55" cy="11.55" r="11.55" stroke="none"/>
          <circle cx="11.55" cy="11.55" r="11.05" fill="none"/>
        </g>
        <g id="타원_536-2" data-name="타원 536" transform="translate(6.3 6.3)" fill="#00faac" stroke="#324755" stroke-width="1">
          <circle cx="9.45" cy="9.45" r="9.45" stroke="none"/>
          <circle cx="9.45" cy="9.45" r="8.95" fill="none"/>
        </g>
        <g id="타원_537" data-name="타원 537" transform="translate(8.4 8.4)" fill="#fffdaf" stroke="#324755" stroke-width="1">
          <circle cx="7.35" cy="7.35" r="7.35" stroke="none"/>
          <circle cx="7.35" cy="7.35" r="6.85" fill="none"/>
        </g>
        <g id="타원_538-2" data-name="타원 538" transform="translate(10.5 10.5)" fill="#00faac" stroke="#324755" stroke-width="1">
          <circle cx="5.25" cy="5.25" r="5.25" stroke="none"/>
          <circle cx="5.25" cy="5.25" r="4.75" fill="none"/>
        </g>
        <g id="타원_539-2" data-name="타원 539" transform="translate(12.6 12.6)" fill="#00faac" stroke="#324755" stroke-width="1">
          <circle cx="3.15" cy="3.15" r="3.15" stroke="none"/>
          <circle cx="3.15" cy="3.15" r="2.65" fill="none"/>
        </g>
        <g id="타원_540" data-name="타원 540" transform="translate(14.7 14.7)" fill="#17bf60" stroke="#324755" stroke-width="1">
          <circle cx="1.05" cy="1.05" r="1.05" stroke="none"/>
          <circle cx="1.05" cy="1.05" r="0.55" fill="none"/>
        </g>
      </g>
      <g id="그룹_4674" data-name="그룹 4674" transform="translate(25.2 10.5)">
        <g id="타원_533-2" data-name="타원 533" fill="#fff" stroke="#324755" stroke-width="1">
          <circle cx="12.25" cy="12.25" r="12.25" stroke="none"/>
          <circle cx="12.25" cy="12.25" r="11.75" fill="none"/>
        </g>
        <g id="타원_534-3" data-name="타원 534" transform="translate(2.1 2.1)" fill="#fff" stroke="#324755" stroke-width="1">
          <circle cx="10.15" cy="10.15" r="10.15" stroke="none"/>
          <circle cx="10.15" cy="10.15" r="9.65" fill="none"/>
        </g>
        <g id="타원_535-3" data-name="타원 535" transform="translate(4.2 4.2)" fill="#fff" stroke="#324755" stroke-width="1">
          <circle cx="8.05" cy="8.05" r="8.05" stroke="none"/>
          <circle cx="8.05" cy="8.05" r="7.55" fill="none"/>
        </g>
        <g id="타원_536-3" data-name="타원 536" transform="translate(6.3 6.3)" fill="#fff" stroke="#324755" stroke-width="1">
          <circle cx="5.95" cy="5.95" r="5.95" stroke="none"/>
          <circle cx="5.95" cy="5.95" r="5.45" fill="none"/>
        </g>
        <g id="타원_537-2" data-name="타원 537" transform="translate(6.3 6.3)" fill="#fff" stroke="#324755" stroke-width="1">
          <circle cx="5.95" cy="5.95" r="5.95" stroke="none"/>
          <circle cx="5.95" cy="5.95" r="5.45" fill="none"/>
        </g>
        <g id="타원_538-3" data-name="타원 538" transform="translate(8.4 8.4)" fill="#fff" stroke="#324755" stroke-width="1">
          <circle cx="3.85" cy="3.85" r="3.85" stroke="none"/>
          <circle cx="3.85" cy="3.85" r="3.35" fill="none"/>
        </g>
        <g id="타원_539-3" data-name="타원 539" transform="translate(10.5 10.5)" fill="#fff" stroke="#324755" stroke-width="1">
          <circle cx="1.75" cy="1.75" r="1.75" stroke="none"/>
          <circle cx="1.75" cy="1.75" r="1.25" fill="none"/>
        </g>
        <g id="타원_540-2" data-name="타원 540" transform="translate(11.2 11.2)" fill="#fff" stroke="#324755" stroke-width="1">
          <circle cx="1.05" cy="1.05" r="1.05" stroke="none"/>
          <circle cx="1.05" cy="1.05" r="0.55" fill="none"/>
        </g>
      </g>
      <g id="패스_9" data-name="패스 9" transform="translate(-0.293 -17.585)" fill="#fff">
        <path d="M 25.4928092956543 61.78514099121094 C 18.82955932617188 61.78514099121094 12.60800933837891 59.37933349609375 7.974219799041748 55.01088333129883 C 3.465891361236572 50.76070785522461 0.929385781288147 45.0899543762207 0.798168957233429 38.99546813964844 C 1.883929491043091 38.99394226074219 5.030303955078125 38.99257278442383 12.85036945343018 38.99257278442383 C 23.84014892578125 38.99257278442383 39.15950012207031 38.99520111083984 46.4768180847168 38.99646377563477 C 48.22890472412109 38.99676895141602 49.52215194702148 38.99699020385742 50.18741607666016 38.9970817565918 C 50.05590438842773 45.09113311767578 47.51944351196289 50.7609748840332 43.01139831542969 55.01088333129883 C 38.37760925292969 59.37933349609375 32.15605926513672 61.78514099121094 25.4928092956543 61.78514099121094 Z" stroke="none"/>
        <path d="M 12.85036849975586 39.49257278442383 C 6.010219573974609 39.49257278442383 2.750343322753906 39.49361801147461 1.314834594726563 39.49488830566406 C 1.569854736328125 45.26030731201172 4.033512115478516 50.60867309570313 8.31719970703125 54.64706420898438 C 12.85783767700195 58.92769241333008 18.95758819580078 61.28514099121094 25.4928092956543 61.28514099121094 C 32.02803039550781 61.28514099121094 38.12778091430664 58.92769241333008 42.66841888427734 54.64706420898438 C 46.95155334472656 50.60919570922852 49.41513442993164 45.26156997680664 49.67069244384766 39.49700546264648 C 48.94259262084961 39.49689102172852 47.85077285766602 39.4967041015625 46.47673797607422 39.4964714050293 C 39.15943908691406 39.49521255493164 23.84012031555176 39.49257278442383 12.85036849975586 39.49257278442383 M 12.85037231445313 38.49256896972656 C 27.2883415222168 38.49256896972656 49.19902801513672 38.49711990356445 50.62037658691406 38.49711990356445 C 50.66879272460938 38.49711990356445 50.69305419921875 38.49711227416992 50.69281005859375 38.49710083007813 C 50.69281005859375 51.7866325378418 39.523681640625 62.28514099121094 25.4928092956543 62.28514099121094 C 11.46194076538086 62.28514099121094 0.2928085327148438 51.7866325378418 0.2928085327148438 38.49710083007813 C 0.2963714599609375 38.49370193481445 5.643550872802734 38.49256896972656 12.85037231445313 38.49256896972656 Z" stroke="none" fill="#324755"/>
      </g>
      <path id="패스_12" data-name="패스 12" d="M32.453,38.9c0,11.685-9.937,19.438-17.874,19.438S-5.4,50.583-5.4,38.9C-4.958,38.627,32.232,38.9,32.453,38.9Z" transform="translate(9.687 -14.803)" fill="#f2f2f2"/>
      <g id="사각형_17" data-name="사각형 17" transform="translate(14.7 42.6)" fill="#fff" stroke="#324755" stroke-width="1">
        <rect width="21" height="4.9" stroke="none"/>
        <rect x="0.5" y="0.5" width="20" height="3.9" fill="none"/>
      </g>
      <path id="패스_2317" data-name="패스 2317" d="M432.593,1179.375a29.882,29.882,0,0,1-3.967,8.925,24.343,24.343,0,0,1-7,6.533" transform="translate(-387.793 -1154.7)" fill="none" stroke="#324755" stroke-linecap="round" stroke-width="1"/>
      <g id="사각형_2414" data-name="사각형 2414" transform="translate(34.3 19.6)" fill="#fff" stroke="#324755" stroke-width="1">
        <rect width="2.8" height="13.3" rx="1.4" stroke="none"/>
        <rect x="0.5" y="0.5" width="1.8" height="12.3" rx="0.9" fill="none"/>
      </g>
      <g id="사각형_2415" data-name="사각형 2415" transform="translate(38.5 19.6)" fill="#fff" stroke="#324755" stroke-width="1">
        <rect width="2.5" height="9.1" rx="1.25" stroke="none"/>
        <rect x="0.5" y="0.5" width="1.5" height="8.1" rx="0.75" fill="none"/>
      </g>
      <path id="패스_2358" data-name="패스 2358" d="M392.683,1134.143c-.307,1.3-.353,1.719.507,2.686a1.529,1.529,0,0,1,0,2.179" transform="translate(-388.515 -1130.768)" fill="none" stroke="#324755" stroke-linecap="round" stroke-width="1"/>
      <path id="패스_2359" data-name="패스 2359" d="M392.744,1134.143c-.4,1.7-.46,2.24.66,3.5a1.992,1.992,0,0,1,0,2.84" transform="translate(-385.844 -1134.143)" fill="none" stroke="#324755" stroke-linecap="round" stroke-width="1"/>
      <path id="패스_2360" data-name="패스 2360" d="M392.683,1134.143c-.307,1.3-.353,1.719.507,2.686a1.529,1.529,0,0,1,0,2.179" transform="translate(-382.818 -1133.943)" fill="none" stroke="#324755" stroke-linecap="round" stroke-width="1"/>
    </g>
  </g>
</svg>
