<svg xmlns="http://www.w3.org/2000/svg" width="30" height="30" viewBox="0 0 30 30">
  <g id="icn_cash_inactive" transform="translate(-16 -11)">
    <rect id="사각형_2684" data-name="사각형 2684" width="30" height="30" transform="translate(16 11)" fill="rgba(255,255,255,0)"/>
    <g id="그룹_4891" data-name="그룹 4891" transform="translate(0.5)">
      <path id="Icon_material-attach-money" data-name="Icon material-attach-money" d="M14.953,12.39c-2.267-.589-3-1.2-3-2.147,0-1.089,1.009-1.848,2.7-1.848,1.778,0,2.437.849,2.5,2.1h2.207a3.981,3.981,0,0,0-3.206-3.805V4.5h-3V6.657c-1.938.419-3.5,1.678-3.5,3.606,0,2.307,1.908,3.456,4.694,4.125,2.5.6,3,1.478,3,2.407,0,.689-.489,1.788-2.7,1.788-2.057,0-2.866-.919-2.976-2.1H9.48c.12,2.187,1.758,3.416,3.675,3.825v2.167h3V20.33c1.948-.37,3.5-1.5,3.5-3.546C19.647,13.948,17.22,12.98,14.953,12.39Z" transform="translate(15.52 12.5)" fill="#fff"/>
      <circle id="타원_781" data-name="타원 781" cx="13.5" cy="13.5" r="13.5" transform="translate(17 12.5)" fill="none" stroke="#fff" stroke-linecap="round" stroke-width="2"/>
    </g>
  </g>
</svg>
