<svg id="icn_distance_pin" xmlns="http://www.w3.org/2000/svg" width="12" height="14" viewBox="0 0 12 14">
  <g id="ic_distance_pin" transform="translate(-21 -273)" opacity="0.5">
    <g id="Icon_feather-map-pin" data-name="Icon feather-map-pin" transform="translate(16.5 271.5)">
      <g id="패스_2242" data-name="패스 2242" fill="none" stroke-linecap="round" stroke-linejoin="round">
        <path d="M16.5,7.227c0,4.455-6,8.273-6,8.273s-6-3.818-6-8.273a5.868,5.868,0,0,1,6-5.727,5.868,5.868,0,0,1,6,5.727Z" stroke="none"/>
        <path d="M 10.5 2.5 C 7.742989540100098 2.5 5.5 4.620639801025391 5.5 7.227270126342773 C 5.5 9.177350044250488 6.959079742431641 11.06368064880371 8.183099746704102 12.30273056030273 C 9.061988830566406 13.19240379333496 9.952827453613281 13.88669204711914 10.49998950958252 14.28396987915039 C 11.04733467102051 13.88656520843506 11.93809700012207 13.19231796264648 12.8169002532959 12.30273056030273 C 14.04092025756836 11.06368064880371 15.5 9.177350044250488 15.5 7.227270126342773 C 15.5 4.620639801025391 13.25700950622559 2.5 10.5 2.5 M 10.5 1.5 C 13.81371021270752 1.5 16.5 4.064189910888672 16.5 7.227270126342773 C 16.5 11.68181991577148 10.5 15.5 10.5 15.5 C 10.5 15.5 4.5 11.68181991577148 4.5 7.227270126342773 C 4.5 4.064189910888672 7.18628978729248 1.5 10.5 1.5 Z" stroke="none" fill="#334856"/>
      </g>
      <g id="패스_2243" data-name="패스 2243" transform="translate(-5.205 -5.403)" fill="none" stroke-linecap="round" stroke-linejoin="round">
        <path d="M17.909,12.7a2.2,2.2,0,1,1-2.2-2.2A2.2,2.2,0,0,1,17.909,12.7Z" stroke="none"/>
        <path d="M 15.70455646514893 11.49999713897705 C 15.04035568237305 11.49999713897705 14.49999618530273 12.04035758972168 14.49999618530273 12.70455741882324 C 14.49999618530273 13.3687572479248 15.04035568237305 13.90911769866943 15.70455646514893 13.90911769866943 C 16.36875534057617 13.90911769866943 16.90911674499512 13.3687572479248 16.90911674499512 12.70455741882324 C 16.90911674499512 12.04035758972168 16.36875534057617 11.49999713897705 15.70455646514893 11.49999713897705 M 15.70455646514893 10.49999713897705 C 16.92209625244141 10.49999713897705 17.90911674499512 11.48701763153076 17.90911674499512 12.70455741882324 C 17.90911674499512 13.92209720611572 16.92209625244141 14.90911769866943 15.70455646514893 14.90911769866943 C 14.48701667785645 14.90911769866943 13.49999618530273 13.92209720611572 13.49999618530273 12.70455741882324 C 13.49999618530273 11.48701763153076 14.48701667785645 10.49999713897705 15.70455646514893 10.49999713897705 Z" stroke="none" fill="#334856"/>
      </g>
    </g>
  </g>
</svg>
