<svg xmlns="http://www.w3.org/2000/svg" width="48" height="16" viewBox="0 0 48 16">
  <g id="icn_booking" transform="translate(-290 -790)">
    <rect id="사각형_2625" data-name="사각형 2625" width="48" height="16" rx="8" transform="translate(290 790)" fill="#fffdaf"/>
    <text id="Booking" transform="translate(295 802)" fill="#334856" font-size="10" font-family="OpenSans-SemiBold, Open Sans" font-weight="600"><tspan x="0" y="0">Booking</tspan></text>
  </g>
</svg>
