<svg xmlns="http://www.w3.org/2000/svg" width="30" height="16" viewBox="0 0 30 16">
  <g id="icn_new" transform="translate(-308 -790)">
    <rect id="사각형_2625" data-name="사각형 2625" width="30" height="16" rx="8" transform="translate(308 790)" fill="#ff9a00"/>
    <text id="New" transform="translate(312 802)" fill="#fff" font-size="10" font-family="OpenSans-SemiBold, Open Sans" font-weight="600"><tspan x="0" y="0">New</tspan></text>
  </g>
</svg>
