<svg xmlns="http://www.w3.org/2000/svg" width="12.007" height="12.178" viewBox="0 0 12.007 12.178">
  <g id="icn_del" transform="translate(1.418 1.418)">
    <line id="선_17" data-name="선 17" x2="12.937" y2="0.034" transform="translate(0 9.148) rotate(-45)" fill="none" stroke="#c8d1d3" stroke-linecap="round" stroke-width="2"/>
    <line id="선_18" data-name="선 18" y1="0.034" x2="12.937" transform="translate(0.024 0.17) rotate(45)" fill="none" stroke="#c8d1d3" stroke-linecap="round" stroke-width="2"/>
  </g>
</svg>
