<svg id="icn_home_active" xmlns="http://www.w3.org/2000/svg" width="20" height="20" viewBox="0 0 20 20">
  <rect id="사각형_2556" data-name="사각형 2556" width="20" height="20" fill="rgba(255,255,255,0)"/>
  <g id="Icon_feather-home" data-name="Icon feather-home" transform="translate(1.667 2.333)">
    <path id="합치기_20" data-name="합치기 20" d="M2.859,15.335A1.533,1.533,0,0,1,1.326,13.8V5.367l.1-.077L0,6.39l1.426-1.1L8.227,0l6.9,5.367V13.8a1.533,1.533,0,0,1-1.533,1.534ZM13.578,4.154l3.089,2.409Z" transform="translate(0 0)" fill="none" stroke="#fff" stroke-linecap="round" stroke-linejoin="round" stroke-width="1.6"/>
    <path id="패스_2418" data-name="패스 2418" d="M7.875,17.792V10.5H12.25v7.292" transform="translate(-1.837 -2.456)" fill="none" stroke="#fff" stroke-linecap="round" stroke-linejoin="round" stroke-width="1.6"/>
  </g>
</svg>
