<svg xmlns="http://www.w3.org/2000/svg" xmlns:xlink="http://www.w3.org/1999/xlink" width="93" height="93" viewBox="0 0 93 93">
  <defs>
    <filter id="icn_alerts_icons_bg" x="0" y="0" width="93" height="93" filterUnits="userSpaceOnUse">
      <feOffset dy="10" input="SourceAlpha"/>
      <feGaussianBlur stdDeviation="7.5" result="blur"/>
      <feFlood flood-color="#1b1c20" flood-opacity="0.298"/>
      <feComposite operator="in" in2="blur"/>
      <feComposite in="SourceGraphic"/>
    </filter>
  </defs>
  <g transform="matrix(1, 0, 0, 1, 0, 0)" filter="url(#icn_alerts_icons_bg)">
    <circle id="icn_alerts_icons_bg-2" data-name="icn_alerts_icons_bg" cx="24" cy="24" r="24" transform="translate(22.5 12.5)" fill="#fff"/>
  </g>
</svg>
