<svg id="icn_american" xmlns="http://www.w3.org/2000/svg" xmlns:xlink="http://www.w3.org/1999/xlink" width="56" height="56" viewBox="0 0 56 56">
  <defs>
    <clipPath id="clip-path">
      <rect id="사각형_2464" data-name="사각형 2464" width="56" height="56" fill="rgba(255,255,255,0)"/>
    </clipPath>
  </defs>
  <rect id="사각형_2427" data-name="사각형 2427" width="56" height="56" fill="rgba(255,255,255,0)"/>
  <g id="마스크_그룹_15" data-name="마스크 그룹 15" clip-path="url(#clip-path)">
    <g id="그룹_4723" data-name="그룹 4723" transform="translate(0 5.46)">
      <g id="합치기_17" data-name="합치기 17" transform="translate(35.209 39.844) rotate(-177)" fill="#17bf60">
        <path d="M 4.402629375457764 8.328194618225098 C 2.250709295272827 8.328194618225098 0.4999993741512299 6.666594982147217 0.4999993741512299 4.624205112457275 C 0.4999993741512299 2.581475019454956 2.250709295272827 0.9195849299430847 4.402629375457764 0.9195849299430847 C 5.395049571990967 0.9195849299430847 6.34084939956665 1.273424983024597 7.06580924987793 1.915924906730652 L 7.446069240570068 2.25293493270874 L 7.776919364929199 1.867304921150208 C 8.522429466247559 0.9983649253845215 9.626129150390625 0.5000049471855164 10.80500984191895 0.5000049471855164 C 12.95730972290039 0.5000049471855164 14.70833969116211 2.161604881286621 14.70833969116211 4.203994750976563 C 14.70833969116211 6.246385097503662 12.95730972290039 7.907984733581543 10.80500984191895 7.907984733581543 C 9.81305980682373 7.907984733581543 8.867519378662109 7.554204940795898 8.142569541931152 6.91181468963623 L 7.762289524078369 6.574834823608398 L 7.431469440460205 6.960494995117188 C 6.685859203338623 7.829684734344482 5.581889152526855 8.328194618225098 4.402629375457764 8.328194618225098 Z" stroke="none"/>
        <path d="M 4.402629375457764 7.828195095062256 C 5.435819149017334 7.828195095062256 6.401469230651855 7.393274784088135 7.05195951461792 6.634954929351807 L 7.71359920501709 5.863645076751709 L 8.474169731140137 6.537594795227051 C 9.107589721679688 7.098875045776367 9.935359001159668 7.407984733581543 10.80500984191895 7.407984733581543 C 12.68160915374756 7.407984733581543 14.20833969116211 5.970685005187988 14.20833969116211 4.203994750976563 C 14.20833969116211 2.437304973602295 12.68160915374756 1.000004887580872 10.80500984191895 1.000004887580872 C 9.77217960357666 1.000004887580872 8.806798934936523 1.434794902801514 8.156389236450195 2.192884922027588 L 7.494689464569092 2.964134931564331 L 6.734179496765137 2.290124893188477 C 6.100759506225586 1.728744983673096 5.272729396820068 1.41958487033844 4.402629375457764 1.41958487033844 C 2.526409387588501 1.41958487033844 0.9999993443489075 2.857174873352051 0.9999993443489075 4.624205112457275 C 0.9999993443489075 6.390894889831543 2.526409387588501 7.828195095062256 4.402629375457764 7.828195095062256 M 4.402629375457764 8.828194618225098 C 1.971299409866333 8.828194618225098 -6.312561140475736e-07 6.945755004882813 -6.312561140475736e-07 4.624205112457275 C -6.312561140475736e-07 2.302024841308594 1.971299409866333 0.4195849299430847 4.402629375457764 0.4195849299430847 C 5.559269428253174 0.4195849299430847 6.611709594726563 0.8453749418258667 7.397439479827881 1.541734933853149 C 8.204869270324707 0.6006249189376831 9.431599617004395 4.924926543026231e-06 10.80500984191895 4.924926543026231e-06 C 13.23703956604004 4.924926543026231e-06 15.20833969116211 1.881814956665039 15.20833969116211 4.203994750976563 C 15.20833969116211 6.525545120239258 13.23703956604004 8.407984733581543 10.80500984191895 8.407984733581543 C 9.648849487304688 8.407984733581543 8.596569061279297 7.982164859771729 7.810969352722168 7.286035060882568 C 7.003469467163086 8.227384567260742 5.776589393615723 8.828194618225098 4.402629375457764 8.828194618225098 Z" stroke="none" fill="#324755"/>
      </g>
      <path id="패스_2361" data-name="패스 2361" d="M392.683,1134.143c-.307,1.3-.353,1.719.507,2.686a1.529,1.529,0,0,1,0,2.179" transform="translate(-369.615 -1132.168)" fill="none" stroke="#324755" stroke-linecap="round" stroke-width="1"/>
      <path id="패스_2362" data-name="패스 2362" d="M392.744,1134.143c-.4,1.7-.46,2.24.66,3.5a1.992,1.992,0,0,1,0,2.84" transform="translate(-366.944 -1134.143)" fill="none" stroke="#324755" stroke-linecap="round" stroke-width="1"/>
      <path id="패스_2363" data-name="패스 2363" d="M392.683,1134.143c-.307,1.3-.353,1.719.507,2.686a1.529,1.529,0,0,1,0,2.179" transform="translate(-363.918 -1133.243)" fill="none" stroke="#324755" stroke-linecap="round" stroke-width="1"/>
      <g id="타원_623" data-name="타원 623" transform="translate(5.05 3.813) rotate(20)" fill="#fff" stroke="#324755" stroke-width="1">
        <circle cx="1.217" cy="1.217" r="1.217" stroke="none"/>
        <circle cx="1.217" cy="1.217" r="0.717" fill="none"/>
      </g>
      <g id="타원_627" data-name="타원 627" transform="translate(15.514 9.856) rotate(20)" fill="#fff" stroke="#324755" stroke-width="1">
        <circle cx="1.217" cy="1.217" r="1.217" stroke="none"/>
        <circle cx="1.217" cy="1.217" r="0.717" fill="none"/>
      </g>
      <g id="타원_624" data-name="타원 624" transform="translate(4.929 8.239) rotate(20)" fill="#fff" stroke="#324755" stroke-width="1">
        <circle cx="1.217" cy="1.217" r="1.217" stroke="none"/>
        <circle cx="1.217" cy="1.217" r="0.717" fill="none"/>
      </g>
      <g id="타원_625" data-name="타원 625" transform="translate(10.491 7.283) rotate(20)" fill="#fff" stroke="#324755" stroke-width="1">
        <circle cx="1.217" cy="1.217" r="1.217" stroke="none"/>
        <circle cx="1.217" cy="1.217" r="0.717" fill="none"/>
      </g>
      <g id="타원_626" data-name="타원 626" transform="translate(9.712 11.469) rotate(20)" fill="#fff" stroke="#324755" stroke-width="1">
        <circle cx="1.217" cy="1.217" r="1.217" stroke="none"/>
        <circle cx="1.217" cy="1.217" r="0.717" fill="none"/>
      </g>
      <g id="그룹_4734" data-name="그룹 4734" transform="matrix(0.995, -0.105, 0.105, 0.995, 38.475, 14.249)">
        <path id="패스_2378" data-name="패스 2378" d="M2.917,4.415c.089.267-.327,2.036-.372,2.794s-.089,3.046-.758,4.116S.049,12.217,0,12.975a5.156,5.156,0,0,0,.535,1.962c.223.713-.178,1.293.268,1.783s.981.312,1.739.535,4.637-1.115,5.261-.847a7.518,7.518,0,0,0,3.478-.223c.446-.268,1.471-.357,1.516-.981a18.615,18.615,0,0,0-.446-4.1c-.268-.669-2.452-5.84-2.764-6.687s-.312-1.828-.624-2.407A8.184,8.184,0,0,0,5.933,0C5.443-.043,5.042,1.16,4.774,1.74A31.236,31.236,0,0,1,2.917,4.415Z" transform="translate(0 0)" fill="#fff" stroke="#324755" stroke-linecap="round" stroke-width="1"/>
        <path id="패스_2383" data-name="패스 2383" d="M0,0,4.012,8.337l1.516,6.732s.624-.134.624-.267a13.768,13.768,0,0,0-.4-4.191c-.579-2.452-3.121-6.019-3.3-9.229A16.161,16.161,0,0,0,0,0Z" transform="translate(6.245 0.536)" fill="#fffdaf"/>
        <path id="패스_2379" data-name="패스 2379" d="M0,0A18.684,18.684,0,0,0,1.605,2.987c.4.58,2.541,4.993,2.853,5.751a27.062,27.062,0,0,1,1.382,4.681c.045.892,0,2.318,0,2.318" transform="translate(5.8 0.358)" fill="none" stroke="#324755" stroke-linecap="round" stroke-width="1"/>
        <line id="선_209" data-name="선 209" x2="1.427" y2="0.713" transform="translate(8.029 3.702)" fill="none" stroke="#324755" stroke-linecap="round" stroke-width="1"/>
        <line id="선_210" data-name="선 210" x1="0.713" transform="translate(10.169 7.982)" fill="none" stroke="#324755" stroke-linecap="round" stroke-width="1"/>
      </g>
      <g id="그룹_4735" data-name="그룹 4735" transform="translate(2.049 15.697)">
        <path id="패스_2385" data-name="패스 2385" d="M1695.155,805.006c-.577-.732.056-2.783.64-3.95s2.217-1.517,4.55-3.85,1.983-5.017,6.533-4.55,8.983,3.5,16.333,4.55,11.783-.117,13.417,0,2.683,2.1,2.217,2.917-16.567,5.616-16.567,5.616h-5.01S1695.732,805.739,1695.155,805.006Z" transform="translate(-1694.927 -792.603)" fill="#fffdaf" stroke="#324755" stroke-linecap="round" stroke-width="1"/>
        <line id="선_214" data-name="선 214" y1="5.6" x2="6.3" transform="translate(10.901 4.953)" fill="none" stroke="#324755" stroke-linecap="round" stroke-width="1"/>
        <path id="패스_2386" data-name="패스 2386" d="M1695.132,807.879c-.3,1,2.2,6.7,2.2,6.7l14.232,1.067,24.563-2.333,2.834-1.167v-8.633s-16.046,4.55-19.313,4.9S1695.432,806.879,1695.132,807.879Z" transform="translate(-1694.981 -795.876)" fill="#fff" stroke="#324755" stroke-linecap="round" stroke-width="1"/>
        <line id="선_213" data-name="선 213" x1="7" y2="6.3" transform="translate(7.401 0.753)" fill="none" stroke="#324755" stroke-linecap="round" stroke-width="1"/>
        <line id="선_215" data-name="선 215" x1="4.9" y2="4.2" transform="translate(20.701 4.253)" fill="none" stroke="#324755" stroke-linecap="round" stroke-width="1"/>
        <line id="선_216" data-name="선 216" x1="4.2" y2="3.5" transform="translate(27.701 6.353)" fill="none" stroke="#324755" stroke-linecap="round" stroke-width="1"/>
        <line id="선_217" data-name="선 217" y2="2.1" transform="translate(5.301 11.953)" fill="none" stroke="#324755" stroke-linecap="round" stroke-width="1"/>
        <line id="선_218" data-name="선 218" y1="2.8" transform="translate(11.601 12.653)" fill="none" stroke="#324755" stroke-linecap="round" stroke-width="1"/>
        <line id="선_219" data-name="선 219" y2="2.1" transform="translate(19.301 12.653)" fill="none" stroke="#324755" stroke-linecap="round" stroke-width="1"/>
        <line id="선_220" data-name="선 220" y1="3.5" transform="translate(27.001 12.653)" fill="none" stroke="#324755" stroke-linecap="round" stroke-width="1"/>
        <line id="선_221" data-name="선 221" y2="2.8" transform="translate(33.301 10.553)" fill="none" stroke="#324755" stroke-linecap="round" stroke-width="1"/>
        <line id="선_222" data-name="선 222" y1="5.6" transform="translate(39.601 9.853)" fill="none" stroke="#324755" stroke-linecap="round" stroke-width="1"/>
      </g>
      <g id="합치기_18" data-name="합치기 18" transform="matrix(-0.996, 0.087, -0.087, -0.996, 54.718, 36.843)" fill="#00faac">
        <path d="M 3.997350931167603 8.437800407409668 C 2.068901062011719 8.437800407409668 0.500001072883606 6.776200294494629 0.500001072883606 4.733810424804688 C 0.500001072883606 2.691080093383789 2.068901062011719 1.029200196266174 3.997350931167603 1.029200196266174 C 4.878170967102051 1.029200196266174 5.71980094909668 1.377220153808594 6.367210865020752 2.009160280227661 L 6.767311096191406 2.399710178375244 L 7.110910892486572 1.958620190620422 C 7.778730869293213 1.101310253143311 8.762640953063965 0.609620213508606 9.810351371765137 0.609620213508606 C 10.80576133728027 0.609620213508606 11.75722122192383 1.061020255088806 12.4207706451416 1.84807014465332 L 12.81641101837158 2.317340135574341 L 13.1959810256958 1.834980249404907 C 13.86357116699219 0.9865801930427551 14.8436107635498 0.5000001788139343 15.88481140136719 0.5000001788139343 C 17.81326103210449 0.5000001788139343 19.38216018676758 2.161600112915039 19.38216018676758 4.20398998260498 C 19.38216018676758 6.246370315551758 17.81326103210449 7.907970428466797 15.88481140136719 7.907970428466797 C 14.88939094543457 7.907970428466797 13.93793106079102 7.45658016204834 13.27439117431641 6.669540405273438 L 12.87875080108643 6.200250148773193 L 12.49918079376221 6.682630062103271 C 11.8316011428833 7.531010150909424 10.85157108306885 8.017590522766113 9.810360908508301 8.017590522766113 C 8.929811477661133 8.017590522766113 8.088420867919922 7.669650077819824 7.441181182861328 7.03786039352417 L 7.041040897369385 6.647270202636719 L 6.697451114654541 7.088430404663086 C 6.029561042785645 7.945970058441162 5.045411109924316 8.437800407409668 3.997350931167603 8.437800407409668 Z" stroke="none"/>
        <path d="M 15.88481140136719 1 C 14.99791145324707 1 14.16108131408691 1.417030334472656 13.58891105651855 2.14417028427124 L 12.82977104187012 3.108910083770752 L 12.03849124908447 2.170350074768066 C 11.47017097473145 1.496240139007568 10.65805149078369 1.109620094299316 9.810351371765137 1.109620094299316 C 8.917901039123535 1.109620094299316 8.077760696411133 1.531060218811035 7.505351066589355 2.265890121459961 L 6.818161010742188 3.148060321807861 L 6.017951011657715 2.366960048675537 C 5.46449089050293 1.826720237731934 4.746901512145996 1.529200077056885 3.997350692749023 1.529200077056885 C 2.344610214233398 1.529200077056885 1.000001907348633 2.966780185699463 1.000001907348633 4.733810424804688 C 1.000001907348633 6.500500202178955 2.344610214233398 7.937800407409668 3.997350692749023 7.937800407409668 C 4.890130996704102 7.937800407409668 5.730501174926758 7.51623010635376 6.302970886230469 6.781200408935547 L 6.990151405334473 5.898890495300293 L 7.790431022644043 6.680060386657715 C 8.343730926513672 7.220149993896484 9.061091423034668 7.517590045928955 9.810360908508301 7.517590045928955 C 10.6972713470459 7.517590045928955 11.53409099578857 7.100560188293457 12.10625076293945 6.373430252075195 L 12.86539077758789 5.408679962158203 L 13.65667152404785 6.347249984741211 C 14.2249813079834 7.021349906921387 15.03711128234863 7.407970428466797 15.88481140136719 7.407970428466797 C 17.53755187988281 7.407970428466797 18.88216018676758 5.970670223236084 18.88216018676758 4.20398998260498 C 18.88216018676758 2.437300205230713 17.53755187988281 1 15.88481140136719 1 M 15.88481140136719 0 C 18.09233093261719 0 19.88216018676758 1.882440090179443 19.88216018676758 4.20398998260498 C 19.88216018676758 6.52616024017334 18.09233093261719 8.407970428466797 15.88481140136719 8.407970428466797 C 14.69381141662598 8.407970428466797 13.62452125549316 7.860549926757813 12.89212036132813 6.991820335388184 C 12.15882110595703 7.923730373382568 11.05055141448975 8.517590522766113 9.810360908508301 8.517590522766113 C 8.760491371154785 8.517590522766113 7.805240631103516 8.091950416564941 7.091920852661133 7.395660400390625 C 6.358760833740234 8.337010383605957 5.244820594787598 8.937800407409668 3.997350692749023 8.937800407409668 C 1.789831161499023 8.937800407409668 1.9073486328125e-06 7.055360317230225 1.9073486328125e-06 4.733810424804688 C 1.9073486328125e-06 2.411640167236328 1.789831161499023 0.529200553894043 3.997350692749023 0.529200553894043 C 5.047511100769043 0.529200553894043 6.003061294555664 0.9550004005432129 6.716461181640625 1.651360034942627 C 7.44956111907959 0.7102499008178711 8.563370704650879 0.1096200942993164 9.810351371765137 0.1096200942993164 C 11.00136089324951 0.1096200942993164 12.07064056396484 0.6570501327514648 12.80304145812988 1.525780200958252 C 13.53634071350098 0.5938806533813477 14.64462089538574 0 15.88481140136719 0 Z" stroke="none" fill="#324755"/>
      </g>
      <g id="그룹_4736" data-name="그룹 4736" transform="translate(0 32.907)">
        <g id="패스_2326" data-name="패스 2326" transform="translate(0 -24.125)" fill="#fff">
          <path d="M 28.00000190734863 32.69087219238281 C 19.27052116394043 32.69087219238281 12.12239170074463 30.72848320007324 8.638431549072266 29.55872344970703 C 5.692162036895752 28.56949234008789 3.771891832351685 27.64201354980469 2.679791927337646 27.03814315795898 C 1.470983624458313 26.36972808837891 0.8922828435897827 25.88401031494141 0.6485286951065063 25.60953903198242 C 1.314498424530029 25.44171714782715 3.348507881164551 25.14670944213867 9.548762321472168 24.9143238067627 C 14.52661228179932 24.72775268554688 21.07938194274902 24.62500190734863 28.00000190734863 24.62500190734863 C 34.92062377929688 24.62500190734863 41.47339248657227 24.72775268554688 46.45124053955078 24.9143238067627 C 52.65149688720703 25.14670944213867 54.68550491333008 25.44171714782715 55.35147476196289 25.60953903198242 C 55.10771942138672 25.88401031494141 54.52901840209961 26.36972808837891 53.32021331787109 27.03814315795898 C 52.22812271118164 27.64201354980469 50.30785369873047 28.56949234008789 47.3615837097168 29.55872344970703 C 43.87762069702148 30.72848320007324 36.7294921875 32.69087219238281 28.00000190734863 32.69087219238281 Z" stroke="none"/>
          <path d="M 28.00000190734863 25.12500190734863 C 21.22683334350586 25.12500190734863 14.77971267700195 25.22397232055664 9.846260070800781 25.40367317199707 C 5.331596374511719 25.5681209564209 3.0032958984375 25.76697158813477 1.807441711425781 25.92065238952637 C 2.165283203125 26.16623878479004 2.654388427734375 26.46523666381836 3.310012817382813 26.80978202819824 C 4.427883148193359 27.39724349975586 6.365211486816406 28.29455375671387 9.246391296386719 29.23317337036133 C 15.10107040405273 31.14047241210938 21.76123046875 32.19087219238281 28.00000190734863 32.19087219238281 C 34.23876953125 32.19087219238281 40.89893341064453 31.14047241210938 46.75361251831055 29.23317337036133 C 49.63479232788086 28.29455375671387 51.57212066650391 27.39724349975586 52.68999099731445 26.80978202819824 C 53.34561538696289 26.46523666381836 53.83472061157227 26.16623878479004 54.19256210327148 25.92065238952637 C 52.99670791625977 25.76697158813477 50.66840744018555 25.5681209564209 46.15373992919922 25.40367317199707 C 41.22029113769531 25.22397232055664 34.77317047119141 25.12500190734863 28.00000190734863 25.12500190734863 M 28.00000190734863 24.125 C 42 24.125 56 24.55182647705078 56 25.40548324584961 C 56 27.11280250549316 43.46398162841797 33.19087219238281 28.00000190734863 33.19087219238281 C 12.5360221862793 33.19087219238281 3.814697265625e-06 27.11280250549316 3.814697265625e-06 25.40548324584961 C 3.814697265625e-06 24.55182647705078 14.00000381469727 24.125 28.00000190734863 24.125 Z" stroke="none" fill="#324755"/>
        </g>
        <path id="패스_2327" data-name="패스 2327" d="M34.829,26a35.269,35.269,0,0,1-17.415,5.122A35.269,35.269,0,0,1,0,26Z" transform="translate(9.732 -22.841)" fill="#f2f2f2"/>
        <g id="사각형_2447" data-name="사각형 2447" transform="translate(17.756 7.329)" fill="#fff" stroke="#324755" stroke-width="1">
          <rect width="20.488" height="4.78" stroke="none"/>
          <rect x="0.5" y="0.5" width="19.488" height="3.78" fill="none"/>
        </g>
      </g>
    </g>
  </g>
</svg>
