<svg id="icn_vietnam_sm" xmlns="http://www.w3.org/2000/svg" xmlns:xlink="http://www.w3.org/1999/xlink" width="30" height="30" viewBox="0 0 30 30">
  <defs>
    <clipPath id="clip-path">
      <rect id="사각형_2420" data-name="사각형 2420" width="28.5" height="30" fill="rgba(255,255,255,0)"/>
    </clipPath>
  </defs>
  <rect id="사각형_2417" data-name="사각형 2417" width="30" height="30" fill="rgba(255,255,255,0)"/>
  <g id="마스크_그룹_11" data-name="마스크 그룹 11" transform="translate(0.75)" clip-path="url(#clip-path)">
    <g id="그룹_4675" data-name="그룹 4675" transform="translate(0.75 2.138)">
      <g id="그룹_4673" data-name="그룹 4673" transform="translate(0.75 3.26)">
        <g id="타원_533" data-name="타원 533" transform="translate(0 0)" fill="#fff" stroke="#324755" stroke-width="0.5">
          <circle cx="8.625" cy="8.625" r="8.625" stroke="none"/>
          <circle cx="8.625" cy="8.625" r="8.375" fill="none"/>
        </g>
        <g id="타원_534" data-name="타원 534" transform="translate(1.125 1.125)" fill="#fff" stroke="#324755" stroke-width="0.5">
          <circle cx="7.5" cy="7.5" r="7.5" stroke="none"/>
          <circle cx="7.5" cy="7.5" r="7.25" fill="none"/>
        </g>
        <g id="타원_535" data-name="타원 535" transform="translate(2.25 2.25)" fill="#fff" stroke="#324755" stroke-width="0.5">
          <circle cx="6.375" cy="6.375" r="6.375" stroke="none"/>
          <circle cx="6.375" cy="6.375" r="6.125" fill="none"/>
        </g>
        <g id="타원_536" data-name="타원 536" transform="translate(3.375 3.375)" fill="#fff" stroke="#324755" stroke-width="0.5">
          <circle cx="5.25" cy="5.25" r="5.25" stroke="none"/>
          <circle cx="5.25" cy="5.25" r="5" fill="none"/>
        </g>
        <g id="타원_537" data-name="타원 537" transform="translate(4.5 4.5)" fill="#fff" stroke="#324755" stroke-width="0.5">
          <circle cx="4.125" cy="4.125" r="4.125" stroke="none"/>
          <circle cx="4.125" cy="4.125" r="3.875" fill="none"/>
        </g>
        <g id="타원_538" data-name="타원 538" transform="translate(5.625 5.625)" fill="#fff" stroke="#324755" stroke-width="0.5">
          <circle cx="3" cy="3" r="3" stroke="none"/>
          <circle cx="3" cy="3" r="2.75" fill="none"/>
        </g>
        <g id="타원_539" data-name="타원 539" transform="translate(7.125 6.75)" fill="#fff" stroke="#324755" stroke-width="0.5">
          <circle cx="1.687" cy="1.687" r="1.687" stroke="none"/>
          <circle cx="1.687" cy="1.687" r="1.437" fill="none"/>
        </g>
        <g id="타원_540" data-name="타원 540" transform="translate(8.25 7.875)" fill="#fff" stroke="#324755" stroke-width="0.5">
          <circle cx="0.563" cy="0.563" r="0.563" stroke="none"/>
          <circle cx="0.563" cy="0.563" r="0.313" fill="none"/>
        </g>
      </g>
      <g id="패스_2348" data-name="패스 2348" transform="translate(9.061 0) rotate(28)" fill="#fffdaf">
        <path d="M 1.604440689086914 4.184549808502197 C 1.547784924507141 4.164765357971191 1.35103440284729 4.005330085754395 1.048599481582642 3.471283435821533 C 0.8013495206832886 3.034703493118286 0.6007195115089417 2.55677342414856 0.5115495324134827 2.276793479919434 C 0.3175671696662903 1.667708277702332 0.2562595307826996 0.833396315574646 0.250054270029068 0.7425946593284607 C 0.2539428472518921 0.4762160181999207 0.467176765203476 0.259607344865799 0.7322379946708679 0.2503148317337036 L 8.585809707641602 1.496903538703918 L 8.605279922485352 1.499993562698364 L 8.625 1.499993562698364 C 8.900699615478516 1.499993562698364 9.125 1.72429347038269 9.125 1.999993562698364 L 9.125 2.063743591308594 L 9.155529975891113 2.119703531265259 L 9.871692657470703 3.432679414749146 C 9.843008041381836 3.681314706802368 9.631196975708008 3.875003576278687 9.375 3.875003576278687 L 9.370019912719727 3.875003576278687 L 9.365039825439453 3.875203609466553 L 1.604440689086914 4.184549808502197 Z" stroke="none"/>
        <path d="M 0.7210512161254883 0.5016696453094482 C 0.6008329391479492 0.515599250793457 0.5063238143920898 0.6151587963104248 0.5003042221069336 0.7375838756561279 C 0.5094900131225586 0.8663368225097656 0.5705842971801758 1.638341188430786 0.7497596740722656 2.200933456420898 C 0.9611616134643555 2.864749431610107 1.448533058166504 3.732356786727905 1.67552375793457 3.931519985198975 L 9.35508918762207 3.62540340423584 L 9.365039825439453 3.625003576278687 L 9.375 3.625003576278687 C 9.479648590087891 3.625003576278687 9.569485664367676 3.560373306274414 9.606689453125 3.468928575515747 L 8.936049461364746 2.239413499832153 L 8.875 2.127493619918823 L 8.875 1.999993562698364 C 8.875 1.862143516540527 8.762849807739258 1.749993562698364 8.625 1.749993562698364 L 8.585559844970703 1.749993562698364 L 8.546619415283203 1.743813514709473 L 0.7210512161254883 0.5016696453094482 M 0.7499990463256836 3.337860107421875e-06 L 8.625 1.249993562698364 C 9.039209365844727 1.249993562698364 9.375 1.5857834815979 9.375 1.999993562698364 L 10.125 3.375003576278687 C 10.125 3.78921365737915 9.789209365844727 4.125003337860107 9.375 4.125003337860107 L 1.59900951385498 4.434963703155518 C 1.184799194335938 4.434963703155518 0.4894495010375977 3.031253576278687 0.2733392715454102 2.352653503417969 C 0.05721950531005859 1.674063444137573 -9.5367431640625e-07 0.7500035762786865 -9.5367431640625e-07 0.7500035762786865 C -9.5367431640625e-07 0.3357834815979004 0.335789680480957 3.337860107421875e-06 0.7499990463256836 3.337860107421875e-06 Z" stroke="none" fill="#324755"/>
      </g>
      <path id="패스_2347" data-name="패스 2347" d="M0,.622v1l5.908.124,7.276.809.249-.933L7.09,1.244,12,.809V0L6.033.622Z" transform="translate(12.237 15.974) rotate(-150)" fill="#00faac" stroke="#324755" stroke-width="0.5"/>
      <g id="그룹_4674" data-name="그룹 4674" transform="translate(11.625 5.135)">
        <g id="타원_533-2" data-name="타원 533" fill="#fff" stroke="#324755" stroke-width="0.5">
          <circle cx="6.563" cy="6.563" r="6.563" stroke="none"/>
          <circle cx="6.563" cy="6.563" r="6.313" fill="none"/>
        </g>
        <g id="타원_534-2" data-name="타원 534" transform="translate(1.125 1.125)" fill="#fff" stroke="#324755" stroke-width="0.5">
          <circle cx="5.438" cy="5.438" r="5.438" stroke="none"/>
          <circle cx="5.438" cy="5.438" r="5.188" fill="none"/>
        </g>
        <g id="타원_535-2" data-name="타원 535" transform="translate(2.25 2.25)" fill="#fff" stroke="#324755" stroke-width="0.5">
          <circle cx="4.313" cy="4.313" r="4.313" stroke="none"/>
          <circle cx="4.313" cy="4.313" r="4.063" fill="none"/>
        </g>
        <g id="타원_536-2" data-name="타원 536" transform="translate(3.375 3.375)" fill="#fff" stroke="#324755" stroke-width="0.5">
          <circle cx="3.188" cy="3.188" r="3.188" stroke="none"/>
          <circle cx="3.188" cy="3.188" r="2.938" fill="none"/>
        </g>
        <g id="타원_537-2" data-name="타원 537" transform="translate(3.375 3.375)" fill="#fff" stroke="#324755" stroke-width="0.5">
          <circle cx="3.188" cy="3.188" r="3.188" stroke="none"/>
          <circle cx="3.188" cy="3.188" r="2.938" fill="none"/>
        </g>
        <g id="타원_538-2" data-name="타원 538" transform="translate(4.5 4.5)" fill="#fff" stroke="#324755" stroke-width="0.5">
          <circle cx="2.063" cy="2.063" r="2.063" stroke="none"/>
          <circle cx="2.063" cy="2.063" r="1.813" fill="none"/>
        </g>
        <g id="타원_539-2" data-name="타원 539" transform="translate(5.625 5.625)" fill="#fff" stroke="#324755" stroke-width="0.5">
          <circle cx="0.938" cy="0.938" r="0.938" stroke="none"/>
          <circle cx="0.938" cy="0.938" r="0.688" fill="none"/>
        </g>
        <g id="타원_540-2" data-name="타원 540" transform="translate(6 6)" fill="#fff" stroke="#324755" stroke-width="0.5">
          <circle cx="0.563" cy="0.563" r="0.563" stroke="none"/>
          <circle cx="0.563" cy="0.563" r="0.313" fill="none"/>
        </g>
      </g>
      <g id="그룹_4701" data-name="그룹 4701" transform="translate(12.157 2.427)">
        <path id="패스_2346" data-name="패스 2346" d="M0,.622v1l4.087.124L9.12,2.55l.172-.933L4.9,1.244,8.3.809V0L4.173.622Z" transform="translate(4.681 7.783) rotate(-11)" fill="#00faac" stroke="#324755" stroke-width="0.5"/>
        <path id="패스_2343" data-name="패스 2343" d="M0,.622v1l6.223.124,7.664.809.262-.933L7.467,1.244,12.642.809V0L6.354.622Z" transform="translate(0.445 9.287) rotate(-28)" fill="#00faac" stroke="#324755" stroke-width="0.5"/>
        <path id="패스_2344" data-name="패스 2344" d="M0,.622v1l6.412.124,7.9.809.27-.933L7.695,1.244,13.027.809V0L6.547.622Z" transform="matrix(0.719, -0.695, 0.695, 0.719, 0, 10.128)" fill="#00faac" stroke="#324755" stroke-width="0.5"/>
      </g>
      <g id="패스_9" data-name="패스 9" transform="translate(-0.293 -27.482)" fill="#fff">
        <path d="M 13.79281044006348 51.43901824951172 C 11.34689998626709 51.43901824951172 8.043709754943848 49.95824813842773 5.377530097961426 47.66657638549805 C 3.944340229034424 46.43470764160156 2.753860235214233 45.00923538208008 1.934800148010254 43.54426574707031 C 1.056297063827515 41.97298431396484 0.5896914601325989 40.35943222045898 0.546167254447937 38.74419021606445 C 1.244996905326843 38.74311828613281 3.415254354476929 38.74257659912109 7.021830081939697 38.74257659912109 C 12.91666030883789 38.74257659912109 21.13566017150879 38.74403762817383 25.04920959472656 38.74473571777344 L 27.0394287109375 38.74506378173828 C 26.99575042724609 40.35999298095703 26.52915382385254 41.97328567504883 25.65081977844238 43.54426574707031 C 24.83176040649414 45.00923538208008 23.64127922058105 46.43470764160156 22.20808982849121 47.66657638549805 C 19.54191017150879 49.95824813842773 16.23871994018555 51.43901824951172 13.79281044006348 51.43901824951172 Z" stroke="none"/>
        <path d="M 7.021829605102539 38.99257659912109 C 3.782255172729492 38.99257659912109 1.701967239379883 38.99301528930664 0.8066501617431641 38.99387741088867 C 0.8892498016357422 40.48276519775391 1.34112548828125 41.97012710571289 2.153020858764648 43.42226791381836 C 2.957920074462891 44.86191558837891 4.129289627075195 46.26401519775391 5.540489196777344 47.47698593139648 C 6.8460693359375 48.59917831420898 8.329000473022461 49.54311752319336 9.828969955444336 50.20676803588867 C 11.2813606262207 50.84935760498047 12.6520299911499 51.18901824951172 13.79281044006348 51.18901824951172 C 14.93358993530273 51.18901824951172 16.30426025390625 50.84935760498047 17.75664901733398 50.20676803588867 C 19.25662040710449 49.54311752319336 20.73954963684082 48.59917831420898 22.04512977600098 47.47698593139648 C 23.45632934570313 46.26401519775391 24.62770080566406 44.86191558837891 25.4326000213623 43.42226791381836 C 26.2442741394043 41.97052383422852 26.69612884521484 40.48350524902344 26.77890777587891 38.99501800537109 L 25.04916000366211 38.99473571777344 C 21.13561058044434 38.99403762817383 12.91664028167725 38.99257659912109 7.021829605102539 38.99257659912109 M 7.021827697753906 38.49257278442383 C 14.7586498260498 38.49257278442383 26.49906349182129 38.49509429931641 27.25447845458984 38.49509429931641 C 27.27999305725098 38.49509429931641 27.29294013977051 38.49509429931641 27.29281044006348 38.49508666992188 C 27.29281044006348 45.86606597900391 18.66812133789063 51.68901824951172 13.79281044006348 51.68901824951172 C 8.917499542236328 51.68901824951172 0.2928104400634766 45.86606597900391 0.2928104400634766 38.49508666992188 C 0.2947177886962891 38.49320220947266 3.159931182861328 38.49257278442383 7.021827697753906 38.49257278442383 Z" stroke="none" fill="#324755"/>
      </g>
      <path id="패스_12" data-name="패스 12" d="M14.878,38.842c0,6.26-5.323,10.413-9.575,10.413S-5.4,45.1-5.4,38.842C-5.163,38.7,14.76,38.842,14.878,38.842Z" transform="translate(7.697 -25.674)" fill="#f2f2f2"/>
      <g id="사각형_17" data-name="사각형 17" transform="translate(9.75 23.082)" fill="#fff" stroke="#324755" stroke-width="0.5">
        <rect width="7.5" height="2.625" stroke="none"/>
        <rect x="0.25" y="0.25" width="7" height="2.125" fill="none"/>
      </g>
      <path id="패스_2317" data-name="패스 2317" d="M427.5,1179.375a16.007,16.007,0,0,1-2.125,4.781,13.04,13.04,0,0,1-3.75,3.5" transform="translate(-403.501 -1165.896)" fill="none" stroke="#324755" stroke-linecap="round" stroke-width="0.5"/>
      <path id="패스_2349" data-name="패스 2349" d="M398.02,1148a3.27,3.27,0,0,1-.234,1.359,5.093,5.093,0,0,0,0,1.2" transform="translate(-388.2 -1146.287)" fill="none" stroke="#324755" stroke-linecap="round" stroke-width="0.5"/>
      <path id="패스_2350" data-name="패스 2350" d="M401.668,1149.063a7.738,7.738,0,0,1,.281,1.758c-.07.516-.3,1.055-.141,1.289" transform="translate(-390.652 -1146.951)" fill="none" stroke="#324755" stroke-linecap="round" stroke-width="0.5"/>
      <path id="패스_2351" data-name="패스 2351" d="M406.168,1153.125a4.222,4.222,0,0,1,.117,1.5,2.333,2.333,0,0,0,.211.961" transform="translate(-393.465 -1149.49)" fill="none" stroke="#324755" stroke-linecap="round" stroke-width="0.5"/>
      <path id="패스_2364" data-name="패스 2364" d="M392.589,1134.143c-.164.7-.189.921.271,1.439a.819.819,0,0,1,0,1.168" transform="translate(-376.482 -1132.598)" fill="none" stroke="#324755" stroke-linecap="round" stroke-width="0.5"/>
      <path id="패스_2365" data-name="패스 2365" d="M392.622,1134.143c-.214.911-.246,1.2.354,1.875a1.067,1.067,0,0,1,0,1.521" transform="translate(-375.051 -1133.655)" fill="none" stroke="#324755" stroke-linecap="round" stroke-width="0.5"/>
      <path id="패스_2366" data-name="패스 2366" d="M392.589,1134.143c-.164.7-.189.921.271,1.439a.819.819,0,0,1,0,1.168" transform="translate(-373.429 -1133.173)" fill="none" stroke="#324755" stroke-linecap="round" stroke-width="0.5"/>
    </g>
  </g>
</svg>
