<svg id="icn_inorder_dark" xmlns="http://www.w3.org/2000/svg" width="20" height="20" viewBox="0 0 20 20">
  <rect id="사각형_2466" data-name="사각형 2466" width="20" height="20" opacity="0"/>
  <g id="Icon_feather-bell" data-name="Icon feather-bell" transform="translate(-0.011 -0.24)">
    <path id="패스_2409" data-name="패스 2409" d="M15.333,6.663a5.333,5.333,0,0,0-10.667,0c0,6.219-2.667,8-2.667,8H18s-2.667-1.777-2.667-8" transform="translate(0 0)" fill="none" stroke="#324755" stroke-linecap="round" stroke-linejoin="round" stroke-width="2"/>
    <path id="패스_2410" data-name="패스 2410" d="M9.92,14a1.777,1.777,0,0,1-3.074,0" transform="translate(1.616 4.212)" fill="none" stroke="#324755" stroke-linecap="round" stroke-linejoin="round" stroke-width="2"/>
  </g>
</svg>
