<svg xmlns="http://www.w3.org/2000/svg" width="56" height="56.601" viewBox="0 0 56 56.601">
  <g id="icn_korean" transform="translate(0 0.601)">
    <rect id="사각형_2411" data-name="사각형 2411" width="56" height="56" fill="rgba(255,255,255,0)"/>
    <g id="그룹_4657" data-name="그룹 4657" transform="translate(1.938)">
      <g id="빼기_1" data-name="빼기 1" transform="translate(0.857 14.468)" fill="#fff" stroke-linecap="round">
        <path d="M 30.81621551513672 29.37326240539551 C 30.06192588806152 29.37326240539551 29.30824661254883 29.30645179748535 28.57609558105469 29.1746826171875 L 28.46380615234375 29.15447235107422 L 28.35386657714844 29.18497276306152 C 27.90347671508789 29.30991172790527 27.4341869354248 29.37326240539551 26.95903587341309 29.37326240539551 C 24.7560863494873 29.37326240539551 22.81212615966797 27.98163223266602 22.23167610168457 25.98906135559082 L 22.19661712646484 25.86872291564941 L 22.10894584655762 25.77915191650391 C 20.08657646179199 23.71304130554199 18.97280693054199 21.02676200866699 18.97280693054199 18.21516227722168 C 18.97280693054199 18.15719223022461 18.97342681884766 18.09915161132813 18.97468566894531 18.04117202758789 L 18.99696731567383 17.01722145080566 L 18.17591667175293 17.62947273254395 C 16.82187652587891 18.6391716003418 15.19050598144531 19.17287254333496 13.458176612854 19.17287254333496 C 12.37895679473877 19.17287254333496 11.3366060256958 18.96461296081543 10.36008644104004 18.55387306213379 C 9.418045997619629 18.15770149230957 8.583406448364258 17.59395217895508 7.879336357116699 16.87827301025391 L 7.567356586456299 16.5611515045166 L 7.2160964012146 16.83412170410156 C 6.485006332397461 17.40227127075195 5.55855655670166 17.71516227722168 4.60741662979126 17.71516227722168 C 2.342576503753662 17.71516227722168 0.4999964237213135 15.97852230072021 0.4999964237213135 13.84389209747314 C 0.4999964237213135 12.92558193206787 0.8471664190292358 12.03521251678467 1.477556467056274 11.33680248260498 C 2.106826543807983 10.63958168029785 2.977506399154663 10.17370223999023 3.929196357727051 10.02495193481445 L 4.433136463165283 9.946191787719727 L 4.344356536865234 9.44392204284668 C 4.324636459350586 9.332362174987793 4.31463623046875 9.219552040100098 4.31463623046875 9.108622550964355 C 4.31463623046875 7.977712154388428 5.301426410675049 7.057641983032227 6.514366626739502 7.057641983032227 C 6.817246437072754 7.057641983032227 7.111626625061035 7.114322185516357 7.389326572418213 7.226122379302979 L 7.695096492767334 7.349212169647217 L 7.928736209869385 7.116712093353271 C 8.153326988220215 6.893211841583252 8.393527984619141 6.682577133178711 8.644170761108398 6.489266872406006 C 9.268525123596191 6.75036096572876 9.934281349182129 6.913050174713135 10.62903690338135 6.973842144012451 C 10.82592678070068 6.991082191467285 11.02579689025879 6.999832153320313 11.22302627563477 6.999832153320313 C 12.25794887542725 6.999832153320313 13.25579166412354 6.763746738433838 14.1340446472168 6.313925743103027 C 15.14768123626709 7.348469734191895 16.55317306518555 8.007097244262695 18.05217552185059 8.138472557067871 C 18.24440574645996 8.154972076416016 18.4350757598877 8.163291931152344 18.61977577209473 8.163291931152344 C 20.35306358337402 8.163291931152344 22.01108551025391 7.444394588470459 23.12420082092285 6.225222110748291 C 23.41799354553223 6.30586576461792 23.72029495239258 6.360062599182129 24.02677726745605 6.386892318725586 C 24.17500686645508 6.399852275848389 24.32510566711426 6.406432151794434 24.47291564941406 6.406432151794434 C 26.88413047790527 6.406432151794434 28.85256958007813 4.739024639129639 29.07195281982422 2.52020263671875 C 29.98819351196289 1.253257513046265 31.49768829345703 0.5000021457672119 33.13104629516602 0.5000021457672119 C 35.62147521972656 0.5000021457672119 37.71422576904297 2.248602151870728 37.99894714355469 4.567402362823486 L 38.06653594970703 5.117862224578857 L 38.60707473754883 4.993792057037354 C 38.9608154296875 4.912591934204102 39.32471466064453 4.871422290802002 39.68868637084961 4.871422290802002 C 40.48781585693359 4.871422290802002 41.27300643920898 5.070032119750977 41.95938491821289 5.445792198181152 C 42.62235641479492 5.808812141418457 43.18024826049805 6.32803201675415 43.57270812988281 6.947302341461182 L 43.68679809570313 7.127322196960449 L 43.89567565917969 7.169682025909424 C 44.77630615234375 7.348252296447754 45.5999755859375 7.74067211151123 46.27764511108398 8.304532051086426 C 46.9472770690918 8.861472129821777 47.45863723754883 9.571891784667969 47.75649642944336 10.35905170440674 L 47.82098770141602 10.52947235107422 L 47.98000717163086 10.61844253540039 C 48.69852828979492 11.020432472229 49.2998161315918 11.59226226806641 49.71885681152344 12.27209186553955 C 50.14789581298828 12.96796226501465 50.37465667724609 13.76339244842529 50.37465667724609 14.57241249084473 C 50.37465667724609 15.46547222137451 50.10223770141602 16.33103179931641 49.58685684204102 17.07553291320801 L 49.36541748046875 17.39542198181152 L 49.62107467651367 17.68868255615234 C 50.10702514648438 18.24612236022949 50.37465667724609 18.95079231262207 50.37465667724609 19.67287254333496 C 50.37465667724609 21.40579223632813 48.86866760253906 22.81562232971191 47.01754760742188 22.81562232971191 C 45.16635513305664 22.81562232971191 43.66030502319336 21.40579223632813 43.66030502319336 19.67287254333496 C 43.66030502319336 19.54159164428711 43.66983795166016 19.40374183654785 43.68864822387695 19.26315307617188 L 43.73867797851563 18.88910293579102 L 43.39266586303711 18.73844146728516 C 43.37164688110352 18.72929191589355 43.35049819946289 18.7195930480957 43.329345703125 18.70985221862793 L 42.6826057434082 18.41215133666992 L 42.62208557128906 19.12154197692871 C 42.38485717773438 21.90236282348633 41.05478668212891 24.48388290405273 38.87689590454102 26.39057159423828 C 36.67998504638672 28.31399154663086 33.81731796264648 29.37326240539551 30.81621551513672 29.37326240539551 Z" stroke="none"/>
        <path d="M 30.81621551513672 28.87326240539551 C 33.69611740112305 28.87326240539551 36.44180679321289 27.85796165466309 38.54753494262695 26.01437187194824 C 40.62760543823242 24.19333267211914 41.8977165222168 21.73031234741211 42.12389755249023 19.07904243469238 L 42.24492645263672 17.66026306152344 L 43.53840637207031 18.25565147399902 C 43.55641555786133 18.26394271850586 43.57438659667969 18.27223205566406 43.59228515625 18.28002166748047 L 44.28428649902344 18.58134269714355 L 44.18422698974609 19.32944297790527 C 44.16835784912109 19.4481315612793 44.16030502319336 19.56368255615234 44.16030502319336 19.67287254333496 C 44.16030502319336 21.13009262084961 45.44205474853516 22.31562232971191 47.01754760742188 22.31562232971191 C 48.59296798706055 22.31562232971191 49.87465667724609 21.13009262084961 49.87465667724609 19.67287254333496 C 49.87465667724609 19.07160186767578 49.6507453918457 18.48362159729004 49.24417495727539 18.01724243164063 L 48.73286819458008 17.43071174621582 L 49.17575454711914 16.79094123840332 C 49.63297653198242 16.13045310974121 49.87465667724609 15.36330223083496 49.87465667724609 14.57241249084473 C 49.87465667724609 13.85612201690674 49.67361831665039 13.15143203735352 49.29322814941406 12.53445243835449 C 48.91876602172852 11.92695236206055 48.38024520874023 11.41529178619385 47.73588562011719 11.0547924041748 L 47.4178352355957 10.87685203552246 L 47.28885650634766 10.53600215911865 C 47.0214958190918 9.829462051391602 46.56129455566406 9.19078254699707 45.95783615112305 8.688881874084473 C 45.34356689453125 8.177772521972656 44.59612655639648 7.821892261505127 43.79630661010742 7.659702301025391 L 43.37854766845703 7.574992179870605 L 43.15037536621094 7.214951992034912 C 42.80308532714844 6.666962146759033 42.30819702148438 6.206831932067871 41.71928787231445 5.884372234344482 C 41.10630798339844 5.548802375793457 40.40413665771484 5.371422290802002 39.68868637084961 5.371422290802002 C 39.3623046875 5.371422290802002 39.03603744506836 5.408332347869873 38.71893692016602 5.481112003326416 L 37.63785552978516 5.729262351989746 L 37.50266647338867 4.628332138061523 C 37.24868774414063 2.559842109680176 35.36929702758789 1.000002145767212 33.13104629516602 1.000002145767212 C 31.70298194885254 1.000002145767212 30.3819465637207 1.635758519172668 29.5533390045166 2.711098909378052 C 29.24106025695801 5.116340160369873 27.09228134155273 6.906432151794434 24.47291564941406 6.906432151794434 C 24.31061553955078 6.906432151794434 24.14586639404297 6.89921236038208 23.98318672180176 6.884982109069824 C 23.74778175354004 6.864379405975342 23.51453399658203 6.829043865203857 23.28511238098145 6.779335975646973 C 22.08510971069336 7.968910694122314 20.38765716552734 8.663291931152344 18.61977577209473 8.663291931152344 C 18.42086601257324 8.663291931152344 18.2158260345459 8.654352188110352 18.00851631164551 8.636562347412109 C 16.51557159423828 8.505717277526855 15.10715675354004 7.888646602630615 14.03680038452148 6.914262294769287 C 13.1705265045166 7.29900074005127 12.2118444442749 7.499832153320313 11.22302627563477 7.499832153320313 C 11.01128673553467 7.499832153320313 10.79674625396729 7.490442276000977 10.58545684814453 7.471931934356689 C 9.941760063171387 7.415613651275635 9.320852279663086 7.277704238891602 8.731235504150391 7.060596942901611 C 8.575507164001465 7.190905570983887 8.425050735473633 7.32819652557373 8.281426429748535 7.471122264862061 L 7.814136505126953 7.936131954193115 L 7.202606201171875 7.689942359924316 C 6.984526634216309 7.602152347564697 6.752976417541504 7.557641983032227 6.514366626739502 7.557641983032227 C 5.577136516571045 7.557641983032227 4.81463623046875 8.253412246704102 4.81463623046875 9.108622550964355 C 4.81463623046875 9.190452575683594 4.822066307067871 9.273982048034668 4.836726665496826 9.356892585754395 L 5.014276504516602 10.36143207550049 L 4.006406307220459 10.51896190643311 C 3.167676448822021 10.65004253387451 2.401396512985229 11.05946254730225 1.848716378211975 11.67181205749512 C 1.301416397094727 12.27818202972412 0.9999964237213135 13.0495719909668 0.9999964237213135 13.84389209747314 C 0.9999964237213135 15.70281219482422 2.618276357650757 17.21516227722168 4.60741662979126 17.21516227722168 C 5.448006629943848 17.21516227722168 6.265486240386963 16.93963241577148 6.909286499023438 16.43932151794434 L 7.61181640625 15.89337253570557 L 8.235776901245117 16.52762222290039 C 8.893226623535156 17.1959114074707 9.67314624786377 17.72257232666016 10.55393600463867 18.09298133850098 C 11.46876621246338 18.4777717590332 12.44588661193848 18.67287254333496 13.458176612854 18.67287254333496 C 15.08197689056396 18.67287254333496 16.60998725891113 18.17347145080566 17.87701606750488 17.22865295410156 L 19.51911735534668 16.00414276123047 L 19.47456550598145 18.05205154418945 C 19.47338676452637 18.10640144348145 19.47280693054199 18.16082191467285 19.47280693054199 18.21516227722168 C 19.47280693054199 20.89522171020508 20.53589630126953 23.4572925567627 22.46625709533691 25.42940139770508 L 22.6416072845459 25.60854148864746 L 22.71171569824219 25.84922218322754 C 23.23039627075195 27.62973213195801 24.97695732116699 28.87326240539551 26.95903587341309 28.87326240539551 C 27.38901710510254 28.87326240539551 27.8133373260498 28.81603240966797 28.22021675109863 28.70316123962402 L 28.44008636474609 28.64217185974121 L 28.6646556854248 28.68258285522461 C 29.36765670776367 28.80911254882813 30.0915470123291 28.87326240539551 30.81621551513672 28.87326240539551 M 30.81621551513672 29.87326240539551 C 30.0324764251709 29.87326240539551 29.24895668029785 29.80381202697754 28.48752593994141 29.66677284240723 C 27.99352645874023 29.80381202697754 27.47913551330566 29.87326240539551 26.95903587341309 29.87326240539551 C 24.53517723083496 29.87326240539551 22.39386558532715 28.33358192443848 21.75162696838379 26.12890243530273 C 19.63736724853516 23.96891212463379 18.47280693054199 21.15830230712891 18.47280693054199 18.21516227722168 C 18.47280693054199 18.15357208251953 18.47346687316895 18.0919017791748 18.47480583190918 18.03030204772949 C 17.03354644775391 19.10504150390625 15.29840660095215 19.67287254333496 13.458176612854 19.67287254333496 C 12.31206607818604 19.67287254333496 11.20449638366699 19.45147132873535 10.16622638702393 19.01476287841797 C 9.163026809692383 18.59287261962891 8.273666381835938 17.99206161499023 7.522906303405762 17.22892189025879 C 6.704476356506348 17.86494255065918 5.668736457824707 18.21516227722168 4.60741662979126 18.21516227722168 C 2.066896438598633 18.21516227722168 -3.568725560398889e-06 16.25425148010254 -3.568725560398889e-06 13.84389209747314 C -3.568725560398889e-06 12.80177211761475 0.3928364217281342 11.79233169555664 1.106386423110962 11.00178241729736 C 1.812226414680481 10.21974182128906 2.787336349487305 9.697352409362793 3.851986408233643 9.530952453613281 C 3.826936483383179 9.38923168182373 3.814636468887329 9.246922492980957 3.814636468887329 9.108622550964355 C 3.814636468887329 7.701982021331787 5.02574634552002 6.557641983032227 6.514366626739502 6.557641983032227 C 6.881546497344971 6.557641983032227 7.238736629486084 6.62650203704834 7.576046466827393 6.762292385101318 C 7.848806381225586 6.490862369537354 8.142916679382324 6.237522125244141 8.449546813964844 6.009462356567383 C 8.45258617401123 5.957352161407471 8.457036018371582 5.905542373657227 8.462366104125977 5.855731964111328 C 9.144126892089844 6.198312282562256 9.887316703796387 6.407032012939453 10.67261600494385 6.475742340087891 C 10.85539627075195 6.491752147674561 11.04061603546143 6.499832153320313 11.22302627563477 6.499832153320313 C 12.31161689758301 6.499832153320313 13.35366630554199 6.217952251434326 14.23664665222168 5.684812068939209 C 15.17759609222412 6.795122146606445 16.58378601074219 7.507862091064453 18.09582710266113 7.640382289886475 C 18.27297592163086 7.655581951141357 18.44922637939453 7.663291931152344 18.61977577209473 7.663291931152344 C 20.32363700866699 7.663291931152344 21.94581604003906 6.910752296447754 22.95888710021973 5.650132179260254 C 23.31480598449707 5.775022029876709 23.68843650817871 5.855361938476563 24.07037734985352 5.888792037963867 C 24.20341682434082 5.900432109832764 24.33891677856445 5.906432151794434 24.47291564941406 5.906432151794434 C 26.63980674743652 5.906432151794434 28.40458679199219 4.411962032318115 28.57817649841309 2.430302143096924 C 28.58195686340332 2.386652231216431 28.58492660522461 2.342992067337036 28.5871467590332 2.299482107162476 C 28.59307670593262 2.306232213973999 28.59796714782715 2.312012195587158 28.60278701782227 2.317722082138062 C 29.60554695129395 0.8669021725654602 31.29836654663086 2.15637214751041e-06 33.13104629516602 2.15637214751041e-06 C 35.87361526489258 2.15637214751041e-06 38.17976760864258 1.937412142753601 38.49521636962891 4.506462097167969 C 38.88656616210938 4.416632175445557 39.28843688964844 4.371422290802002 39.68868637084961 4.371422290802002 C 40.57145690917969 4.371422290802002 41.4396858215332 4.591262340545654 42.19948577880859 5.007212162017822 C 42.9365348815918 5.410792350769043 43.55743789672852 5.989151954650879 43.99503707885742 6.679652214050293 C 44.95635604858398 6.874582290649414 45.85639572143555 7.303582191467285 46.59744644165039 7.920182228088379 C 47.33329772949219 8.532192230224609 47.89578628540039 9.314372062683105 48.22413635253906 10.18209171295166 C 49.01677703857422 10.6255521774292 49.68095779418945 11.25771236419678 50.14449691772461 12.00973224639893 C 50.62212753295898 12.78442192077637 50.87465667724609 13.6706018447876 50.87465667724609 14.57241249084473 C 50.87465667724609 15.56761169433594 50.57150650024414 16.53161239624023 49.99796676635742 17.36012268066406 C 50.56327819824219 18.00859260559082 50.87465667724609 18.83020210266113 50.87465667724609 19.67287254333496 C 50.87465667724609 21.6815128326416 49.14432525634766 23.31562232971191 47.01754760742188 23.31562232971191 C 44.89061737060547 23.31562232971191 43.16030502319336 21.6815128326416 43.16030502319336 19.67287254333496 C 43.16030502319336 19.51937294006348 43.17134475708008 19.35919189453125 43.19305801391602 19.19687271118164 C 43.16889572143555 19.18635177612305 43.14458465576172 19.17523193359375 43.12027740478516 19.16404151916504 C 42.87197494506836 22.07464218139648 41.48163604736328 24.77473258972168 39.20624542236328 26.76677131652832 C 36.91817474365234 28.7700023651123 33.93857574462891 29.87326240539551 30.81621551513672 29.87326240539551 Z" stroke="none" fill="#324755"/>
      </g>
      <g id="그룹_22" data-name="그룹 22" transform="translate(0 28.32)">
        <g id="패스_9" data-name="패스 9" transform="translate(-0.293 -38.493)" fill="#fff">
          <path d="M 26.52328681945801 62.75806045532227 C 19.58233642578125 62.75806045532227 13.10138607025146 60.25189208984375 8.274306297302246 55.70122146606445 C 3.572293758392334 51.26845550537109 0.9291508197784424 45.35300827026367 0.7979593873023987 38.99562072753906 C 1.908686757087708 38.99402618408203 5.17406702041626 38.99257278442383 13.3640661239624 38.99257278442383 C 24.80799674987793 38.99257278442383 40.76198577880859 38.99532318115234 48.37459564208984 38.99663162231445 C 50.21224975585938 38.9969482421875 51.56380462646484 38.9971809387207 52.24858093261719 38.99727249145508 C 52.11677551269531 45.35375213623047 49.47369003295898 51.26900863647461 44.77226638793945 55.70122146606445 C 39.94518661499023 60.25189208984375 33.46423721313477 62.75806045532227 26.52328681945801 62.75806045532227 Z" stroke="none"/>
          <path d="M 13.36405563354492 39.49257278442383 C 6.176170349121094 39.49257278442383 2.786128997802734 39.49368286132813 1.313922882080078 39.49502563476563 C 1.569725036621094 45.52285766601563 4.140220642089844 51.1167106628418 8.617275238037109 55.33740234375 C 13.35121536254883 59.80026245117188 19.71035766601563 62.25806045532227 26.52328681945801 62.25806045532227 C 33.33621597290039 62.25806045532227 39.69535827636719 59.80026245117188 44.42928695678711 55.33740234375 C 48.90606307983398 51.11698150634766 51.47646713256836 45.52458572387695 51.73255157470703 39.49719619750977 C 50.97663116455078 39.49707794189453 49.82751846313477 39.49688339233398 48.37448501586914 39.49663162231445 C 40.76187515258789 39.49532318115234 24.80794715881348 39.49257278442383 13.36405563354492 39.49257278442383 M 13.36405944824219 38.49257278442383 C 28.39382743835449 38.49257278442383 51.20278930664063 38.49731063842773 52.67841339111328 38.49731063842773 C 52.72853469848633 38.49731063842773 52.75400924682617 38.4973030090332 52.75375747680664 38.49729156494141 C 52.75375747680664 52.33025360107422 41.12790679931641 63.25806045532227 26.52328681945801 63.25806045532227 C 11.91866683959961 63.25806045532227 0.2928047180175781 52.33025360107422 0.2928047180175781 38.49729156494141 C 0.2965164184570313 38.49375152587891 5.862537384033203 38.49257278442383 13.36405944824219 38.49257278442383 Z" stroke="none" fill="#324755"/>
        </g>
        <path id="패스_12" data-name="패스 12" d="M34,38.9c0,12.163-10.343,20.233-18.6,20.233S-5.4,51.066-5.4,38.9C-4.94,38.621,33.77,38.9,34,38.9Z" transform="translate(9.863 -34.856)" fill="#f2f2f2"/>
        <g id="사각형_17" data-name="사각형 17" transform="translate(15.301 22.58)" fill="#fff" stroke="#324755" stroke-width="1">
          <rect width="21.859" height="5.1" stroke="none"/>
          <rect x="0.5" y="0.5" width="20.859" height="4.1" fill="none"/>
        </g>
      </g>
      <g id="그룹_4655" data-name="그룹 4655" transform="translate(10.703 9.131) rotate(-8)">
        <g id="합치기_5" data-name="합치기 5" transform="translate(0.267 0)" fill="#fff">
          <path d="M 11.29418182373047 8.243800163269043 C 10.48921203613281 8.243800163269043 9.732131958007813 8.005810737609863 9.104791641235352 7.55556058883667 L 8.798921585083008 7.336040496826172 L 8.503432273864746 7.56933069229126 C 7.944531917572021 8.010570526123047 7.27166223526001 8.243800163269043 6.557571887969971 8.243800163269043 C 5.888152122497559 8.243800163269043 5.249412059783936 8.036300659179688 4.71041202545166 7.643730640411377 L 4.379171848297119 7.402470588684082 L 4.077561855316162 7.679880619049072 C 3.687911987304688 8.038260459899902 3.131222009658813 8.243800163269043 2.55023193359375 8.243800163269043 C 1.419731974601746 8.243800163269043 0.5000020265579224 7.48736047744751 0.5000020265579224 6.557570457458496 C 0.5000020265579224 6.080260753631592 0.7499819993972778 5.622500419616699 1.185832023620605 5.301670551300049 L 1.48993194103241 5.077830791473389 L 1.357841968536377 4.724090576171875 C 1.272421956062317 4.495340347290039 1.229112029075623 4.254190444946289 1.229112029075623 4.007340431213379 C 1.229112029075623 2.876800537109375 2.148571968078613 1.957040548324585 3.278752088546753 1.957040548324585 C 3.708842039108276 1.957040548324585 4.120461940765381 2.088720560073853 4.469111919403076 2.337850570678711 L 4.729191780090332 2.523680448532104 L 5.007031917572021 2.365630626678467 C 5.114232063293457 2.304650545120239 5.226232051849365 2.249470472335815 5.339921951293945 2.201620578765869 L 5.582252025604248 2.099640607833862 L 5.635581970214844 1.842190504074097 C 5.796681880950928 1.064470529556274 6.49110221862793 0.500000536441803 7.28676176071167 0.500000536441803 C 7.702052116394043 0.500000536441803 8.101012229919434 0.6524705290794373 8.410172462463379 0.929330587387085 L 8.743732452392578 1.228060603141785 L 9.077301979064941 0.929330587387085 C 9.386442184448242 0.6524705290794373 9.78551197052002 0.500000536441803 10.2009916305542 0.500000536441803 C 10.94550228118896 0.500000536441803 11.61098194122314 0.9986905455589294 11.81932163238525 1.712720513343811 L 11.90103244781494 1.992760539054871 L 12.18503189086914 2.059440612792969 C 12.96101188659668 2.241610527038574 13.65108203887939 2.664120674133301 14.12814235687256 3.249120473861694 L 14.25567245483398 3.405510663986206 L 14.45602226257324 3.429560661315918 C 15.48364162445068 3.552950620651245 16.2585620880127 4.427990436553955 16.2585620880127 5.464980602264404 C 16.2585620880127 6.595190525054932 15.33883190155029 7.514690399169922 14.20833206176758 7.514690399169922 C 14.0862922668457 7.514690399169922 13.96391201019287 7.503890514373779 13.84458160400391 7.482590675354004 L 13.63836193084717 7.445780754089355 L 13.46749210357666 7.56695032119751 C 12.84308242797852 8.009750366210938 12.09156227111816 8.243800163269043 11.29418182373047 8.243800163269043 Z" stroke="none"/>
          <path d="M 11.29418182373047 7.743800640106201 C 11.98735237121582 7.743800640106201 12.63886165618896 7.541610717773438 13.17826175689697 7.159100532531738 L 13.52001190185547 6.916750431060791 L 13.93244171142578 6.990370750427246 C 14.02285194396973 7.006510734558105 14.11567211151123 7.014690399169922 14.20833206176758 7.014690399169922 C 15.06313228607178 7.014690399169922 15.7585620880127 6.319490432739258 15.7585620880127 5.464980602264404 C 15.7585620880127 4.68086051940918 15.17297172546387 4.019240379333496 14.39642238616943 3.926000595092773 L 13.99571228027344 3.877880573272705 L 13.74065208435059 3.565110445022583 C 13.33294200897217 3.065150499343872 12.73990154266357 2.703300476074219 12.07075214385986 2.546200513839722 L 11.50276184082031 2.412850618362427 L 11.33934211730957 1.852770566940308 C 11.19284152984619 1.350670576095581 10.72473239898682 1.000000596046448 10.2009916305542 1.000000596046448 C 9.908782005310059 1.000000596046448 9.628182411193848 1.107180595397949 9.410872459411621 1.301790595054626 L 8.743741989135742 1.899250507354736 L 8.076601982116699 1.301800608634949 C 7.85928201675415 1.107180595397949 7.578782081604004 1.000000596046448 7.28676176071167 1.000000596046448 C 6.726962089538574 1.000000596046448 6.238441944122314 1.3968505859375 6.125182151794434 1.943610548973083 L 6.018521785736084 2.458510637283325 L 5.533872127532959 2.662470579147339 C 5.438382148742676 2.70266056060791 5.344302177429199 2.749010562896729 5.25426197052002 2.800230503082275 L 4.698582172393799 3.116340637207031 L 4.178421974182129 2.744660615921021 C 3.915091991424561 2.556500673294067 3.603991985321045 2.457040548324585 3.278752088546753 2.457040548324585 C 2.424282073974609 2.457040548324585 1.729112029075623 3.152500629425049 1.729112029075623 4.007340431213379 C 1.729112029075623 4.194260597229004 1.761791944503784 4.376570701599121 1.826251983642578 4.549190521240234 L 2.090421915054321 5.256660461425781 L 1.482241988182068 5.70434045791626 C 1.302142024040222 5.836910724639893 1.000002026557922 6.124050617218018 1.000002026557922 6.557570457458496 C 1.000002026557922 7.200570583343506 1.709921956062317 7.743800640106201 2.55023193359375 7.743800640106201 C 3.007312059402466 7.743800640106201 3.440632104873657 7.586370468139648 3.739082098007202 7.311870574951172 L 4.342301845550537 6.757060527801514 L 5.004772186279297 7.239560604095459 C 5.45769214630127 7.569440364837646 5.994641780853271 7.743800640106201 6.557571887969971 7.743800640106201 C 7.158102035522461 7.743800640106201 7.723832130432129 7.547770500183105 8.193601608276367 7.17689037322998 L 8.784602165222168 6.710310459136963 L 9.396331787109375 7.149350643157959 C 9.93818187713623 7.538240432739258 10.59444236755371 7.743800640106201 11.29418182373047 7.743800640106201 M 11.29418182373047 8.743800163269043 C 10.35731220245361 8.743800163269043 9.495672225952148 8.451550483703613 8.813252449035645 7.961770534515381 C 8.192872047424316 8.451550483703613 7.409431934356689 8.743800163269043 6.557571887969971 8.743800163269043 C 5.757162094116211 8.743800163269043 5.017072200775146 8.485640525817871 4.416041851043701 8.047890663146973 C 3.950491905212402 8.476080894470215 3.286751985549927 8.743800163269043 2.55023193359375 8.743800163269043 C 1.142251968383789 8.743800163269043 1.997680556087289e-06 7.764830589294434 1.997680556087289e-06 6.557570457458496 C 1.997680556087289e-06 5.894050598144531 0.3448820114135742 5.299840450286865 0.8894320130348206 4.899000644683838 C 0.7858120203018188 4.621500492095947 0.7291119694709778 4.321020603179932 0.7291119694709778 4.007340431213379 C 0.7291119694709778 2.59937047958374 1.870772004127502 1.457040548324585 3.278752088546753 1.457040548324585 C 3.831012010574341 1.457040548324585 4.342291831970215 1.632700562477112 4.759801864624023 1.931030511856079 C 4.884101867675781 1.860320568084717 5.013001918792725 1.796730518341064 5.145971775054932 1.740770578384399 C 5.351801872253418 0.7471205592155457 6.232262134552002 5.584716973316972e-07 7.28676176071167 5.584716973316972e-07 C 7.846362113952637 5.584716973316972e-07 8.356971740722656 0.2105005532503128 8.743732452392578 0.5568605661392212 C 9.130481719970703 0.2105005532503128 9.641092300415039 5.584716973316972e-07 10.2009916305542 5.584716973316972e-07 C 11.19515228271484 5.584716973316972e-07 12.03419208526611 0.6640405654907227 12.29931163787842 1.572670578956604 C 13.19972229003906 1.784060597419739 13.97745227813721 2.273170471191406 14.51563167572021 2.933130502700806 C 15.779221534729 3.084850549697876 16.7585620880127 4.160470485687256 16.7585620880127 5.464980602264404 C 16.7585620880127 6.872950553894043 15.61690235137939 8.014690399169922 14.20833206176758 8.014690399169922 C 14.05424213409424 8.014690399169922 13.9033317565918 8.000980377197266 13.75672245025635 7.974810600280762 C 13.07734203338623 8.45659065246582 12.22260189056396 8.743800163269043 11.29418182373047 8.743800163269043 Z" stroke="none" fill="#324755"/>
        </g>
        <g id="합치기_7" data-name="합치기 7" transform="translate(0 1.644)" fill="#00faac">
          <path d="M 8.212569236755371 9.570595741271973 L 8.212539672851563 9.570595741271973 C 6.305459022521973 9.570695877075195 4.406269073486328 9.015255928039551 2.864829301834106 8.006575584411621 C 1.535479307174683 7.136692047119141 0.6473674178123474 6.010128498077393 0.5457946062088013 5.065329074859619 C 0.8224728107452393 4.920725345611572 1.804374694824219 4.579172134399414 5.126879215240479 4.321625709533691 C 7.435429096221924 4.142675876617432 10.43480968475342 4.040035724639893 13.35593891143799 4.040035724639893 C 14.11554908752441 4.040035724639893 14.83925914764404 4.047175884246826 15.50694942474365 4.061245918273926 L 15.55046939849854 4.0621657371521 L 15.59348964691162 4.055545806884766 L 38.63167953491211 0.5123359560966492 C 38.68415832519531 0.5040359497070313 38.73521041870117 0.4999959468841553 38.78556060791016 0.4999959468841553 C 39.25838851928711 0.4999959468841553 39.65534973144531 0.8396159410476685 39.72943878173828 1.307535886764526 L 39.84352874755859 2.027575969696045 C 39.88356018066406 2.280045986175537 39.82283782958984 2.532915830612183 39.67256927490234 2.739645957946777 C 39.52222061157227 2.946485996246338 39.3001594543457 3.08245587348938 39.04729843139648 3.122505903244019 L 15.61416912078857 6.727035999298096 L 15.46529960632324 6.749936103820801 L 15.35384941101074 6.851255893707275 C 13.75523948669434 8.304546356201172 11.52371883392334 9.276286125183105 9.231459617614746 9.517306327819824 C 8.894589424133301 9.552665710449219 8.551758766174316 9.570595741271973 8.212569236755371 9.570595741271973 Z" stroke="none"/>
          <path d="M 8.212569236755371 9.070595741271973 C 8.534389495849609 9.070595741271973 8.859668731689453 9.053586006164551 9.179179191589355 9.020046234130859 C 11.36792945861816 8.789905548095703 13.4959192276001 7.864565849304199 15.01751899719238 6.48128604888916 L 15.24041938781738 6.278645992279053 L 15.53815937042236 6.232845783233643 L 38.96907806396484 2.628655910491943 C 39.13233947753906 2.602795839309692 39.22652053833008 2.50290584564209 39.26812744140625 2.445655822753906 C 39.30965805053711 2.388535976409912 39.37546920776367 2.268435955047607 39.34968948364258 2.105815887451172 L 39.23559951782227 1.385735988616943 C 39.20076751708984 1.165825963020325 39.00729751586914 0.9999959468841553 38.78556060791016 0.9999959468841553 C 38.76131820678711 0.9999959468841553 38.73653793334961 1.001965880393982 38.70768737792969 1.006525993347168 L 15.66949939727783 4.549736022949219 L 15.5834493637085 4.562965869903564 L 15.49641895294189 4.561135768890381 C 14.83227920532227 4.547135829925537 14.11211967468262 4.540035724639893 13.35593891143799 4.540035724639893 C 10.5706090927124 4.540035724639893 7.681349277496338 4.634875774383545 5.428989410400391 4.800245761871338 C 2.82825756072998 4.991189479827881 1.647841811180115 5.229381084442139 1.129639625549316 5.380085945129395 C 1.382619142532349 6.097601413726807 2.128136396408081 6.926976680755615 3.138609170913696 7.58819580078125 C 4.599609375 8.544236183166504 6.401559352874756 9.070695877075195 8.212519645690918 9.070595741271973 L 8.212569236755371 9.070595741271973 M 8.212569236755371 10.07059574127197 C 3.874359130859375 10.07082557678223 0.2815591990947723 7.334405899047852 0.04808920994400978 5.113415718078613 C -0.7019914984703064 3.967418432235718 7.484724044799805 3.540038347244263 13.35593795776367 3.540038347244263 C 14.1247444152832 3.540038347244263 14.85333347320557 3.547358751296997 15.51748943328857 3.561355829238892 L 38.55567932128906 0.01814593933522701 C 38.63293075561523 0.005924060009419918 38.70975494384766 3.918457025520183e-07 38.78555297851563 3.918457025520183e-07 C 39.49032592773438 3.918457025520183e-07 40.10966110229492 0.5117255449295044 40.22328948974609 1.229335904121399 L 40.33736801147461 1.949325919151306 C 40.4633674621582 2.74410605430603 39.92103958129883 3.49034595489502 39.12551879882813 3.616345882415771 L 15.69018936157227 7.221225738525391 C 14.17859935760498 8.595405578613281 11.88770961761475 9.740765571594238 9.283749580383301 10.01456546783447 C 8.922928810119629 10.05243587493896 8.564939498901367 10.07059574127197 8.212569236755371 10.07059574127197 Z" stroke="none" fill="#324755"/>
        </g>
      </g>
      <path id="패스_2288" data-name="패스 2288" d="M392.691,1134.143c-.319,1.358-.367,1.789.527,2.8a1.591,1.591,0,0,1,0,2.268" transform="translate(-378.152 -1132.088)" fill="none" stroke="#324755" stroke-linecap="round" stroke-width="1"/>
      <path id="패스_2289" data-name="패스 2289" d="M392.755,1134.143c-.416,1.77-.479,2.332.687,3.643a2.073,2.073,0,0,1,0,2.956" transform="translate(-375.372 -1134.143)" fill="none" stroke="#324755" stroke-linecap="round" stroke-width="1"/>
      <path id="패스_2290" data-name="패스 2290" d="M392.691,1134.143c-.319,1.358-.367,1.789.527,2.8a1.591,1.591,0,0,1,0,2.268" transform="translate(-372.222 -1133.206)" fill="none" stroke="#324755" stroke-linecap="round" stroke-width="1"/>
    </g>
  </g>
</svg>
