<svg id="icn_desserts" xmlns="http://www.w3.org/2000/svg" width="56" height="56" viewBox="0 0 56 56">
  <rect id="사각형_2465" data-name="사각형 2465" width="56" height="56" fill="rgba(255,255,255,0)"/>
  <g id="cake" transform="translate(27.3)">
    <path id="패스_2450" data-name="패스 2450" d="M26.116-13.21a.719.719,0,0,1,.308.528l.176,24.31a.352.352,0,0,1-.352.352L.7,5.463A.352.352,0,0,1,.352,5.11S.022-17.438,0-17.438c0-.066,16.735-3.729,16.735-3.729S23.561-15.419,26.116-13.21Z" transform="translate(0 28.708)" fill="#fff" stroke="#324755" stroke-linecap="round" stroke-width="1"/>
    <path id="합치기_20" data-name="합치기 20" d="M.612,4.382V3.445A.52.52,0,0,1,0,2.934V.519A.519.519,0,0,1,.822.1a.509.509,0,0,1,.809.412V4.382a.509.509,0,0,1-1.019,0Z" transform="translate(23.819 28.277)" fill="#fffdaf"/>
    <path id="패스_2460" data-name="패스 2460" d="M1695.749,1733.756l-24.37-5.053v5.053l24.37,6.294Z" transform="translate(-1670.292 -1710.719)" fill="#fffdaf"/>
    <path id="합치기_21" data-name="합치기 21" d="M1.031,2.147V1.955A.671.671,0,0,1,0,1.389V.671A.671.671,0,0,1,1.287.4a1.115,1.115,0,0,1,1.974.711V2.147a1.115,1.115,0,0,1-2.23,0Z" transform="translate(20.558 27.189)" fill="#fffdaf"/>
    <path id="패스_2457" data-name="패스 2457" d="M.5-2.25l23.612,4.4" transform="translate(1.038 14.284)" fill="none" stroke="#324755" stroke-linecap="round" stroke-width="1"/>
    <line id="선_226" data-name="선 226" x2="24.008" y2="4.932" transform="translate(1.45 18.067)" fill="none" stroke="#324755" stroke-linecap="round" stroke-width="1"/>
    <line id="선_228" data-name="선 228" x2="24.008" y2="7.046" transform="translate(1.45 29.693)" fill="none" stroke="#324755" stroke-linecap="round" stroke-width="1"/>
    <g id="그룹_4794" data-name="그룹 4794" transform="translate(7)">
      <g id="패스_2459" data-name="패스 2459" transform="translate(8.448 9.311) rotate(65)" fill="#17bf60">
        <path d="M 3.600282907485962 2.394196033477783 C 2.581102848052979 2.394188642501831 1.293559551239014 2.153051614761353 0.7076220512390137 2.03109884262085 L 0.5592775344848633 1.236101746559143 C 1.090576410293579 0.9795067310333252 2.262529611587524 0.4999960958957672 3.60027289390564 0.4999960958957672 C 4.590871810913086 0.5000015497207642 5.490516185760498 0.7629234194755554 6.106579780578613 1.003643870353699 L 5.364082813262939 1.418866157531738 L 5.308222770690918 1.450106143951416 L 5.262032985687256 1.49440610408783 C 5.017703056335449 1.727506160736084 4.186892986297607 2.394196033477783 3.600282907485962 2.394196033477783 Z" stroke="none"/>
        <path d="M 3.600292921066284 1.894196152687073 L 3.600282907485962 1.894196152687073 C 3.897963523864746 1.894196152687073 4.516328811645508 1.505828738212585 4.896531105041504 1.151779651641846 C 4.500244617462158 1.061888694763184 4.060384750366211 0.9999988675117493 3.60027289390564 0.9999961256980896 C 2.597341775894165 0.9999961256980896 1.690206289291382 1.294135928153992 1.122868895530701 1.53068470954895 L 1.137147068977356 1.607203364372253 C 1.776114106178284 1.729955911636353 2.783643484115601 1.894189834594727 3.600292921066284 1.894196152687073 M 3.600282907485962 2.894196033477783 C 2.166662931442261 2.894186019897461 0.2769528925418854 2.448926210403442 0.2769528925418854 2.448926210403442 L 2.89390573016135e-06 0.9647161364555359 C 2.89390573016135e-06 0.9647161364555359 1.611892938613892 -3.89060960515053e-06 3.60027289390564 -3.89060960515053e-06 C 5.588643074035645 6.109390142228222e-06 7.20054292678833 0.9647461175918579 7.20054292678833 0.9647461175918579 L 5.608122825622559 1.855266094207764 C 5.608122825622559 1.855266094207764 4.524872779846191 2.894196033477783 3.600282907485962 2.894196033477783 Z" stroke="none" fill="#324755"/>
      </g>
      <g id="패스_2458" data-name="패스 2458" transform="translate(7.595 8.752) rotate(30)" fill="#17bf60">
        <path d="M 3.858953952789307 2.394199371337891 C 3.858914136886597 2.394199371337891 3.858978986740112 2.394199371337891 3.858939170837402 2.394199371337891 L 3.85892915725708 2.394199371337891 C 2.747243881225586 2.394199371337891 1.341649532318115 2.146328449249268 0.7220411896705627 2.025388240814209 L 0.5658465027809143 1.244436025619507 C 1.137527108192444 0.9862554669380188 2.407197237014771 0.4999993145465851 3.858886003494263 0.4999993145465851 C 3.85900616645813 0.4999993145465851 3.858798980712891 0.4999993145465851 3.858919143676758 0.4999993145465851 C 4.926092624664307 0.500004768371582 5.894918441772461 0.762788712978363 6.560497760772705 1.004621863365173 L 5.77972936630249 1.4119793176651 L 5.724239349365234 1.440929293632507 L 5.67759895324707 1.482659339904785 C 5.393176555633545 1.735893845558167 4.510982513427734 2.394199371337891 3.858953952789307 2.394199371337891 Z" stroke="none"/>
        <path d="M 3.858939170837402 1.894199371337891 C 4.248013496398926 1.894199371337891 4.918460845947266 1.470038533210754 5.289409637451172 1.157348155975342 C 4.853097915649414 1.064331293106079 4.367455005645752 1.000002145767212 3.858889102935791 0.9999993443489075 C 2.752041339874268 0.9999993443489075 1.754061937332153 1.304684042930603 1.136180758476257 1.546586632728577 L 1.146154999732971 1.596456408500671 C 1.833509922027588 1.72094988822937 2.952865839004517 1.894199371337891 3.85892915725708 1.894199371337891 L 3.858939170837402 1.894199371337891 M 3.85892915725708 2.894199371337891 C 2.322319030761719 2.894199371337891 0.2968491315841675 2.448929309844971 0.2968491315841675 2.448929309844971 L -8.563232540836907e-07 0.9647193551063538 C -8.563232540836907e-07 0.9647193551063538 1.727689146995544 -1.067195898940554e-05 3.858919143676758 -6.719589009662741e-07 C 5.990139007568359 9.328041414846666e-06 7.717839241027832 0.9647493362426758 7.717839241027832 0.9647493362426758 L 6.011009216308594 1.855269312858582 C 6.011009216308594 1.855269312858582 4.849939346313477 2.894209384918213 3.85892915725708 2.894199371337891 Z" stroke="none" fill="#324755"/>
      </g>
      <g id="다각형_4" data-name="다각형 4" transform="translate(0)" fill="#fff">
        <path d="M 10.99528980255127 10.69999694824219 L 3.704710006713867 10.69999694824219 C 3.144379854202271 10.69999694824219 2.650949954986572 10.40562629699707 2.384769916534424 9.912567138671875 C 2.118589878082275 9.419507026672363 2.143209934234619 8.845466613769531 2.450629949569702 8.377017021179199 L 6.095920085906982 2.82228684425354 C 6.378279685974121 2.39203667640686 6.835370063781738 2.145276784896851 7.349999904632568 2.145276784896851 C 7.864629745483398 2.145276784896851 8.321720123291016 2.39203667640686 8.604080200195313 2.82228684425354 L 12.24936962127686 8.377017021179199 C 12.55679035186768 8.845466613769531 12.5814094543457 9.419507026672363 12.31523036956787 9.912567138671875 C 12.04905033111572 10.40562629699707 11.55562019348145 10.69999694824219 10.99528980255127 10.69999694824219 Z" stroke="none"/>
        <path d="M 7.349999904632568 2.645266532897949 C 7.006919860839844 2.645266532897949 6.702189922332764 2.809776306152344 6.513950347900391 3.096616744995117 L 2.868659973144531 8.651346206665039 C 2.573240280151367 9.101496696472168 2.739540100097656 9.517206192016602 2.824749946594238 9.675046920776367 C 2.90995979309082 9.832886695861816 3.16627025604248 10.19999694824219 3.704710006713867 10.19999694824219 L 10.99528980255127 10.19999694824219 C 11.53372955322266 10.19999694824219 11.79004001617432 9.832886695861816 11.8752498626709 9.675046920776367 C 11.96045970916748 9.517206192016602 12.12676048278809 9.101496696472168 11.83133983612061 8.651346206665039 L 8.186059951782227 3.096616744995117 C 7.997809886932373 2.809776306152344 7.693079948425293 2.645266532897949 7.349999904632568 2.645266532897949 M 7.349999904632568 1.645271301269531 C 7.988584995269775 1.645271301269531 8.627170562744141 1.9461669921875 9.022100448608398 2.547956466674805 L 12.66738986968994 8.102686882019043 C 13.54020977020264 9.432697296142578 12.58613014221191 11.19999694824219 10.99528980255127 11.19999694824219 L 3.704710006713867 11.19999694824219 C 2.113869667053223 11.19999694824219 1.1597900390625 9.432697296142578 2.032609939575195 8.102686882019043 L 5.677900314331055 2.547956466674805 C 6.072830200195313 1.9461669921875 6.711414813995361 1.645271301269531 7.349999904632568 1.645271301269531 Z" stroke="none" fill="#324755"/>
      </g>
      <g id="타원_695" data-name="타원 695" transform="translate(6.329 4.255) rotate(-54)" fill="#fff" stroke="#324755" stroke-width="1.2">
        <circle cx="0.469" cy="0.469" r="0.469" stroke="none"/>
        <circle cx="0.469" cy="0.469" r="0.131" fill="none"/>
      </g>
      <g id="타원_696" data-name="타원 696" transform="translate(9.129 8.455) rotate(-54)" fill="#fff" stroke="#324755" stroke-width="1.2">
        <circle cx="0.469" cy="0.469" r="0.469" stroke="none"/>
        <circle cx="0.469" cy="0.469" r="0.131" fill="none"/>
      </g>
      <g id="타원_697" data-name="타원 697" transform="translate(5.629 7.755) rotate(-54)" fill="#fff" stroke="#324755" stroke-width="1.2">
        <circle cx="0.469" cy="0.469" r="0.469" stroke="none"/>
        <circle cx="0.469" cy="0.469" r="0.131" fill="none"/>
      </g>
      <g id="타원_698" data-name="타원 698" transform="translate(8.429 5.655) rotate(-54)" fill="#fff" stroke="#324755" stroke-width="1.2">
        <circle cx="0.469" cy="0.469" r="0.469" stroke="none"/>
        <circle cx="0.469" cy="0.469" r="0.131" fill="none"/>
      </g>
      <g id="타원_699" data-name="타원 699" transform="translate(3.529 9.155) rotate(-54)" fill="#fff" stroke="#324755" stroke-width="1.2">
        <circle cx="0.469" cy="0.469" r="0.469" stroke="none"/>
        <circle cx="0.469" cy="0.469" r="0.131" fill="none"/>
      </g>
    </g>
  </g>
  <g id="ic_icecream" transform="translate(3.5 0.21)">
    <g id="패스_33" data-name="패스 33" transform="translate(1.086 7.09)" fill="#fff">
      <path d="M 11.26957416534424 10.27435493469238 C 8.666033744812012 10.27435493469238 6.121913909912109 10.1858549118042 4.105843544006348 10.02516555786133 C 1.558881044387817 9.822168350219727 0.7456982135772705 9.574828147888184 0.5019956827163696 9.467656135559082 C 0.6104682087898254 4.506186008453369 5.131870269775391 0.4999953806400299 10.6740837097168 0.4999953806400299 C 16.22793960571289 0.4999953806400299 20.75667953491211 4.522513389587402 20.84678649902344 9.498414039611816 C 20.6531810760498 9.601211547851563 19.96723175048828 9.853511810302734 17.7118034362793 10.04666519165039 C 15.99729347229004 10.19349575042725 13.70940399169922 10.27435493469238 11.26957416534424 10.27435493469238 Z" stroke="none"/>
      <path d="M 10.6740837097168 0.999995231628418 C 5.543261528015137 0.999995231628418 1.332571029663086 4.58967113494873 1.01878547668457 9.107939720153809 C 1.455009460449219 9.219483375549316 2.401706695556641 9.395066261291504 4.357284545898438 9.543205261230469 C 6.325054168701172 9.692265510559082 8.77988338470459 9.774354934692383 11.26957416534424 9.774354934692383 C 16.46575164794922 9.774354934692383 19.37574195861816 9.433256149291992 20.33283233642578 9.160137176513672 C 20.04768180847168 4.61760950088501 15.82444095611572 0.999995231628418 10.6740837097168 0.999995231628418 M 10.6740837097168 -4.76837158203125e-06 C 16.5692138671875 -4.76837158203125e-06 21.34816360473633 4.320475578308105 21.34816360473633 9.650054931640625 C 21.30710792541504 10.42576694488525 16.37950134277344 10.77435398101807 11.26957225799561 10.77435398101807 C 5.741500854492188 10.77435398101807 3.814697265625e-06 10.36643886566162 3.814697265625e-06 9.650054931640625 C 3.814697265625e-06 4.320475578308105 4.778953552246094 -4.76837158203125e-06 10.6740837097168 -4.76837158203125e-06 Z" stroke="none" fill="#324755"/>
    </g>
    <g id="패스_34" data-name="패스 34" transform="translate(1.707 0)" fill="#fffdaf">
      <path d="M 10.05230617523193 11.1420373916626 C 5.964369297027588 11.1420373916626 1.827818036079407 10.61700630187988 0.5081795454025269 10.43366527557373 C 0.7176975607872009 4.917696475982666 4.918560981750488 0.4999977350234985 10.05230617523193 0.4999977350234985 C 15.18605136871338 0.4999977350234985 19.38691520690918 4.917696475982666 19.59643363952637 10.43366527557373 C 18.27679443359375 10.61700630187988 14.14024257659912 11.1420373916626 10.05230617523193 11.1420373916626 Z" stroke="none"/>
      <path d="M 10.05230617523193 0.9999980926513672 C 5.328332901000977 0.9999980926513672 1.437910079956055 4.963954448699951 1.034507751464844 10.00018787384033 C 2.681066513061523 10.21639919281006 6.388191223144531 10.6420373916626 10.05230617523193 10.6420373916626 C 13.71642112731934 10.6420373916626 17.42354583740234 10.21639919281006 19.07010459899902 10.00018787384033 C 18.66670227050781 4.963954448699951 14.77627944946289 0.9999980926513672 10.05230617523193 0.9999980926513672 M 10.05230617523193 -1.9073486328125e-06 C 15.60403633117676 -1.9073486328125e-06 20.10461616516113 4.864687919616699 20.10461616516113 10.86557769775391 C 20.10461616516113 10.86557769775391 15.07845687866211 11.6420373916626 10.05230617523193 11.6420373916626 C 5.026156425476074 11.6420373916626 -3.814697265625e-06 10.86557769775391 -3.814697265625e-06 10.86557769775391 C -3.814697265625e-06 4.864687919616699 4.500576019287109 -1.9073486328125e-06 10.05230617523193 -1.9073486328125e-06 Z" stroke="none" fill="#324755"/>
    </g>
    <g id="패스_35" data-name="패스 35" transform="translate(23.301 33.086) rotate(180)" fill="#fff">
      <path d="M 22.47876739501953 17.07613563537598 C 22.29171562194824 17.04392623901367 22.07658386230469 17.0030403137207 21.84781646728516 16.95956230163574 C 21.64998626708984 16.92196273803711 21.4346981048584 16.88104248046875 21.2027473449707 16.83880233764648 C 20.56118774414063 16.72196197509766 20.24265670776367 16.50665283203125 19.90541648864746 16.27870178222656 C 19.46879768371582 15.98358249664307 18.97391700744629 15.64907264709473 17.93235778808594 15.64907264709473 C 16.96251678466797 15.64907264709473 16.4433479309082 16.00573348999023 15.98529720306396 16.32040214538574 C 15.57027721405029 16.60551261901855 15.24246692657471 16.83071327209473 14.54134750366211 16.83071327209473 C 13.84238719940186 16.83071327209473 13.51547718048096 16.60651206970215 13.10158729553223 16.32266235351563 C 12.64121723175049 16.00693321228027 12.11941719055176 15.64907264709473 11.13827705383301 15.64907264709473 C 10.13708686828613 15.64907264709473 9.613407135009766 16.03434181213379 9.19263744354248 16.34390258789063 C 8.82294750213623 16.61588287353516 8.530937194824219 16.83071327209473 7.895417213439941 16.83071327209473 C 7.265997409820557 16.83071327209473 7.000417232513428 16.62929344177246 6.632847309112549 16.35052299499512 C 6.220787048339844 16.03800201416016 5.707967281341553 15.64907264709473 4.692057132720947 15.64907264709473 C 4.179567337036133 15.64907264709473 3.679967164993286 15.95420265197754 3.151027202606201 16.27724266052246 C 2.73635721206665 16.53050231933594 2.307577133178711 16.79237174987793 1.914647221565247 16.87635231018066 L 1.88267719745636 16.88319206237793 L 1.85185718536377 16.89412307739258 C 1.614917278289795 16.97825241088867 1.357447266578674 17.02090263366699 1.086617231369019 17.02090263366699 C 0.9923451542854309 17.02090263366699 0.9025256037712097 17.01578712463379 0.8187224268913269 17.0074348449707 L 11.62041091918945 0.8964504599571228 C 14.63954925537109 5.379416465759277 20.96114158630371 14.77637195587158 22.47876739501953 17.07613563537598 Z" stroke="none"/>
      <path d="M 11.62134170532227 1.792932510375977 L 1.841203689575195 16.3802490234375 C 2.145683288574219 16.30537796020508 2.524074554443359 16.07427406311035 2.890417098999023 15.85053253173828 C 3.455078125 15.50567245483398 4.038957595825195 15.14907264709473 4.692056655883789 15.14907264709473 C 5.876127243041992 15.14907264709473 6.488126754760742 15.61322212219238 6.934988021850586 15.95213222503662 C 7.267326354980469 16.20419311523438 7.434146881103516 16.33071327209473 7.895417213439941 16.33071327209473 C 8.366827011108398 16.33071327209473 8.543787002563477 16.20052337646484 8.896327018737793 15.94115257263184 C 9.35069751739502 15.60688209533691 9.972977638244629 15.14907264709473 11.13827705383301 15.14907264709473 C 12.2743968963623 15.14907264709473 12.91594696044922 15.58905220031738 13.38438701629639 15.91032218933105 C 13.76663684844971 16.17247200012207 13.9973669052124 16.33071327209473 14.54134750366211 16.33071327209473 C 15.08727741241455 16.33071327209473 15.31872749328613 16.17171287536621 15.70217704772949 15.90828227996826 C 16.1685676574707 15.58788299560547 16.80731773376465 15.14907264709473 17.93235778808594 15.14907264709473 C 19.12704658508301 15.14907264709473 19.71388626098633 15.54573249816895 20.18542671203613 15.86446285247803 C 20.50316619873047 16.07923316955566 20.75414657592773 16.24888229370117 21.29232788085938 16.34689331054688 C 21.33152008056641 16.35403060913086 21.37026023864746 16.36113548278809 21.40850448608398 16.36818885803223 C 19.48199462890625 13.477294921875 15.07841491699219 6.926809310913086 11.62134170532227 1.792932510375977 M 11.61945724487305 1.9073486328125e-06 C 11.61945724487305 1.9073486328125e-06 22.93977737426758 16.80501174926758 23.23890686035156 17.33071327209473 C 23.36860847473145 17.55864906311035 23.2911319732666 17.64446067810059 23.0295352935791 17.64446067810059 C 22.68781089782715 17.64446067810059 22.03189659118652 17.4980354309082 21.11315727233887 17.33071327209473 C 19.49110794067383 17.03530311584473 19.57530784606934 16.14907264709473 17.93235778808594 16.14907264709473 C 16.28940773010254 16.14907264709473 16.2398681640625 17.33071327209473 14.54134750366211 17.33071327209473 C 12.84282684326172 17.33071327209473 12.79975700378418 16.14907264709473 11.13827705383301 16.14907264709473 C 9.476787567138672 16.14907264709473 9.506977081298828 17.33071327209473 7.895417213439941 17.33071327209473 C 6.283857345581055 17.33071327209473 6.37049674987793 16.14907264709473 4.692056655883789 16.14907264709473 C 3.970327377319336 16.14907264709473 3.001728057861328 17.15531349182129 2.019147872924805 17.36531257629395 C 1.69287109375 17.48115158081055 1.372550964355469 17.52090454101563 1.086614608764648 17.52090454101563 C 0.4611110687255859 17.52090454101563 -1.9073486328125e-06 17.33071327209473 -1.9073486328125e-06 17.33071327209473 L 11.61945724487305 1.9073486328125e-06 Z" stroke="none" fill="#324755"/>
    </g>
    <line id="선_3" data-name="선 3" x2="14.967" transform="translate(4.197 20.08)" fill="none" stroke="#324755" stroke-width="1"/>
    <line id="선_4" data-name="선 4" x2="9.059" transform="translate(6.955 23.42)" fill="none" stroke="#324755" stroke-width="1"/>
    <line id="선_5" data-name="선 5" x2="3.545" transform="translate(10.106 28.95)" fill="none" stroke="#324755" stroke-width="1"/>
    <g id="패스_2407" data-name="패스 2407" transform="translate(18.825 35.315) rotate(180)" fill="#fff">
      <path d="M 13.73669338226318 10.19766902923584 L 0.7221935391426086 10.19766902923584 C 0.6043235659599304 10.19766902923584 0.5267435312271118 10.14556884765625 0.5045335292816162 10.09716892242432 C 0.4985435605049133 10.08409881591797 0.494573563337326 10.07545948028564 0.5198535323143005 10.04607963562012 L 0.5375535488128662 10.02550888061523 L 0.5529235601425171 10.00314903259277 L 7.039480686187744 0.5643602013587952 C 7.082564353942871 0.5243179202079773 7.153407096862793 0.4999991953372955 7.229443550109863 0.4999991953372955 C 7.305480003356934 0.4999991953372955 7.376322746276855 0.5243179202079773 7.419406414031982 0.5643602013587952 L 13.90596389770508 10.00314903259277 L 13.92133331298828 10.02550888061523 L 13.93903350830078 10.04607963562012 C 13.96431350708008 10.07545948028564 13.96034336090088 10.08409881591797 13.95435333251953 10.09716892242432 C 13.93214321136475 10.14556884765625 13.85456371307373 10.19766902923584 13.73669338226318 10.19766902923584 Z" stroke="none"/>
      <path d="M 7.229443550109863 1.170749664306641 L 1.36954402923584 9.69766902923584 L 13.08934211730957 9.69766902923584 L 7.229443550109863 1.170749664306641 M 7.229443550109863 -2.86102294921875e-06 C 7.448103427886963 -2.86102294921875e-06 7.666763782501221 0.08368396759033203 7.810783386230469 0.2510595321655273 L 14.31803321838379 9.719959259033203 C 14.66722393035889 10.12576961517334 14.32718372344971 10.69766902923584 13.73669338226318 10.69766902923584 L 0.722193717956543 10.69766902923584 C 0.1317033767700195 10.69766902923584 -0.2083368301391602 10.12576961517334 0.1408538818359375 9.719959259033203 L 6.648103713989258 0.2510595321655273 C 6.792123317718506 0.08368396759033203 7.010783672332764 -2.86102294921875e-06 7.229443550109863 -2.86102294921875e-06 Z" stroke="none" fill="#324755"/>
    </g>
  </g>
  <g id="ic_coffee" transform="translate(15.01 23.155)">
    <g id="패스_30" data-name="패스 30" transform="translate(1.329 -1.242)" fill="#fff">
      <path d="M 18.16568565368652 32.18771743774414 L 3.978902339935303 32.18771743774414 L 0.5737031102180481 7.499998569488525 L 21.57088470458984 7.499998569488525 L 18.16568565368652 32.18771743774414 Z" stroke="none"/>
      <path d="M 1.147401809692383 7.999998092651367 L 4.414670944213867 31.68771934509277 L 17.72991943359375 31.68771934509277 L 20.9971866607666 7.999998092651367 L 1.147401809692383 7.999998092651367 M 3.814697265625e-06 7 L 22.14458465576172 7 L 18.60145378112793 32.68771743774414 L 3.543134689331055 32.68771743774414 L 3.814697265625e-06 7 Z" stroke="none" fill="#324755"/>
    </g>
    <g id="패스_31" data-name="패스 31" transform="translate(0.772 12.844)" fill="#00faac">
      <path d="M 20.48874092102051 10.12940120697021 L 2.770065784454346 10.12940120697021 L 1.566395401954651 0.5000015497207642 L 21.69241142272949 0.5000015497207642 L 20.48874092102051 10.12940120697021 Z" stroke="none"/>
      <path d="M 2.132785797119141 1.000001907348633 L 3.211458206176758 9.629401206970215 L 20.04734802246094 9.629401206970215 L 21.12602043151855 1.000001907348633 L 2.132785797119141 1.000001907348633 M 1.000003814697266 1.9073486328125e-06 L 22.25880241394043 1.9073486328125e-06 L 20.93013381958008 10.62940120697021 L 2.328672409057617 10.62940120697021 L 1.000003814697266 1.9073486328125e-06 Z" stroke="none" fill="#324755"/>
    </g>
    <g id="패스_32" data-name="패스 32" transform="translate(1.772 0)" fill="#fff">
      <path d="M 20.67599296569824 5.257596969604492 L 0.5828126668930054 5.257596969604492 L 1.314747333526611 0.4999968111515045 L 19.94405937194824 0.4999968111515045 L 20.67599296569824 5.257596969604492 Z" stroke="none"/>
      <path d="M 1.743701934814453 0.9999966621398926 L 1.165611267089844 4.757596969604492 L 20.09319305419922 4.757596969604492 L 19.51510429382324 0.9999966621398926 L 1.743701934814453 0.9999966621398926 M 0.8857822418212891 -3.337860107421875e-06 L 20.37302398681641 -3.337860107421875e-06 L 21.25880241394043 5.757596969604492 L 3.814697265625e-06 5.757596969604492 L 0.8857822418212891 -3.337860107421875e-06 Z" stroke="none" fill="#324755"/>
    </g>
    <g id="사각형_51" data-name="사각형 51" transform="translate(0 3.649)" fill="#fff" stroke="#324755" stroke-width="1">
      <rect width="24.632" height="4.105" stroke="none"/>
      <rect x="0.5" y="0.5" width="23.632" height="3.105" fill="none"/>
    </g>
    <circle id="타원_61" data-name="타원 61" cx="3.85" cy="3.85" r="3.85" transform="translate(8.211 14.319)" fill="#f2f2f2"/>
  </g>
</svg>
