<svg xmlns="http://www.w3.org/2000/svg" width="10.823" height="16.857" viewBox="0 0 10.823 16.857">
  <g id="icn_next_light" transform="translate(1.411 1.412)">
    <line id="선_17" data-name="선 17" y1="6.981" x2="8" transform="translate(0 7.053)" fill="none" stroke="#fff" stroke-linecap="round" stroke-width="2"/>
    <path id="패스_44" data-name="패스 44" d="M0,0,7.921,7.035" transform="translate(0.079 0)" fill="none" stroke="#fff" stroke-linecap="round" stroke-width="2"/>
  </g>
</svg>
