<svg xmlns="http://www.w3.org/2000/svg" width="30" height="22" viewBox="0 0 30 22">
  <g id="icn_card_inactive" transform="translate(14045 908)">
    <path id="Icon_metro-credit-card" data-name="Icon metro-credit-card" d="M29.758,5.784H5.383a2.79,2.79,0,0,0-2.812,2.75v16.5a2.79,2.79,0,0,0,2.812,2.75H29.758a2.79,2.79,0,0,0,2.813-2.75V8.534a2.79,2.79,0,0,0-2.812-2.75ZM5.383,7.617H29.758a.94.94,0,0,1,.938.917v3.75H4.446V8.534a.94.94,0,0,1,.938-.917ZM29.758,25.951H5.383a.94.94,0,0,1-.937-.917V14.784H30.7v10.25A.94.94,0,0,1,29.758,25.951Z" transform="translate(-14047.57 -913.784)" fill="#fff"/>
    <rect id="사각형_2682" data-name="사각형 2682" width="7" height="3" rx="1" transform="translate(-14026 -893)" fill="#fff"/>
    <rect id="사각형_2683" data-name="사각형 2683" width="3" height="3" rx="1" transform="translate(-14030 -893)" fill="#fff"/>
  </g>
</svg>
