<svg id="icn_menu_inactive" xmlns="http://www.w3.org/2000/svg" width="20" height="20" viewBox="0 0 20 20">
  <g id="icn_menu_inactive-2" data-name="icn_menu_inactive" opacity="0.9">
    <rect id="사각형_2556" data-name="사각형 2556" width="20" height="20" fill="rgba(255,255,255,0)"/>
    <g id="Icon_metro-spoon-fork" data-name="Icon metro-spoon-fork" transform="translate(1.565 1.119)" fill="none" stroke-linecap="round">
      <path d="M4.73.964A3.239,3.239,0,0,0,1.767,4.421,3.392,3.392,0,0,0,4.047,7.785l-.491,8a.92.92,0,0,0,.927.986h.494a.92.92,0,0,0,.927-.986l-.491-8A3.392,3.392,0,0,0,7.693,4.421,3.239,3.239,0,0,0,4.73.964Zm9.169,0L13.866,5.9h-.617L12.837.964h-.412L12.014,5.9H11.4L11.364.964h-.412l-.79,6.42a.494.494,0,0,0,.494.494h1.286l-.485,7.9a.92.92,0,0,0,.927.986h.494a.92.92,0,0,0,.927-.986l-.485-7.9h1.286a.494.494,0,0,0,.494-.494l-.79-6.42Z" stroke="none"/>
      <path d="M 4.730324745178223 0.9640121459960938 C 3.093904495239258 0.9640121459960938 1.767354965209961 2.51167106628418 1.767354965209961 4.420811653137207 C 1.767354965209961 6.055441856384277 2.739924430847168 7.424911499023438 4.046774864196777 7.784971237182617 L 3.556215286254883 15.78071117401123 C 3.522974967956543 16.32287216186523 3.940195083618164 16.7664909362793 4.483405113220215 16.7664909362793 L 4.977234840393066 16.7664909362793 C 5.520444869995117 16.7664909362793 5.937664985656738 16.32287216186523 5.904424667358398 15.78071117401123 L 5.413874626159668 7.784971237182617 C 6.720725059509277 7.424911499023438 7.69328498840332 6.055441856384277 7.69328498840332 4.420811653137207 C 7.69328498840332 2.51167106628418 6.366744995117188 0.9640121459960938 4.730324745178223 0.9640121459960938 M 10.95255470275879 0.9640121459960938 L 10.16243457794189 7.383771896362305 C 10.16243457794189 7.656481742858887 10.38351440429688 7.877601623535156 10.65626525878906 7.877601623535156 L 11.94234466552734 7.877601623535156 L 11.45746421813965 15.78071117401123 C 11.42422485351563 16.32287216186523 11.84144496917725 16.7664909362793 12.3846549987793 16.7664909362793 L 12.87848472595215 16.7664909362793 C 13.4216947555542 16.7664909362793 13.83891487121582 16.32287216186523 13.80567455291748 15.78071117401123 L 13.32078456878662 7.877601623535156 L 14.60686492919922 7.877601623535156 C 14.87961483001709 7.877601623535156 15.10069465637207 7.656481742858887 15.10069465637207 7.383771896362305 L 14.31056499481201 0.9640121459960938 L 13.89905452728271 0.9640121459960938 L 13.86612510681152 5.902291297912598 L 13.24883460998535 5.902291297912598 L 12.83732414245605 0.9640121459960938 L 12.42579460144043 0.9640121459960938 L 12.01428413391113 5.902291297912598 L 11.39700508117676 5.902291297912598 L 11.36407470703125 0.9640121459960938 L 10.95255470275879 0.9640121459960938 M 4.730324745178223 -0.6359882354736328 C 5.977974891662598 -0.6359882354736328 7.184404373168945 -0.0633087158203125 8.040274620056152 0.9352207183837891 C 8.534536361694336 1.511859893798828 8.89293384552002 2.198845863342285 9.096766471862793 2.944190979003906 L 9.364534378051758 0.7685623168945313 L 9.537405014038086 -0.6359882354736328 L 10.95255470275879 -0.6359882354736328 L 10.95357513427734 -0.6359882354736328 L 12.30968475341797 -0.6359882354736328 L 13.89905452728271 -0.6359882354736328 L 14.31056499481201 -0.6359882354736328 L 15.72571468353271 -0.6359882354736328 L 15.89858436584473 0.7685623168945313 L 16.6887149810791 7.188321113586426 L 16.7006950378418 7.28568172454834 L 16.7006950378418 7.383771896362305 C 16.7006950378418 8.3970947265625 15.97705841064453 9.244617462158203 15.01945877075195 9.436782836914063 L 15.40267467498779 15.68273162841797 C 15.44541454315186 16.37993240356445 15.19794464111328 17.06893157958984 14.72371482849121 17.5731315612793 C 14.24948501586914 18.07732200622559 13.57692527770996 18.36649131774902 12.87848472595215 18.36649131774902 L 12.3846549987793 18.36649131774902 C 11.68621444702148 18.36649131774902 11.0136547088623 18.07732200622559 10.53942489624023 17.5731315612793 C 10.06519508361816 17.06893157958984 9.817724227905273 16.37993240356445 9.860464096069336 15.68280124664307 L 10.24367332458496 9.436782836914063 C 9.286073684692383 9.24461841583252 8.562435150146484 8.3970947265625 8.562435150146484 7.383771896362305 L 8.562435150146484 7.28568172454834 L 8.57441520690918 7.188321113586426 L 8.580004692077637 7.142901420593262 C 8.20223331451416 7.800552368164063 7.689297676086426 8.357395172119141 7.076870918273926 8.762701034545898 L 7.501424789428711 15.68273162841797 C 7.544164657592773 16.37993240356445 7.296694755554199 17.06893157958984 6.822464942932129 17.5731315612793 C 6.348235130310059 18.07732200622559 5.675674438476563 18.36649131774902 4.977234840393066 18.36649131774902 L 4.483405113220215 18.36649131774902 C 3.784964561462402 18.36649131774902 3.112404823303223 18.07732200622559 2.638175010681152 17.5731315612793 C 2.163945198059082 17.06893157958984 1.916474342346191 16.37993240356445 1.95921516418457 15.68280124664307 L 2.383777618408203 8.762703895568848 C 1.034431457519531 7.869705200195313 0.1673545837402344 6.240172386169434 0.1673545837402344 4.420811653137207 C 0.1673545837402344 3.115781784057617 0.6123542785644531 1.877911567687988 1.420364379882813 0.9352207183837891 C 2.2762451171875 -0.0633087158203125 3.482674598693848 -0.6359882354736328 4.730324745178223 -0.6359882354736328 Z" stroke="none" fill="#c8d1d3"/>
    </g>
  </g>
</svg>
