<svg xmlns="http://www.w3.org/2000/svg" width="22" height="18" viewBox="0 0 22 18">
  <g id="icn_camera_light" transform="translate(0 -2)">
    <path id="패스_2444" data-name="패스 2444" d="M21,17.222A1.8,1.8,0,0,1,19.182,19H2.818A1.8,1.8,0,0,1,1,17.222V7.444A1.8,1.8,0,0,1,2.818,5.667H6.455L8.273,3h5.455l1.818,2.667h3.636A1.8,1.8,0,0,1,21,7.444Z" fill="none" stroke="#fff" stroke-linecap="round" stroke-linejoin="round" stroke-width="2"/>
    <path id="패스_2445" data-name="패스 2445" d="M16,13a4,4,0,1,1-4-4A4,4,0,0,1,16,13Z" transform="translate(-1 -1.2)" fill="none" stroke="#fff" stroke-linecap="round" stroke-linejoin="round" stroke-width="2"/>
  </g>
</svg>
