<svg id="icn_map_pin_dark" xmlns="http://www.w3.org/2000/svg" width="20" height="20" viewBox="0 0 20 20">
  <rect id="사각형_2572" data-name="사각형 2572" width="20" height="20" opacity="0"/>
  <g id="Icon_feather-map-pin" data-name="Icon feather-map-pin" transform="translate(0 0.167)">
    <path id="패스_2433" data-name="패스 2433" d="M17.5,8.2c0,5.727-7.5,10.636-7.5,10.636S2.5,13.924,2.5,8.2A7.433,7.433,0,0,1,10,.833,7.433,7.433,0,0,1,17.5,8.2Z" fill="none" stroke="#324755" stroke-linecap="round" stroke-linejoin="round" stroke-width="1.667"/>
    <path id="패스_2434" data-name="패스 2434" d="M12.5,8.333a2.5,2.5,0,1,1-2.5-2.5,2.5,2.5,0,0,1,2.5,2.5Z" transform="translate(0 -0.125)" fill="none" stroke="#324755" stroke-linecap="round" stroke-linejoin="round" stroke-width="1.667"/>
  </g>
</svg>
